repport_data/power_measurements_V3/data_31/data_31_002.csv

Channel              :,CH1,CH2
Frequency            :,  ?,  ?
Period               :,  ?,  ?
PK-PK                :,192.0mV,80.00mV
Probe attenuation    :,1X,1X
Voltage per ADC value:,0.250000mV,2.500000mV
Time interval        :,400.00000uS,400.00000uS

index,CH1_Voltage(mV),CH2_Voltage(mV)
1,-448.000000,-3120.000000
2,-448.000000,-3120.000000
3,-452.000000,-3080.000000
4,-452.000000,-3120.000000
5,-448.000000,-3120.000000
6,-452.000000,-3080.000000
7,-452.000000,-3120.000000
8,-448.000000,-3080.000000
9,-452.000000,-3120.000000
10,-452.000000,-3080.000000
11,-452.000000,-3080.000000
12,-452.000000,-3080.000000
13,-448.000000,-3080.000000
14,-452.000000,-3120.000000
15,-452.000000,-3120.000000
16,-452.000000,-3080.000000
17,-448.000000,-3120.000000
18,-452.000000,-3080.000000
19,-452.000000,-3080.000000
20,-452.000000,-3120.000000
21,-448.000000,-3080.000000
22,-448.000000,-3080.000000
23,-452.000000,-3080.000000
24,-452.000000,-3080.000000
25,-452.000000,-3120.000000
26,-448.000000,-3080.000000
27,-452.000000,-3080.000000
28,-452.000000,-3080.000000
29,-448.000000,-3080.000000
30,-452.000000,-3080.000000
31,-452.000000,-3120.000000
32,-452.000000,-3080.000000
33,-448.000000,-3080.000000
34,-452.000000,-3120.000000
35,-452.000000,-3120.000000
36,-448.000000,-3080.000000
37,-452.000000,-3080.000000
38,-452.000000,-3080.000000
39,-452.000000,-3080.000000
40,-448.000000,-3120.000000
41,-452.000000,-3120.000000
42,-448.000000,-3120.000000
43,-412.000000,-3120.000000
44,-376.000000,-3080.000000
45,-356.000000,-3080.000000
46,-332.000000,-3080.000000
47,-312.000000,-3080.000000
48,-300.000000,-3080.000000
49,-280.000000,-3080.000000
50,-272.000000,-3080.000000
51,-276.000000,-3080.000000
52,-280.000000,-3080.000000
53,-288.000000,-3120.000000
54,-296.000000,-3080.000000
55,-300.000000,-3080.000000
56,-300.000000,-3080.000000
57,-304.000000,-3080.000000
58,-312.000000,-3080.000000
59,-316.000000,-3080.000000
60,-348.000000,-3080.000000
61,-384.000000,-3080.000000
62,-404.000000,-3120.000000
63,-424.000000,-3080.000000
64,-432.000000,-3120.000000
65,-440.000000,-3080.000000
66,-444.000000,-3080.000000
67,-444.000000,-3120.000000
68,-448.000000,-3120.000000
69,-448.000000,-3080.000000
70,-452.000000,-3080.000000
71,-448.000000,-3120.000000
72,-452.000000,-3080.000000
73,-452.000000,-3080.000000
74,-452.000000,-3080.000000
75,-448.000000,-3080.000000
76,-452.000000,-3080.000000
77,-452.000000,-3080.000000
78,-452.000000,-3080.000000
79,-452.000000,-3080.000000
80,-448.000000,-3120.000000
81,-452.000000,-3120.000000
82,-448.000000,-3080.000000
83,-452.000000,-3080.000000
84,-448.000000,-3080.000000
85,-452.000000,-3080.000000
86,-452.000000,-3080.000000
87,-452.000000,-3080.000000
88,-452.000000,-3120.000000
89,-452.000000,-3080.000000
90,-452.000000,-3080.000000
91,-452.000000,-3120.000000
92,-448.000000,-3080.000000
93,-452.000000,-3080.000000
94,-452.000000,-3080.000000
95,-452.000000,-3080.000000
96,-452.000000,-3080.000000
97,-452.000000,-3080.000000
98,-452.000000,-3120.000000
99,-452.000000,-3080.000000
100,-452.000000,-3080.000000
101,-452.000000,-3120.000000
102,-448.000000,-3120.000000
103,-448.000000,-3080.000000
104,-452.000000,-3120.000000
105,-452.000000,-3080.000000
106,-452.000000,-3120.000000
107,-448.000000,-3080.000000
108,-452.000000,-3080.000000
109,-452.000000,-3080.000000
110,-452.000000,-3080.000000
111,-448.000000,-3120.000000
112,-452.000000,-3080.000000
113,-452.000000,-3120.000000
114,-452.000000,-3080.000000
115,-452.000000,-3080.000000
116,-452.000000,-3080.000000
117,-452.000000,-3080.000000
118,-448.000000,-3080.000000
119,-448.000000,-3080.000000
120,-452.000000,-3080.000000
121,-452.000000,-3120.000000
122,-452.000000,-3080.000000
123,-448.000000,-3080.000000
124,-452.000000,-3120.000000
125,-452.000000,-3080.000000
126,-452.000000,-3080.000000
127,-452.000000,-3120.000000
128,-448.000000,-3080.000000
129,-448.000000,-3080.000000
130,-452.000000,-3120.000000
131,-452.000000,-3080.000000
132,-452.000000,-3080.000000
133,-452.000000,-3080.000000
134,-452.000000,-3080.000000
135,-448.000000,-3080.000000
136,-452.000000,-3080.000000
137,-448.000000,-3080.000000
138,-452.000000,-3080.000000
139,-452.000000,-3080.000000
140,-448.000000,-3080.000000
141,-452.000000,-3120.000000
142,-452.000000,-3080.000000
143,-452.000000,-3080.000000
144,-448.000000,-3080.000000
145,-448.000000,-3080.000000
146,-452.000000,-3080.000000
147,-452.000000,-3080.000000
148,-448.000000,-3080.000000
149,-448.000000,-3080.000000
150,-452.000000,-3120.000000
151,-452.000000,-3080.000000
152,-452.000000,-3080.000000
153,-452.000000,-3080.000000
154,-452.000000,-3080.000000
155,-448.000000,-3120.000000
156,-452.000000,-3080.000000
157,-448.000000,-3080.000000
158,-452.000000,-3080.000000
159,-448.000000,-3120.000000
160,-452.000000,-3080.000000
161,-452.000000,-3080.000000
162,-452.000000,-3080.000000
163,-452.000000,-3080.000000
164,-448.000000,-3080.000000
165,-448.000000,-3080.000000
166,-456.000000,-3080.000000
167,-452.000000,-3080.000000
168,-452.000000,-3120.000000
169,-452.000000,-3080.000000
170,-452.000000,-3080.000000
171,-448.000000,-3080.000000
172,-452.000000,-3080.000000
173,-452.000000,-3080.000000
174,-448.000000,-3080.000000
175,-448.000000,-3080.000000
176,-452.000000,-3080.000000
177,-448.000000,-3080.000000
178,-452.000000,-3080.000000
179,-452.000000,-3080.000000
180,-448.000000,-3120.000000
181,-452.000000,-3080.000000
182,-448.000000,-3080.000000
183,-432.000000,-3080.000000
184,-388.000000,-3120.000000
185,-360.000000,-3120.000000
186,-340.000000,-3120.000000
187,-316.000000,-3120.000000
188,-304.000000,-3080.000000
189,-292.000000,-3080.000000
190,-264.000000,-3080.000000
191,-276.000000,-3120.000000
192,-276.000000,-3080.000000
193,-288.000000,-3080.000000
194,-292.000000,-3080.000000
195,-296.000000,-3120.000000
196,-300.000000,-3120.000000
197,-300.000000,-3120.000000
198,-308.000000,-3120.000000
199,-316.000000,-3080.000000
200,-320.000000,-3080.000000
201,-368.000000,-3120.000000
202,-400.000000,-3080.000000
203,-420.000000,-3120.000000
204,-428.000000,-3080.000000
205,-436.000000,-3080.000000
206,-440.000000,-3120.000000
207,-444.000000,-3080.000000
208,-444.000000,-3120.000000
209,-448.000000,-3120.000000
210,-448.000000,-3080.000000
211,-452.000000,-3080.000000
212,-452.000000,-3120.000000
213,-448.000000,-3120.000000
214,-452.000000,-3080.000000
215,-452.000000,-3120.000000
216,-452.000000,-3120.000000
217,-448.000000,-3120.000000
218,-452.000000,-3080.000000
219,-448.000000,-3080.000000
220,-448.000000,-3080.000000
221,-452.000000,-3080.000000
222,-452.000000,-3080.000000
223,-452.000000,-3080.000000
224,-452.000000,-3080.000000
225,-448.000000,-3080.000000
226,-448.000000,-3080.000000
227,-448.000000,-3080.000000
228,-448.000000,-3080.000000
229,-448.000000,-3120.000000
230,-452.000000,-3080.000000
231,-452.000000,-3080.000000
232,-452.000000,-3120.000000
233,-452.000000,-3080.000000
234,-452.000000,-3080.000000
235,-452.000000,-3120.000000
236,-452.000000,-3080.000000
237,-452.000000,-3080.000000
238,-452.000000,-3080.000000
239,-452.000000,-3120.000000
240,-452.000000,-3080.000000
241,-452.000000,-3080.000000
242,-448.000000,-3080.000000
243,-452.000000,-3080.000000
244,-448.000000,-3080.000000
245,-448.000000,-3080.000000
246,-448.000000,-3120.000000
247,-452.000000,-3080.000000
248,-452.000000,-3080.000000
249,-448.000000,-3080.000000
250,-452.000000,-3120.000000
251,-452.000000,-3080.000000
252,-452.000000,-3080.000000
253,-452.000000,-3120.000000
254,-448.000000,-3080.000000
255,-452.000000,-3080.000000
256,-452.000000,-3080.000000
257,-448.000000,-3080.000000
258,-452.000000,-3120.000000
259,-448.000000,-3080.000000
260,-452.000000,-3080.000000
261,-452.000000,-3120.000000
262,-452.000000,-3080.000000
263,-448.000000,-3080.000000
264,-448.000000,-3080.000000
265,-452.000000,-3080.000000
266,-452.000000,-3120.000000
267,-452.000000,-3080.000000
268,-448.000000,-3080.000000
269,-448.000000,-3080.000000
270,-452.000000,-3080.000000
271,-452.000000,-3080.000000
272,-448.000000,-3080.000000
273,-448.000000,-3080.000000
274,-452.000000,-3120.000000
275,-452.000000,-3080.000000
276,-452.000000,-3080.000000
277,-452.000000,-3080.000000
278,-452.000000,-3080.000000
279,-448.000000,-3080.000000
280,-452.000000,-3080.000000
281,-452.000000,-3080.000000
282,-452.000000,-3080.000000
283,-448.000000,-3080.000000
284,-452.000000,-3080.000000
285,-448.000000,-3080.000000
286,-452.000000,-3080.000000
287,-448.000000,-3080.000000
288,-452.000000,-3080.000000
289,-452.000000,-3080.000000
290,-452.000000,-3080.000000
291,-448.000000,-3080.000000
292,-448.000000,-3120.000000
293,-448.000000,-3080.000000
294,-448.000000,-3080.000000
295,-448.000000,-3080.000000
296,-452.000000,-3120.000000
297,-452.000000,-3080.000000
298,-448.000000,-3080.000000
299,-448.000000,-3080.000000
300,-452.000000,-3080.000000
301,-452.000000,-3080.000000
302,-452.000000,-3080.000000
303,-448.000000,-3080.000000
304,-452.000000,-3080.000000
305,-452.000000,-3080.000000
306,-448.000000,-3080.000000
307,-452.000000,-3080.000000
308,-452.000000,-3080.000000
309,-448.000000,-3080.000000
310,-448.000000,-3120.000000
311,-448.000000,-3080.000000
312,-448.000000,-3080.000000
313,-452.000000,-3080.000000
314,-452.000000,-3080.000000
315,-452.000000,-3080.000000
316,-448.000000,-3080.000000
317,-452.000000,-3120.000000
318,-448.000000,-3080.000000
319,-452.000000,-3080.000000
320,-452.000000,-3080.000000
321,-452.000000,-3080.000000
322,-452.000000,-3080.000000
323,-452.000000,-3080.000000
324,-404.000000,-3080.000000
325,-372.000000,-3120.000000
326,-352.000000,-3080.000000
327,-328.000000,-3120.000000
328,-308.000000,-3120.000000
329,-304.000000,-3080.000000
330,-276.000000,-3080.000000
331,-272.000000,-3080.000000
332,-276.000000,-3120.000000
333,-280.000000,-3080.000000
334,-288.000000,-3080.000000
335,-296.000000,-3120.000000
336,-296.000000,-3080.000000
337,-300.000000,-3080.000000
338,-300.000000,-3120.000000
339,-312.000000,-3080.000000
340,-316.000000,-3120.000000
341,-352.000000,-3080.000000
342,-388.000000,-3080.000000
343,-412.000000,-3120.000000
344,-428.000000,-3120.000000
345,-436.000000,-3080.000000
346,-440.000000,-3080.000000
347,-444.000000,-3120.000000
348,-448.000000,-3080.000000
349,-448.000000,-3120.000000
350,-448.000000,-3080.000000
351,-448.000000,-3120.000000
352,-448.000000,-3080.000000
353,-448.000000,-3120.000000
354,-452.000000,-3080.000000
355,-448.000000,-3120.000000
356,-448.000000,-3080.000000
357,-448.000000,-3080.000000
358,-452.000000,-3080.000000
359,-452.000000,-3080.000000
360,-448.000000,-3120.000000
361,-452.000000,-3080.000000
362,-452.000000,-3080.000000
363,-448.000000,-3080.000000
364,-452.000000,-3080.000000
365,-452.000000,-3120.000000
366,-448.000000,-3080.000000
367,-448.000000,-3080.000000
368,-448.000000,-3080.000000
369,-452.000000,-3080.000000
370,-456.000000,-3040.000000
371,-452.000000,-3080.000000
372,-448.000000,-3080.000000
373,-448.000000,-3080.000000
374,-448.000000,-3080.000000
375,-452.000000,-3080.000000
376,-452.000000,-3120.000000
377,-452.000000,-3120.000000
378,-452.000000,-3080.000000
379,-452.000000,-3080.000000
380,-452.000000,-3080.000000
381,-452.000000,-3080.000000
382,-448.000000,-3080.000000
383,-452.000000,-3080.000000
384,-452.000000,-3080.000000
385,-452.000000,-3080.000000
386,-452.000000,-3080.000000
387,-452.000000,-3120.000000
388,-452.000000,-3120.000000
389,-452.000000,-3120.000000
390,-452.000000,-3080.000000
391,-452.000000,-3080.000000
392,-452.000000,-3080.000000
393,-448.000000,-3080.000000
394,-452.000000,-3080.000000
395,-452.000000,-3080.000000
396,-448.000000,-3080.000000
397,-452.000000,-3080.000000
398,-448.000000,-3080.000000
399,-452.000000,-3120.000000
400,-452.000000,-3080.000000
401,-452.000000,-3080.000000
402,-452.000000,-3080.000000
403,-452.000000,-3080.000000
404,-452.000000,-3080.000000
405,-452.000000,-3120.000000
406,-452.000000,-3080.000000
407,-452.000000,-3080.000000
408,-448.000000,-3080.000000
409,-448.000000,-3120.000000
410,-452.000000,-3080.000000
411,-452.000000,-3120.000000
412,-448.000000,-3080.000000
413,-448.000000,-3120.000000
414,-452.000000,-3080.000000
415,-452.000000,-3080.000000
416,-452.000000,-3080.000000
417,-452.000000,-3120.000000
418,-448.000000,-3080.000000
419,-448.000000,-3080.000000
420,-452.000000,-3080.000000
421,-452.000000,-3080.000000
422,-452.000000,-3080.000000
423,-452.000000,-3080.000000
424,-452.000000,-3080.000000
425,-448.000000,-3080.000000
426,-452.000000,-3080.000000
427,-452.000000,-3080.000000
428,-452.000000,-3120.000000
429,-452.000000,-3080.000000
430,-452.000000,-3080.000000
431,-452.000000,-3080.000000
432,-452.000000,-3080.000000
433,-452.000000,-3080.000000
434,-452.000000,-3080.000000
435,-448.000000,-3120.000000
436,-452.000000,-3080.000000
437,-452.000000,-3080.000000
438,-452.000000,-3120.000000
439,-448.000000,-3080.000000
440,-452.000000,-3120.000000
441,-452.000000,-3080.000000
442,-452.000000,-3080.000000
443,-452.000000,-3120.000000
444,-448.000000,-3080.000000
445,-452.000000,-3080.000000
446,-452.000000,-3080.000000
447,-448.000000,-3080.000000
448,-452.000000,-3080.000000
449,-448.000000,-3080.000000
450,-448.000000,-3080.000000
451,-448.000000,-3080.000000
452,-452.000000,-3120.000000
453,-448.000000,-3080.000000
454,-448.000000,-3120.000000
455,-452.000000,-3080.000000
456,-452.000000,-3080.000000
457,-452.000000,-3080.000000
458,-448.000000,-3080.000000
459,-456.000000,-3080.000000
460,-448.000000,-3120.000000
461,-452.000000,-3080.000000
462,-452.000000,-3120.000000
463,-452.000000,-3080.000000
464,-424.000000,-3080.000000
465,-384.000000,-3080.000000
466,-360.000000,-3080.000000
467,-340.000000,-3080.000000
468,-312.000000,-3120.000000
469,-304.000000,-3080.000000
470,-288.000000,-3080.000000
471,-272.000000,-3080.000000
472,-276.000000,-3080.000000
473,-284.000000,-3120.000000
474,-288.000000,-3120.000000
475,-292.000000,-3080.000000
476,-296.000000,-3080.000000
477,-300.000000,-3080.000000
478,-300.000000,-3080.000000
479,-308.000000,-3080.000000
480,-316.000000,-3120.000000
481,-332.000000,-3120.000000
482,-376.000000,-3080.000000
483,-404.000000,-3120.000000
484,-420.000000,-3080.000000
485,-432.000000,-3080.000000
486,-436.000000,-3080.000000
487,-444.000000,-3080.000000
488,-444.000000,-3120.000000
489,-448.000000,-3120.000000
490,-448.000000,-3080.000000
491,-448.000000,-3080.000000
492,-452.000000,-3120.000000
493,-448.000000,-3080.000000
494,-452.000000,-3080.000000
495,-448.000000,-3120.000000
496,-452.000000,-3080.000000
497,-452.000000,-3080.000000
498,-448.000000,-3120.000000
499,-452.000000,-3080.000000
500,-452.000000,-3080.000000
501,-452.000000,-3080.000000
502,-452.000000,-3080.000000
503,-452.000000,-3080.000000
504,-452.000000,-3080.000000
505,-448.000000,-3080.000000
506,-452.000000,-3120.000000
507,-448.000000,-3080.000000
508,-452.000000,-3080.000000
509,-452.000000,-3080.000000
510,-448.000000,-3080.000000
511,-448.000000,-3080.000000
512,-448.000000,-3120.000000
513,-452.000000,-3080.000000
514,-452.000000,-3080.000000
515,-452.000000,-3080.000000
516,-452.000000,-3080.000000
517,-452.000000,-3080.000000
518,-452.000000,-3080.000000
519,-452.000000,-3080.000000
520,-448.000000,-3080.000000
521,-452.000000,-3080.000000
522,-452.000000,-3080.000000
523,-452.000000,-3080.000000
524,-452.000000,-3080.000000
525,-456.000000,-3120.000000
526,-452.000000,-3080.000000
527,-448.000000,-3080.000000
528,-448.000000,-3080.000000
529,-452.000000,-3080.000000
530,-448.000000,-3080.000000
531,-452.000000,-3120.000000
532,-448.000000,-3080.000000
533,-452.000000,-3120.000000
534,-448.000000,-3080.000000
535,-448.000000,-3120.000000
536,-448.000000,-3080.000000
537,-452.000000,-3080.000000
538,-452.000000,-3080.000000
539,-452.000000,-3080.000000
540,-452.000000,-3080.000000
541,-448.000000,-3080.000000
542,-452.000000,-3120.000000
543,-448.000000,-3080.000000
544,-452.000000,-3080.000000
545,-452.000000,-3080.000000
546,-452.000000,-3080.000000
547,-448.000000,-3080.000000
548,-452.000000,-3080.000000
549,-452.000000,-3120.000000
550,-452.000000,-3080.000000
551,-452.000000,-3080.000000
552,-452.000000,-3080.000000
553,-452.000000,-3120.000000
554,-452.000000,-3080.000000
555,-452.000000,-3120.000000
556,-456.000000,-3080.000000
557,-452.000000,-3080.000000
558,-448.000000,-3080.000000
559,-452.000000,-3080.000000
560,-452.000000,-3080.000000
561,-452.000000,-3080.000000
562,-448.000000,-3080.000000
563,-452.000000,-3080.000000
564,-452.000000,-3080.000000
565,-452.000000,-3080.000000
566,-452.000000,-3120.000000
567,-448.000000,-3080.000000
568,-448.000000,-3080.000000
569,-452.000000,-3080.000000
570,-452.000000,-3120.000000
571,-452.000000,-3080.000000
572,-448.000000,-3080.000000
573,-452.000000,-3080.000000
574,-448.000000,-3080.000000
575,-452.000000,-3080.000000
576,-456.000000,-3080.000000
577,-448.000000,-3080.000000
578,-452.000000,-3080.000000
579,-452.000000,-3080.000000
580,-452.000000,-3120.000000
581,-452.000000,-3080.000000
582,-452.000000,-3080.000000
583,-452.000000,-3080.000000
584,-452.000000,-3120.000000
585,-452.000000,-3120.000000
586,-452.000000,-3080.000000
587,-448.000000,-3080.000000
588,-448.000000,-3080.000000
589,-452.000000,-3080.000000
590,-448.000000,-3120.000000
591,-452.000000,-3080.000000
592,-448.000000,-3080.000000
593,-448.000000,-3080.000000
594,-452.000000,-3120.000000
595,-452.000000,-3080.000000
596,-452.000000,-3120.000000
597,-448.000000,-3080.000000
598,-452.000000,-3080.000000
599,-448.000000,-3080.000000
600,-452.000000,-3120.000000
601,-452.000000,-3080.000000
602,-452.000000,-3080.000000
603,-452.000000,-3080.000000
604,-452.000000,-3080.000000
605,-400.000000,-3080.000000
606,-368.000000,-3080.000000
607,-348.000000,-3080.000000
608,-324.000000,-3080.000000
609,-304.000000,-3080.000000
610,-304.000000,-3080.000000
611,-272.000000,-3080.000000
612,-272.000000,-3080.000000
613,-276.000000,-3120.000000
614,-284.000000,-3080.000000
615,-292.000000,-3120.000000
616,-296.000000,-3080.000000
617,-300.000000,-3080.000000
618,-300.000000,-3080.000000
619,-304.000000,-3080.000000
620,-312.000000,-3080.000000
621,-316.000000,-3120.000000
622,-360.000000,-3120.000000
623,-396.000000,-3080.000000
624,-416.000000,-3080.000000
625,-424.000000,-3080.000000
626,-436.000000,-3120.000000
627,-440.000000,-3080.000000
628,-444.000000,-3080.000000
629,-444.000000,-3120.000000
630,-448.000000,-3120.000000
631,-448.000000,-3080.000000
632,-452.000000,-3080.000000
633,-448.000000,-3080.000000
634,-448.000000,-3080.000000
635,-448.000000,-3120.000000
636,-452.000000,-3080.000000
637,-448.000000,-3120.000000
638,-452.000000,-3080.000000
639,-448.000000,-3120.000000
640,-448.000000,-3120.000000
641,-452.000000,-3120.000000
642,-448.000000,-3080.000000
643,-452.000000,-3080.000000
644,-452.000000,-3080.000000
645,-448.000000,-3080.000000
646,-448.000000,-3080.000000
647,-452.000000,-3080.000000
648,-456.000000,-3080.000000
649,-452.000000,-3080.000000
650,-452.000000,-3080.000000
651,-452.000000,-3120.000000
652,-448.000000,-3080.000000
653,-452.000000,-3080.000000
654,-448.000000,-3080.000000
655,-452.000000,-3080.000000
656,-452.000000,-3080.000000
657,-452.000000,-3080.000000
658,-452.000000,-3080.000000
659,-448.000000,-3080.000000
660,-452.000000,-3080.000000
661,-452.000000,-3080.000000
662,-452.000000,-3120.000000
663,-452.000000,-3080.000000
664,-448.000000,-3080.000000
665,-448.000000,-3080.000000
666,-452.000000,-3080.000000
667,-452.000000,-3120.000000
668,-452.000000,-3120.000000
669,-452.000000,-3080.000000
670,-452.000000,-3080.000000
671,-452.000000,-3080.000000
672,-452.000000,-3080.000000
673,-452.000000,-3120.000000
674,-452.000000,-3080.000000
675,-448.000000,-3120.000000
676,-452.000000,-3120.000000
677,-448.000000,-3080.000000
678,-452.000000,-3080.000000
679,-452.000000,-3080.000000
680,-448.000000,-3080.000000
681,-448.000000,-3120.000000
682,-452.000000,-3080.000000
683,-452.000000,-3080.000000
