repport_data/power_measurements_V3/data_31/data_31_001.csv

Channel              :,CH1,CH2
Frequency            :,  ?,  ?
Period               :,  ?,  ?
PK-PK                :,332.0mV,80.00mV
Probe attenuation    :,1X,1X
Voltage per ADC value:,0.250000mV,2.500000mV
Time interval        :,400.00000uS,400.00000uS

index,CH1_Voltage(mV),CH2_Voltage(mV)
1,-328.000000,-3080.000000
2,-328.000000,-3080.000000
3,-332.000000,-3080.000000
4,-332.000000,-3080.000000
5,-332.000000,-3080.000000
6,-332.000000,-3080.000000
7,-332.000000,-3120.000000
8,-328.000000,-3080.000000
9,-328.000000,-3120.000000
10,-248.000000,-3080.000000
11,-148.000000,-3120.000000
12,-112.000000,-3120.000000
13,-196.000000,-3080.000000
14,-244.000000,-3080.000000
15,-276.000000,-3080.000000
16,-296.000000,-3080.000000
17,-308.000000,-3080.000000
18,-316.000000,-3120.000000
19,-320.000000,-3080.000000
20,-320.000000,-3080.000000
21,-324.000000,-3080.000000
22,-328.000000,-3080.000000
23,-328.000000,-3080.000000
24,-328.000000,-3080.000000
25,-328.000000,-3080.000000
26,-328.000000,-3080.000000
27,-328.000000,-3080.000000
28,-332.000000,-3080.000000
29,-332.000000,-3080.000000
30,-332.000000,-3080.000000
31,-328.000000,-3080.000000
32,-332.000000,-3080.000000
33,-328.000000,-3080.000000
34,-332.000000,-3120.000000
35,-328.000000,-3080.000000
36,-332.000000,-3080.000000
37,-332.000000,-3080.000000
38,-328.000000,-3080.000000
39,-332.000000,-3080.000000
40,-332.000000,-3080.000000
41,-332.000000,-3080.000000
42,-332.000000,-3080.000000
43,-332.000000,-3080.000000
44,-328.000000,-3080.000000
45,-328.000000,-3080.000000
46,-332.000000,-3080.000000
47,-328.000000,-3080.000000
48,-304.000000,-3080.000000
49,-180.000000,-3080.000000
50,-108.000000,-3080.000000
51,-168.000000,-3080.000000
52,-224.000000,-3080.000000
53,-264.000000,-3080.000000
54,-288.000000,-3080.000000
55,-304.000000,-3080.000000
56,-316.000000,-3080.000000
57,-316.000000,-3120.000000
58,-324.000000,-3080.000000
59,-324.000000,-3080.000000
60,-328.000000,-3120.000000
61,-324.000000,-3080.000000
62,-328.000000,-3120.000000
63,-328.000000,-3080.000000
64,-328.000000,-3080.000000
65,-328.000000,-3080.000000
66,-332.000000,-3080.000000
67,-328.000000,-3080.000000
68,-328.000000,-3080.000000
69,-328.000000,-3080.000000
70,-328.000000,-3080.000000
71,-328.000000,-3080.000000
72,-328.000000,-3080.000000
73,-328.000000,-3080.000000
74,-328.000000,-3080.000000
75,-328.000000,-3080.000000
76,-328.000000,-3120.000000
77,-332.000000,-3080.000000
78,-328.000000,-3080.000000
79,-332.000000,-3080.000000
80,-328.000000,-3080.000000
81,-328.000000,-3080.000000
82,-328.000000,-3080.000000
83,-328.000000,-3080.000000
84,-328.000000,-3080.000000
85,-328.000000,-3120.000000
86,-332.000000,-3120.000000
87,-224.000000,-3080.000000
88,-128.000000,-3120.000000
89,-132.000000,-3080.000000
90,-204.000000,-3080.000000
91,-248.000000,-3080.000000
92,-280.000000,-3080.000000
93,-296.000000,-3080.000000
94,-312.000000,-3120.000000
95,-312.000000,-3080.000000
96,-320.000000,-3080.000000
97,-324.000000,-3120.000000
98,-328.000000,-3120.000000
99,-324.000000,-3080.000000
100,-328.000000,-3080.000000
101,-328.000000,-3080.000000
102,-332.000000,-3080.000000
103,-328.000000,-3080.000000
104,-332.000000,-3120.000000
105,-328.000000,-3080.000000
106,-328.000000,-3080.000000
107,-328.000000,-3080.000000
108,-328.000000,-3120.000000
109,-328.000000,-3120.000000
110,-332.000000,-3120.000000
111,-328.000000,-3120.000000
112,-332.000000,-3080.000000
113,-328.000000,-3080.000000
114,-328.000000,-3080.000000
115,-328.000000,-3080.000000
116,-328.000000,-3120.000000
117,-328.000000,-3080.000000
118,-328.000000,-3080.000000
119,-328.000000,-3080.000000
120,-328.000000,-3120.000000
121,-332.000000,-3080.000000
122,-328.000000,-3080.000000
123,-332.000000,-3080.000000
124,-328.000000,-3080.000000
125,-272.000000,-3080.000000
126,-164.000000,-3120.000000
127,-96.000000,-3080.000000
128,-180.000000,-3080.000000
129,-232.000000,-3080.000000
130,-264.000000,-3120.000000
131,-292.000000,-3080.000000
132,-304.000000,-3080.000000
133,-312.000000,-3080.000000
134,-320.000000,-3080.000000
135,-324.000000,-3080.000000
136,-324.000000,-3080.000000
137,-324.000000,-3080.000000
138,-328.000000,-3120.000000
139,-328.000000,-3120.000000
140,-328.000000,-3080.000000
141,-328.000000,-3080.000000
142,-328.000000,-3080.000000
143,-328.000000,-3080.000000
144,-328.000000,-3120.000000
145,-328.000000,-3080.000000
146,-328.000000,-3120.000000
147,-328.000000,-3080.000000
148,-328.000000,-3080.000000
149,-328.000000,-3080.000000
150,-328.000000,-3120.000000
151,-328.000000,-3120.000000
152,-328.000000,-3080.000000
153,-328.000000,-3080.000000
154,-328.000000,-3080.000000
155,-332.000000,-3080.000000
156,-328.000000,-3080.000000
157,-324.000000,-3080.000000
158,-328.000000,-3120.000000
159,-332.000000,-3080.000000
160,-328.000000,-3080.000000
161,-328.000000,-3080.000000
162,-328.000000,-3080.000000
163,-328.000000,-3080.000000
164,-200.000000,-3080.000000
165,-116.000000,-3080.000000
166,-152.000000,-3080.000000
167,-216.000000,-3080.000000
168,-252.000000,-3080.000000
169,-284.000000,-3120.000000
170,-300.000000,-3080.000000
171,-308.000000,-3080.000000
172,-316.000000,-3120.000000
173,-320.000000,-3120.000000
174,-324.000000,-3080.000000
175,-324.000000,-3080.000000
176,-324.000000,-3080.000000
177,-328.000000,-3080.000000
178,-328.000000,-3080.000000
179,-328.000000,-3080.000000
180,-328.000000,-3120.000000
181,-332.000000,-3080.000000
182,-324.000000,-3080.000000
183,-328.000000,-3080.000000
184,-328.000000,-3120.000000
185,-332.000000,-3080.000000
186,-328.000000,-3120.000000
187,-328.000000,-3080.000000
188,-328.000000,-3080.000000
189,-328.000000,-3080.000000
190,-328.000000,-3080.000000
191,-328.000000,-3080.000000
192,-328.000000,-3080.000000
193,-328.000000,-3080.000000
194,-332.000000,-3080.000000
195,-328.000000,-3080.000000
196,-324.000000,-3120.000000
197,-328.000000,-3080.000000
198,-328.000000,-3080.000000
199,-328.000000,-3080.000000
200,-328.000000,-3120.000000
201,-324.000000,-3080.000000
202,-248.000000,-3080.000000
203,-148.000000,-3080.000000
204,-112.000000,-3080.000000
205,-196.000000,-3120.000000
206,-244.000000,-3080.000000
207,-272.000000,-3080.000000
208,-292.000000,-3080.000000
209,-304.000000,-3080.000000
210,-312.000000,-3080.000000
211,-320.000000,-3080.000000
212,-320.000000,-3080.000000
213,-324.000000,-3080.000000
214,-324.000000,-3080.000000
215,-328.000000,-3120.000000
216,-328.000000,-3080.000000
217,-328.000000,-3080.000000
218,-328.000000,-3080.000000
219,-328.000000,-3080.000000
220,-328.000000,-3080.000000
221,-332.000000,-3080.000000
222,-328.000000,-3080.000000
223,-328.000000,-3080.000000
224,-328.000000,-3080.000000
225,-328.000000,-3080.000000
226,-328.000000,-3080.000000
227,-328.000000,-3080.000000
228,-328.000000,-3080.000000
229,-328.000000,-3080.000000
230,-328.000000,-3080.000000
231,-328.000000,-3080.000000
232,-328.000000,-3080.000000
233,-328.000000,-3120.000000
234,-328.000000,-3080.000000
235,-328.000000,-3080.000000
236,-328.000000,-3080.000000
237,-328.000000,-3080.000000
238,-332.000000,-3080.000000
239,-332.000000,-3080.000000
240,-304.000000,-3080.000000
241,-180.000000,-3120.000000
242,-104.000000,-3120.000000
243,-168.000000,-3080.000000
244,-224.000000,-3080.000000
245,-260.000000,-3080.000000
246,-288.000000,-3080.000000
247,-300.000000,-3080.000000
248,-312.000000,-3080.000000
249,-316.000000,-3080.000000
250,-320.000000,-3080.000000
251,-324.000000,-3120.000000
252,-324.000000,-3080.000000
253,-324.000000,-3080.000000
254,-328.000000,-3080.000000
255,-328.000000,-3080.000000
256,-328.000000,-3080.000000
257,-328.000000,-3080.000000
258,-328.000000,-3080.000000
259,-328.000000,-3120.000000
260,-324.000000,-3080.000000
261,-328.000000,-3080.000000
262,-328.000000,-3080.000000
263,-328.000000,-3080.000000
264,-328.000000,-3120.000000
265,-328.000000,-3080.000000
266,-328.000000,-3080.000000
267,-328.000000,-3080.000000
268,-328.000000,-3080.000000
269,-332.000000,-3080.000000
270,-332.000000,-3080.000000
271,-328.000000,-3120.000000
272,-328.000000,-3080.000000
273,-328.000000,-3080.000000
274,-328.000000,-3080.000000
275,-328.000000,-3120.000000
276,-328.000000,-3080.000000
277,-328.000000,-3120.000000
278,-328.000000,-3080.000000
279,-228.000000,-3080.000000
280,-264.000000,-3080.000000
281,-288.000000,-3080.000000
282,-304.000000,-3080.000000
283,-312.000000,-3080.000000
284,-320.000000,-3080.000000
285,-320.000000,-3080.000000
286,-320.000000,-3080.000000
287,-324.000000,-3080.000000
288,-300.000000,-3120.000000
289,-304.000000,-3120.000000
290,-312.000000,-3080.000000
291,-320.000000,-3080.000000
292,-324.000000,-3120.000000
293,-324.000000,-3080.000000
294,-324.000000,-3080.000000
295,-328.000000,-3080.000000
296,-328.000000,-3120.000000
297,-324.000000,-3080.000000
298,-324.000000,-3080.000000
299,-328.000000,-3080.000000
300,-328.000000,-3080.000000
301,-328.000000,-3080.000000
302,-328.000000,-3080.000000
303,-284.000000,-3080.000000
304,-300.000000,-3080.000000
305,-308.000000,-3120.000000
306,-312.000000,-3080.000000
307,-316.000000,-3080.000000
308,-320.000000,-3080.000000
309,-320.000000,-3080.000000
310,-320.000000,-3120.000000
311,-320.000000,-3080.000000
312,-320.000000,-3080.000000
313,-320.000000,-3080.000000
314,-320.000000,-3120.000000
315,-320.000000,-3080.000000
316,-324.000000,-3080.000000
317,-320.000000,-3080.000000
318,-320.000000,-3080.000000
319,-324.000000,-3080.000000
320,-320.000000,-3080.000000
321,-324.000000,-3080.000000
322,-320.000000,-3080.000000
323,-324.000000,-3080.000000
324,-324.000000,-3080.000000
325,-320.000000,-3080.000000
326,-324.000000,-3120.000000
327,-324.000000,-3080.000000
328,-320.000000,-3080.000000
329,-320.000000,-3080.000000
330,-324.000000,-3080.000000
331,-320.000000,-3080.000000
332,-320.000000,-3080.000000
333,-320.000000,-3080.000000
334,-320.000000,-3080.000000
335,-320.000000,-3080.000000
336,-320.000000,-3080.000000
337,-324.000000,-3120.000000
338,-324.000000,-3080.000000
339,-320.000000,-3080.000000
340,-320.000000,-3080.000000
341,-324.000000,-3080.000000
342,-320.000000,-3120.000000
343,-320.000000,-3080.000000
344,-324.000000,-3080.000000
345,-320.000000,-3080.000000
346,-324.000000,-3120.000000
347,-320.000000,-3080.000000
348,-320.000000,-3080.000000
349,-320.000000,-3080.000000
350,-324.000000,-3120.000000
351,-324.000000,-3080.000000
352,-320.000000,-3120.000000
353,-324.000000,-3080.000000
354,-324.000000,-3080.000000
355,-324.000000,-3080.000000
356,-320.000000,-3080.000000
357,-320.000000,-3080.000000
358,-324.000000,-3080.000000
359,-324.000000,-3080.000000
360,-324.000000,-3080.000000
361,-320.000000,-3080.000000
362,-324.000000,-3120.000000
363,-324.000000,-3080.000000
364,-324.000000,-3120.000000
365,-324.000000,-3080.000000
366,-320.000000,-3080.000000
367,-320.000000,-3080.000000
368,-324.000000,-3080.000000
369,-324.000000,-3120.000000
370,-324.000000,-3080.000000
371,-324.000000,-3120.000000
372,-324.000000,-3120.000000
373,-324.000000,-3080.000000
374,-320.000000,-3080.000000
375,-320.000000,-3080.000000
376,-324.000000,-3080.000000
377,-320.000000,-3080.000000
378,-320.000000,-3080.000000
379,-320.000000,-3080.000000
380,-320.000000,-3120.000000
381,-324.000000,-3080.000000
382,-320.000000,-3080.000000
383,-324.000000,-3080.000000
384,-324.000000,-3080.000000
385,-320.000000,-3120.000000
386,-320.000000,-3080.000000
387,-320.000000,-3080.000000
388,-324.000000,-3080.000000
389,-320.000000,-3080.000000
390,-320.000000,-3080.000000
391,-320.000000,-3080.000000
392,-324.000000,-3080.000000
393,-324.000000,-3080.000000
394,-324.000000,-3080.000000
395,-324.000000,-3120.000000
396,-320.000000,-3080.000000
397,-324.000000,-3080.000000
398,-320.000000,-3080.000000
399,-324.000000,-3080.000000
400,-320.000000,-3120.000000
401,-324.000000,-3080.000000
402,-320.000000,-3120.000000
403,-324.000000,-3120.000000
404,-320.000000,-3080.000000
405,-320.000000,-3120.000000
406,-320.000000,-3080.000000
407,-324.000000,-3080.000000
408,-320.000000,-3080.000000
409,-324.000000,-3080.000000
410,-320.000000,-3080.000000
411,-320.000000,-3080.000000
412,-320.000000,-3080.000000
413,-320.000000,-3080.000000
414,-320.000000,-3080.000000
415,-320.000000,-3120.000000
416,-320.000000,-3080.000000
417,-320.000000,-3080.000000
418,-324.000000,-3080.000000
419,-324.000000,-3080.000000
420,-320.000000,-3080.000000
421,-324.000000,-3080.000000
422,-320.000000,-3080.000000
423,-320.000000,-3080.000000
424,-324.000000,-3080.000000
425,-320.000000,-3080.000000
426,-324.000000,-3080.000000
427,-320.000000,-3120.000000
428,-328.000000,-3080.000000
429,-320.000000,-3120.000000
430,-320.000000,-3080.000000
431,-324.000000,-3080.000000
432,-324.000000,-3080.000000
433,-320.000000,-3080.000000
434,-320.000000,-3080.000000
435,-324.000000,-3120.000000
436,-296.000000,-3080.000000
437,-204.000000,-3080.000000
438,-128.000000,-3080.000000
439,-76.000000,-3120.000000
440,-36.000000,-3080.000000
441,-28.000000,-3120.000000
442,-28.000000,-3080.000000
443,-28.000000,-3120.000000
444,-44.000000,-3080.000000
445,-108.000000,-3120.000000
446,-184.000000,-3080.000000
447,-232.000000,-3080.000000
448,-264.000000,-3080.000000
449,-288.000000,-3080.000000
450,-296.000000,-3080.000000
451,-304.000000,-3080.000000
452,-316.000000,-3120.000000
453,-316.000000,-3120.000000
454,-316.000000,-3080.000000
455,-320.000000,-3080.000000
456,-320.000000,-3080.000000
457,-320.000000,-3080.000000
458,-324.000000,-3080.000000
459,-320.000000,-3120.000000
460,-320.000000,-3080.000000
461,-324.000000,-3080.000000
462,-324.000000,-3080.000000
463,-320.000000,-3080.000000
464,-324.000000,-3080.000000
465,-320.000000,-3120.000000
466,-320.000000,-3080.000000
467,-324.000000,-3080.000000
468,-324.000000,-3080.000000
469,-320.000000,-3080.000000
470,-320.000000,-3080.000000
471,-324.000000,-3080.000000
472,-320.000000,-3080.000000
473,-328.000000,-3080.000000
474,-324.000000,-3080.000000
475,-324.000000,-3080.000000
476,-324.000000,-3080.000000
477,-324.000000,-3080.000000
478,-320.000000,-3080.000000
479,-324.000000,-3080.000000
480,-320.000000,-3080.000000
481,-324.000000,-3120.000000
482,-320.000000,-3080.000000
483,-320.000000,-3080.000000
484,-324.000000,-3080.000000
485,-324.000000,-3120.000000
486,-320.000000,-3080.000000
487,-320.000000,-3080.000000
488,-324.000000,-3080.000000
489,-324.000000,-3080.000000
490,-320.000000,-3120.000000
491,-324.000000,-3120.000000
492,-320.000000,-3080.000000
493,-324.000000,-3080.000000
494,-324.000000,-3080.000000
495,-320.000000,-3080.000000
496,-320.000000,-3120.000000
497,-320.000000,-3080.000000
498,-324.000000,-3120.000000
499,-324.000000,-3080.000000
500,-324.000000,-3080.000000
501,-324.000000,-3080.000000
502,-320.000000,-3120.000000
503,-324.000000,-3120.000000
504,-320.000000,-3080.000000
505,-320.000000,-3120.000000
506,-324.000000,-3080.000000
507,-320.000000,-3120.000000
508,-320.000000,-3080.000000
509,-324.000000,-3080.000000
510,-324.000000,-3080.000000
511,-324.000000,-3080.000000
512,-320.000000,-3120.000000
513,-320.000000,-3120.000000
514,-324.000000,-3080.000000
515,-324.000000,-3080.000000
516,-324.000000,-3080.000000
517,-320.000000,-3080.000000
518,-320.000000,-3080.000000
519,-324.000000,-3080.000000
520,-324.000000,-3080.000000
521,-320.000000,-3120.000000
522,-320.000000,-3080.000000
523,-320.000000,-3080.000000
524,-324.000000,-3080.000000
525,-320.000000,-3080.000000
526,-320.000000,-3080.000000
527,-324.000000,-3080.000000
528,-324.000000,-3080.000000
529,-320.000000,-3080.000000
530,-320.000000,-3080.000000
531,-324.000000,-3120.000000
532,-320.000000,-3080.000000
533,-324.000000,-3080.000000
534,-324.000000,-3080.000000
535,-324.000000,-3080.000000
536,-324.000000,-3080.000000
537,-320.000000,-3080.000000
538,-320.000000,-3120.000000
539,-320.000000,-3080.000000
540,-320.000000,-3120.000000
541,-324.000000,-3080.000000
542,-320.000000,-3080.000000
543,-324.000000,-3080.000000
544,-324.000000,-3120.000000
545,-324.000000,-3080.000000
546,-320.000000,-3120.000000
547,-324.000000,-3080.000000
548,-320.000000,-3080.000000
549,-324.000000,-3080.000000
550,-320.000000,-3080.000000
551,-320.000000,-3080.000000
552,-324.000000,-3080.000000
553,-324.000000,-3080.000000
554,-324.000000,-3080.000000
555,-320.000000,-3080.000000
556,-324.000000,-3080.000000
557,-320.000000,-3080.000000
558,-320.000000,-3080.000000
559,-320.000000,-3080.000000
560,-324.000000,-3080.000000
561,-320.000000,-3080.000000
562,-320.000000,-3120.000000
563,-324.000000,-3080.000000
564,-324.000000,-3120.000000
565,-324.000000,-3080.000000
566,-324.000000,-3080.000000
567,-324.000000,-3080.000000
568,-320.000000,-3080.000000
569,-324.000000,-3120.000000
570,-228.000000,-3120.000000
571,-156.000000,-3080.000000
572,-96.000000,-3080.000000
573,-44.000000,-3080.000000
574,-24.000000,-3120.000000
575,-28.000000,-3080.000000
576,-28.000000,-3080.000000
577,-40.000000,-3120.000000
578,-72.000000,-3080.000000
579,-164.000000,-3080.000000
580,-216.000000,-3120.000000
581,-256.000000,-3080.000000
582,-280.000000,-3120.000000
583,-296.000000,-3080.000000
584,-304.000000,-3080.000000
585,-308.000000,-3080.000000
586,-312.000000,-3080.000000
587,-316.000000,-3120.000000
588,-320.000000,-3080.000000
589,-320.000000,-3080.000000
590,-320.000000,-3080.000000
591,-320.000000,-3080.000000
592,-320.000000,-3120.000000
593,-324.000000,-3080.000000
594,-324.000000,-3080.000000
595,-320.000000,-3080.000000
596,-324.000000,-3080.000000
597,-320.000000,-3080.000000
598,-324.000000,-3080.000000
599,-324.000000,-3080.000000
600,-320.000000,-3080.000000
601,-320.000000,-3080.000000
602,-324.000000,-3080.000000
603,-320.000000,-3080.000000
604,-324.000000,-3080.000000
605,-324.000000,-3080.000000
606,-324.000000,-3080.000000
607,-324.000000,-3080.000000
608,-320.000000,-3120.000000
609,-324.000000,-3080.000000
610,-320.000000,-3120.000000
611,-320.000000,-3080.000000
612,-324.000000,-3120.000000
613,-324.000000,-3080.000000
614,-320.000000,-3080.000000
615,-324.000000,-3080.000000
616,-324.000000,-3080.000000
617,-324.000000,-3120.000000
618,-324.000000,-3080.000000
619,-324.000000,-3120.000000
620,-320.000000,-3080.000000
621,-320.000000,-3120.000000
622,-324.000000,-3120.000000
623,-324.000000,-3080.000000
624,-320.000000,-3080.000000
625,-320.000000,-3080.000000
626,-324.000000,-3080.000000
627,-324.000000,-3080.000000
628,-320.000000,-3080.000000
629,-320.000000,-3120.000000
630,-324.000000,-3080.000000
631,-320.000000,-3080.000000
632,-324.000000,-3080.000000
633,-324.000000,-3080.000000
634,-324.000000,-3080.000000
635,-320.000000,-3120.000000
636,-320.000000,-3080.000000
637,-324.000000,-3080.000000
638,-320.000000,-3120.000000
639,-320.000000,-3080.000000
640,-320.000000,-3080.000000
641,-320.000000,-3120.000000
642,-320.000000,-3080.000000
643,-320.000000,-3080.000000
644,-320.000000,-3080.000000
645,-324.000000,-3080.000000
646,-324.000000,-3080.000000
647,-324.000000,-3080.000000
648,-324.000000,-3120.000000
649,-320.000000,-3120.000000
650,-320.000000,-3080.000000
651,-320.000000,-3080.000000
652,-320.000000,-3120.000000
653,-324.000000,-3080.000000
654,-320.000000,-3080.000000
655,-320.000000,-3120.000000
656,-324.000000,-3080.000000
657,-324.000000,-3120.000000
658,-324.000000,-3120.000000
659,-324.000000,-3080.000000
660,-320.000000,-3080.000000
661,-320.000000,-3080.000000
662,-320.000000,-3080.000000
663,-324.000000,-3120.000000
664,-324.000000,-3080.000000
665,-324.000000,-3120.000000
666,-324.000000,-3080.000000
667,-320.000000,-3080.000000
668,-320.000000,-3120.000000
669,-324.000000,-3120.000000
670,-320.000000,-3080.000000
671,-324.000000,-3080.000000
672,-320.000000,-3080.000000
673,-324.000000,-3120.000000
674,-324.000000,-3080.000000
675,-324.000000,-3120.000000
676,-324.000000,-3080.000000
677,-324.000000,-3080.000000
678,-324.000000,-3080.000000
679,-328.000000,-3080.000000
680,-324.000000,-3080.000000
681,-320.000000,-3080.000000
682,-320.000000,-3080.000000
683,-324.000000,-3080.000000
