repport_data/power_measurements_V3/data_31/data_31_000.csv

Channel              :,CH1,CH2
Frequency            :,  ?,  ?
Period               :,  ?,  ?
PK-PK                :,468.0mV,80.00mV
Probe attenuation    :,1X,1X
Voltage per ADC value:,0.250000mV,2.500000mV
Time interval        :,400.00000uS,400.00000uS

index,CH1_Voltage(mV),CH2_Voltage(mV)
1,-180.000000,-3080.000000
2,-180.000000,-3080.000000
3,-184.000000,-3080.000000
4,-184.000000,-3080.000000
5,-188.000000,-3080.000000
6,-188.000000,-3120.000000
7,-192.000000,-3120.000000
8,-192.000000,-3080.000000
9,-192.000000,-3080.000000
10,-192.000000,-3120.000000
11,-192.000000,-3120.000000
12,-192.000000,-3080.000000
13,-192.000000,-3080.000000
14,-192.000000,-3080.000000
15,-192.000000,-3080.000000
16,-192.000000,-3120.000000
17,-192.000000,-3080.000000
18,-192.000000,-3080.000000
19,-192.000000,-3080.000000
20,-192.000000,-3080.000000
21,-196.000000,-3080.000000
22,-192.000000,-3080.000000
23,-192.000000,-3080.000000
24,-192.000000,-3080.000000
25,-192.000000,-3120.000000
26,-196.000000,-3120.000000
27,-192.000000,-3080.000000
28,-192.000000,-3120.000000
29,-192.000000,-3080.000000
30,-192.000000,-3080.000000
31,-192.000000,-3120.000000
32,-192.000000,-3080.000000
33,-192.000000,-3080.000000
34,-192.000000,-3080.000000
35,-192.000000,-3080.000000
36,-192.000000,-3080.000000
37,-192.000000,-3080.000000
38,-192.000000,-3120.000000
39,-192.000000,-3080.000000
40,-192.000000,-3120.000000
41,-192.000000,-3080.000000
42,-192.000000,-3080.000000
43,-192.000000,-3120.000000
44,-192.000000,-3120.000000
45,-192.000000,-3120.000000
46,-192.000000,-3120.000000
47,-196.000000,-3080.000000
48,-192.000000,-3120.000000
49,-192.000000,-3120.000000
50,-192.000000,-3080.000000
51,-196.000000,-3080.000000
52,-192.000000,-3120.000000
53,-192.000000,-3080.000000
54,-192.000000,-3080.000000
55,-192.000000,-3120.000000
56,-196.000000,-3080.000000
57,-192.000000,-3080.000000
58,-196.000000,-3080.000000
59,-188.000000,-3120.000000
60,-192.000000,-3120.000000
61,-192.000000,-3120.000000
62,-192.000000,-3080.000000
63,-192.000000,-3080.000000
64,-196.000000,-3120.000000
65,-192.000000,-3080.000000
66,-192.000000,-3080.000000
67,-192.000000,-3120.000000
68,-192.000000,-3080.000000
69,-192.000000,-3120.000000
70,-192.000000,-3080.000000
71,-196.000000,-3080.000000
72,-192.000000,-3080.000000
73,-192.000000,-3120.000000
74,-192.000000,-3120.000000
75,-192.000000,-3080.000000
76,-196.000000,-3120.000000
77,-196.000000,-3080.000000
78,-192.000000,-3080.000000
79,-192.000000,-3120.000000
80,-196.000000,-3080.000000
81,-196.000000,-3120.000000
82,-192.000000,-3120.000000
83,-192.000000,-3080.000000
84,-192.000000,-3080.000000
85,-192.000000,-3080.000000
86,-196.000000,-3080.000000
87,-192.000000,-3080.000000
88,-192.000000,-3120.000000
89,-192.000000,-3080.000000
90,-192.000000,-3040.000000
91,-192.000000,-3080.000000
92,-192.000000,-3080.000000
93,-192.000000,-3080.000000
94,-192.000000,-3080.000000
95,-196.000000,-3120.000000
96,-192.000000,-3120.000000
97,-192.000000,-3080.000000
98,-192.000000,-3080.000000
99,-192.000000,-3080.000000
100,-192.000000,-3080.000000
101,-192.000000,-3080.000000
102,-192.000000,-3080.000000
103,-192.000000,-3080.000000
104,-192.000000,-3080.000000
105,-192.000000,-3080.000000
106,-192.000000,-3080.000000
107,-192.000000,-3080.000000
108,-196.000000,-3120.000000
109,-192.000000,-3080.000000
110,-188.000000,-3080.000000
111,-192.000000,-3080.000000
112,-192.000000,-3080.000000
113,-192.000000,-3080.000000
114,-192.000000,-3080.000000
115,-192.000000,-3080.000000
116,-128.000000,-3080.000000
117,0.000000,-3080.000000
118,76.000000,-3120.000000
119,120.000000,-3120.000000
120,148.000000,-3080.000000
121,40.000000,-3080.000000
122,-36.000000,-3120.000000
123,-92.000000,-3120.000000
124,-124.000000,-3080.000000
125,-148.000000,-3120.000000
126,-164.000000,-3080.000000
127,-176.000000,-3120.000000
128,-184.000000,-3080.000000
129,-188.000000,-3120.000000
130,-184.000000,-3080.000000
131,-188.000000,-3080.000000
132,-188.000000,-3080.000000
133,-192.000000,-3120.000000
134,-192.000000,-3080.000000
135,-192.000000,-3080.000000
136,-192.000000,-3080.000000
137,-192.000000,-3120.000000
138,-192.000000,-3080.000000
139,-192.000000,-3120.000000
140,-192.000000,-3080.000000
141,-192.000000,-3120.000000
142,-192.000000,-3080.000000
143,-192.000000,-3080.000000
144,-192.000000,-3080.000000
145,-192.000000,-3080.000000
146,-192.000000,-3120.000000
147,-192.000000,-3120.000000
148,-192.000000,-3120.000000
149,-192.000000,-3120.000000
150,-192.000000,-3080.000000
151,-196.000000,-3120.000000
152,-192.000000,-3120.000000
153,-192.000000,-3080.000000
154,-192.000000,-3080.000000
155,-192.000000,-3080.000000
156,-192.000000,-3120.000000
157,-192.000000,-3080.000000
158,-192.000000,-3080.000000
159,-192.000000,-3080.000000
160,-192.000000,-3080.000000
161,-192.000000,-3080.000000
162,-192.000000,-3080.000000
163,-192.000000,-3120.000000
164,-192.000000,-3080.000000
165,-192.000000,-3080.000000
166,-192.000000,-3120.000000
167,-192.000000,-3080.000000
168,-196.000000,-3120.000000
169,-192.000000,-3080.000000
170,-192.000000,-3080.000000
171,-192.000000,-3120.000000
172,-192.000000,-3120.000000
173,-196.000000,-3120.000000
174,-192.000000,-3080.000000
175,-192.000000,-3080.000000
176,-192.000000,-3080.000000
177,-192.000000,-3080.000000
178,-192.000000,-3120.000000
179,-196.000000,-3080.000000
180,-192.000000,-3080.000000
181,-192.000000,-3080.000000
182,-196.000000,-3080.000000
183,-192.000000,-3080.000000
184,-192.000000,-3120.000000
185,-192.000000,-3080.000000
186,-196.000000,-3080.000000
187,-192.000000,-3080.000000
188,-192.000000,-3080.000000
189,-192.000000,-3120.000000
190,-192.000000,-3080.000000
191,-192.000000,-3080.000000
192,-192.000000,-3080.000000
193,-192.000000,-3080.000000
194,-192.000000,-3080.000000
195,-196.000000,-3080.000000
196,-196.000000,-3120.000000
197,-196.000000,-3080.000000
198,-196.000000,-3080.000000
199,-192.000000,-3080.000000
200,-192.000000,-3080.000000
201,-192.000000,-3080.000000
202,-192.000000,-3080.000000
203,-192.000000,-3080.000000
204,-196.000000,-3080.000000
205,-192.000000,-3080.000000
206,-192.000000,-3080.000000
207,-192.000000,-3080.000000
208,-192.000000,-3080.000000
209,-192.000000,-3080.000000
210,-192.000000,-3120.000000
211,-196.000000,-3080.000000
212,-192.000000,-3080.000000
213,-196.000000,-3120.000000
214,-192.000000,-3120.000000
215,-192.000000,-3080.000000
216,-192.000000,-3080.000000
217,-188.000000,-3080.000000
218,-192.000000,-3120.000000
219,-192.000000,-3080.000000
220,-192.000000,-3080.000000
221,-192.000000,-3080.000000
222,-192.000000,-3120.000000
223,-192.000000,-3120.000000
224,-192.000000,-3080.000000
225,-192.000000,-3120.000000
226,-196.000000,-3080.000000
227,-192.000000,-3080.000000
228,-192.000000,-3120.000000
229,-192.000000,-3080.000000
230,-192.000000,-3080.000000
231,-192.000000,-3120.000000
232,-192.000000,-3080.000000
233,-192.000000,-3080.000000
234,-188.000000,-3080.000000
235,-192.000000,-3120.000000
236,-192.000000,-3080.000000
237,-192.000000,-3120.000000
238,-192.000000,-3120.000000
239,-192.000000,-3080.000000
240,-192.000000,-3080.000000
241,-192.000000,-3120.000000
242,-56.000000,-3080.000000
243,44.000000,-3120.000000
244,100.000000,-3080.000000
245,136.000000,-3080.000000
246,136.000000,-3080.000000
247,136.000000,-3080.000000
248,140.000000,-3080.000000
249,156.000000,-3080.000000
250,168.000000,-3080.000000
251,176.000000,-3120.000000
252,176.000000,-3080.000000
253,172.000000,-3080.000000
254,176.000000,-3080.000000
255,180.000000,-3080.000000
256,184.000000,-3120.000000
257,176.000000,-3080.000000
258,180.000000,-3080.000000
259,180.000000,-3120.000000
260,184.000000,-3120.000000
261,184.000000,-3080.000000
262,176.000000,-3080.000000
263,180.000000,-3080.000000
264,184.000000,-3080.000000
265,184.000000,-3120.000000
266,176.000000,-3120.000000
267,176.000000,-3080.000000
268,180.000000,-3080.000000
269,188.000000,-3080.000000
270,184.000000,-3120.000000
271,176.000000,-3080.000000
272,180.000000,-3120.000000
273,184.000000,-3080.000000
274,180.000000,-3080.000000
275,180.000000,-3120.000000
276,180.000000,-3120.000000
277,180.000000,-3080.000000
278,184.000000,-3080.000000
279,180.000000,-3080.000000
280,176.000000,-3080.000000
281,180.000000,-3080.000000
282,184.000000,-3120.000000
283,184.000000,-3120.000000
284,172.000000,-3120.000000
285,180.000000,-3080.000000
286,184.000000,-3080.000000
287,184.000000,-3080.000000
288,184.000000,-3080.000000
289,176.000000,-3080.000000
290,176.000000,-3120.000000
291,180.000000,-3080.000000
292,188.000000,-3080.000000
293,172.000000,-3080.000000
294,180.000000,-3080.000000
295,180.000000,-3080.000000
296,184.000000,-3080.000000
297,180.000000,-3080.000000
298,176.000000,-3080.000000
299,180.000000,-3080.000000
300,184.000000,-3080.000000
301,184.000000,-3120.000000
302,172.000000,-3080.000000
303,176.000000,-3080.000000
304,180.000000,-3040.000000
305,184.000000,-3080.000000
306,176.000000,-3080.000000
307,176.000000,-3080.000000
308,180.000000,-3120.000000
309,180.000000,-3120.000000
310,184.000000,-3120.000000
311,172.000000,-3120.000000
312,180.000000,-3080.000000
313,180.000000,-3080.000000
314,184.000000,-3080.000000
315,180.000000,-3120.000000
316,176.000000,-3080.000000
317,180.000000,-3120.000000
318,184.000000,-3080.000000
319,184.000000,-3080.000000
320,168.000000,-3120.000000
321,176.000000,-3080.000000
322,180.000000,-3080.000000
323,184.000000,-3120.000000
324,180.000000,-3080.000000
325,176.000000,-3080.000000
326,180.000000,-3080.000000
327,180.000000,-3120.000000
328,184.000000,-3080.000000
329,172.000000,-3080.000000
330,176.000000,-3120.000000
331,180.000000,-3080.000000
332,184.000000,-3080.000000
333,176.000000,-3080.000000
334,180.000000,-3080.000000
335,180.000000,-3080.000000
336,184.000000,-3080.000000
337,184.000000,-3080.000000
338,168.000000,-3080.000000
339,176.000000,-3080.000000
340,184.000000,-3080.000000
341,184.000000,-3080.000000
342,176.000000,-3080.000000
343,176.000000,-3080.000000
344,180.000000,-3080.000000
345,180.000000,-3080.000000
346,188.000000,-3080.000000
347,172.000000,-3080.000000
348,176.000000,-3080.000000
349,180.000000,-3120.000000
350,184.000000,-3120.000000
351,176.000000,-3120.000000
352,172.000000,-3080.000000
353,176.000000,-3080.000000
354,180.000000,-3080.000000
355,184.000000,-3080.000000
356,168.000000,-3080.000000
357,176.000000,-3080.000000
358,180.000000,-3080.000000
359,184.000000,-3120.000000
360,176.000000,-3120.000000
361,176.000000,-3120.000000
362,176.000000,-3080.000000
363,180.000000,-3080.000000
364,184.000000,-3080.000000
365,172.000000,-3080.000000
366,176.000000,-3080.000000
367,184.000000,-3040.000000
368,180.000000,-3080.000000
369,172.000000,-3080.000000
370,176.000000,-3080.000000
371,180.000000,-3080.000000
372,180.000000,-3080.000000
373,184.000000,-3120.000000
374,168.000000,-3080.000000
375,180.000000,-3080.000000
376,176.000000,-3080.000000
377,176.000000,-3080.000000
378,172.000000,-3120.000000
379,176.000000,-3080.000000
380,176.000000,-3080.000000
381,184.000000,-3080.000000
382,180.000000,-3120.000000
383,172.000000,-3120.000000
384,180.000000,-3120.000000
385,180.000000,-3080.000000
386,180.000000,-3080.000000
387,176.000000,-3080.000000
388,176.000000,-3120.000000
389,180.000000,-3080.000000
390,184.000000,-3080.000000
391,180.000000,-3080.000000
392,172.000000,-3080.000000
393,180.000000,-3080.000000
394,180.000000,-3080.000000
395,184.000000,-3080.000000
396,172.000000,-3080.000000
397,172.000000,-3080.000000
398,180.000000,-3080.000000
399,184.000000,-3080.000000
400,180.000000,-3080.000000
401,172.000000,-3080.000000
402,176.000000,-3120.000000
403,180.000000,-3080.000000
404,180.000000,-3080.000000
405,172.000000,-3080.000000
406,176.000000,-3080.000000
407,180.000000,-3120.000000
408,180.000000,-3120.000000
409,180.000000,-3120.000000
410,172.000000,-3080.000000
411,180.000000,-3080.000000
412,176.000000,-3080.000000
413,180.000000,-3120.000000
414,172.000000,-3080.000000
415,176.000000,-3120.000000
416,176.000000,-3120.000000
417,180.000000,-3080.000000
418,180.000000,-3080.000000
419,172.000000,-3120.000000
420,176.000000,-3080.000000
421,184.000000,-3120.000000
422,184.000000,-3120.000000
423,172.000000,-3080.000000
424,176.000000,-3120.000000
425,180.000000,-3080.000000
426,184.000000,-3080.000000
427,180.000000,-3080.000000
428,172.000000,-3120.000000
429,176.000000,-3080.000000
430,176.000000,-3080.000000
431,180.000000,-3080.000000
432,172.000000,-3080.000000
433,176.000000,-3120.000000
434,180.000000,-3080.000000
435,180.000000,-3120.000000
436,180.000000,-3120.000000
437,172.000000,-3080.000000
438,176.000000,-3080.000000
439,180.000000,-3080.000000
440,180.000000,-3080.000000
441,172.000000,-3080.000000
442,176.000000,-3120.000000
443,180.000000,-3080.000000
444,180.000000,-3080.000000
445,180.000000,-3080.000000
446,172.000000,-3080.000000
447,176.000000,-3080.000000
448,180.000000,-3080.000000
449,184.000000,-3080.000000
450,168.000000,-3080.000000
451,176.000000,-3120.000000
452,180.000000,-3080.000000
453,184.000000,-3120.000000
454,176.000000,-3080.000000
455,172.000000,-3080.000000
456,176.000000,-3080.000000
457,180.000000,-3080.000000
458,184.000000,-3080.000000
459,168.000000,-3080.000000
460,176.000000,-3080.000000
461,180.000000,-3120.000000
462,180.000000,-3120.000000
463,176.000000,-3120.000000
464,176.000000,-3080.000000
465,180.000000,-3120.000000
466,180.000000,-3080.000000
467,184.000000,-3080.000000
468,172.000000,-3080.000000
469,176.000000,-3080.000000
470,176.000000,-3120.000000
471,184.000000,-3120.000000
472,172.000000,-3080.000000
473,172.000000,-3120.000000
474,180.000000,-3080.000000
475,180.000000,-3120.000000
476,192.000000,-3080.000000
477,232.000000,-3120.000000
478,252.000000,-3120.000000
479,148.000000,-3120.000000
480,24.000000,-3080.000000
481,-52.000000,-3120.000000
482,-104.000000,-3120.000000
483,-140.000000,-3080.000000
484,-164.000000,-3080.000000
485,-176.000000,-3080.000000
486,-188.000000,-3080.000000
487,-192.000000,-3120.000000
488,-196.000000,-3080.000000
489,-200.000000,-3080.000000
490,-200.000000,-3080.000000
491,-200.000000,-3080.000000
492,-200.000000,-3120.000000
493,-204.000000,-3080.000000
494,-200.000000,-3080.000000
495,-204.000000,-3080.000000
496,-204.000000,-3080.000000
497,-204.000000,-3080.000000
498,-204.000000,-3080.000000
499,-204.000000,-3080.000000
500,-204.000000,-3080.000000
501,-204.000000,-3120.000000
502,-204.000000,-3040.000000
503,-208.000000,-3080.000000
504,-204.000000,-3120.000000
505,-204.000000,-3120.000000
506,-204.000000,-3080.000000
507,-204.000000,-3080.000000
508,-204.000000,-3080.000000
509,-208.000000,-3080.000000
510,-204.000000,-3080.000000
511,-208.000000,-3080.000000
512,-204.000000,-3080.000000
513,-204.000000,-3120.000000
514,-204.000000,-3080.000000
515,-204.000000,-3080.000000
516,-204.000000,-3080.000000
517,-204.000000,-3120.000000
518,-204.000000,-3080.000000
519,-176.000000,-3120.000000
520,0.000000,-3080.000000
521,8.000000,-3080.000000
522,-68.000000,-3120.000000
523,-116.000000,-3080.000000
524,-148.000000,-3080.000000
525,-172.000000,-3120.000000
526,-180.000000,-3080.000000
527,-188.000000,-3120.000000
528,-196.000000,-3080.000000
529,-200.000000,-3080.000000
530,-200.000000,-3080.000000
531,-200.000000,-3080.000000
532,-200.000000,-3080.000000
533,-204.000000,-3080.000000
534,-204.000000,-3080.000000
535,-204.000000,-3080.000000
536,-200.000000,-3120.000000
537,-204.000000,-3120.000000
538,-204.000000,-3080.000000
539,-204.000000,-3080.000000
540,-204.000000,-3120.000000
541,-204.000000,-3080.000000
542,-204.000000,-3080.000000
543,-204.000000,-3120.000000
544,-200.000000,-3080.000000
545,-204.000000,-3080.000000
546,-204.000000,-3080.000000
547,-204.000000,-3080.000000
548,-204.000000,-3080.000000
549,-204.000000,-3080.000000
550,-208.000000,-3080.000000
551,-204.000000,-3080.000000
552,-204.000000,-3080.000000
553,-204.000000,-3080.000000
554,-204.000000,-3120.000000
555,-204.000000,-3080.000000
556,-204.000000,-3080.000000
557,-204.000000,-3080.000000
558,-60.000000,-3080.000000
559,56.000000,-3080.000000
560,-40.000000,-3080.000000
561,-96.000000,-3120.000000
562,-136.000000,-3080.000000
563,-160.000000,-3080.000000
564,-176.000000,-3080.000000
565,-184.000000,-3080.000000
566,-188.000000,-3120.000000
567,-196.000000,-3080.000000
568,-200.000000,-3080.000000
569,-200.000000,-3080.000000
570,-200.000000,-3080.000000
571,-200.000000,-3120.000000
572,-200.000000,-3080.000000
573,-204.000000,-3080.000000
574,-204.000000,-3120.000000
575,-204.000000,-3080.000000
576,-200.000000,-3080.000000
577,-200.000000,-3120.000000
578,-204.000000,-3080.000000
579,-200.000000,-3120.000000
580,-204.000000,-3080.000000
581,-204.000000,-3080.000000
582,-204.000000,-3080.000000
583,-204.000000,-3120.000000
584,-204.000000,-3080.000000
585,-204.000000,-3080.000000
586,-200.000000,-3080.000000
587,-204.000000,-3080.000000
588,-204.000000,-3080.000000
589,-200.000000,-3080.000000
590,-204.000000,-3120.000000
591,-204.000000,-3080.000000
592,-204.000000,-3120.000000
593,-204.000000,-3080.000000
594,-200.000000,-3120.000000
595,-204.000000,-3080.000000
596,-132.000000,-3080.000000
597,28.000000,-3080.000000
598,-8.000000,-3120.000000
599,-76.000000,-3080.000000
600,-120.000000,-3080.000000
601,-152.000000,-3080.000000
602,-172.000000,-3080.000000
603,-180.000000,-3080.000000
604,-188.000000,-3120.000000
605,-192.000000,-3120.000000
606,-200.000000,-3080.000000
607,-200.000000,-3080.000000
608,-204.000000,-3080.000000
609,-200.000000,-3120.000000
610,-200.000000,-3120.000000
611,-204.000000,-3080.000000
612,-204.000000,-3080.000000
613,-204.000000,-3120.000000
614,-200.000000,-3080.000000
615,-204.000000,-3080.000000
616,-200.000000,-3080.000000
617,-204.000000,-3120.000000
618,-204.000000,-3080.000000
619,-200.000000,-3080.000000
620,-200.000000,-3080.000000
621,-200.000000,-3080.000000
622,-200.000000,-3080.000000
623,-204.000000,-3080.000000
624,-204.000000,-3080.000000
625,-204.000000,-3080.000000
626,-204.000000,-3080.000000
627,-204.000000,-3080.000000
628,-204.000000,-3120.000000
629,-200.000000,-3080.000000
630,-204.000000,-3080.000000
631,-200.000000,-3080.000000
632,-204.000000,-3080.000000
633,-204.000000,-3080.000000
634,-200.000000,-3080.000000
635,-24.000000,-3120.000000
636,32.000000,-3080.000000
637,-52.000000,-3120.000000
638,-108.000000,-3080.000000
639,-140.000000,-3080.000000
640,-160.000000,-3080.000000
641,-176.000000,-3080.000000
642,-188.000000,-3120.000000
643,-192.000000,-3080.000000
644,-196.000000,-3080.000000
645,-200.000000,-3120.000000
646,-196.000000,-3080.000000
647,-200.000000,-3080.000000
648,-200.000000,-3120.000000
649,-200.000000,-3040.000000
650,-204.000000,-3080.000000
651,-204.000000,-3120.000000
652,-204.000000,-3080.000000
653,-204.000000,-3080.000000
654,-204.000000,-3080.000000
655,-200.000000,-3080.000000
656,-200.000000,-3080.000000
657,-204.000000,-3080.000000
658,-200.000000,-3120.000000
659,-204.000000,-3080.000000
660,-204.000000,-3080.000000
661,-200.000000,-3080.000000
662,-200.000000,-3080.000000
663,-200.000000,-3080.000000
664,-204.000000,-3080.000000
665,-204.000000,-3120.000000
666,-200.000000,-3080.000000
667,-204.000000,-3080.000000
668,-200.000000,-3080.000000
669,-200.000000,-3120.000000
670,-204.000000,-3080.000000
671,-200.000000,-3120.000000
672,-204.000000,-3120.000000
673,-88.000000,-3080.000000
674,48.000000,-3080.000000
675,-24.000000,-3120.000000
676,-84.000000,-3080.000000
677,-128.000000,-3080.000000
678,-156.000000,-3080.000000
679,-172.000000,-3080.000000
680,-184.000000,-3080.000000
681,-188.000000,-3080.000000
682,-192.000000,-3080.000000
683,-200.000000,-3080.000000
684,-200.000000,-3080.000000
685,-200.000000,-3080.000000
686,-200.000000,-3080.000000
687,-200.000000,-3080.000000
688,-200.000000,-3080.000000
689,-200.000000,-3080.000000
690,-200.000000,-3080.000000
691,-200.000000,-3080.000000
692,-200.000000,-3120.000000
