repport_data/power_measurements_V3/data_31/data_31_006.csv

Channel              :,CH1,CH2
Frequency            :,  ?,  ?
Period               :,  ?,  ?
PK-PK                :,468.0mV,120.0mV
Probe attenuation    :,1X,1X
Voltage per ADC value:,0.250000mV,2.500000mV
Time interval        :,400.00000uS,400.00000uS

index,CH1_Voltage(mV),CH2_Voltage(mV)
1,-204.000000,-3080.000000
2,-204.000000,-3080.000000
3,-204.000000,-3080.000000
4,-204.000000,-3080.000000
5,-204.000000,-3080.000000
6,-200.000000,-3080.000000
7,-204.000000,-3080.000000
8,-204.000000,-3080.000000
9,-204.000000,-3080.000000
10,-204.000000,-3080.000000
11,-204.000000,-3080.000000
12,-204.000000,-3080.000000
13,-204.000000,-3040.000000
14,-204.000000,-3080.000000
15,-204.000000,-3080.000000
16,-204.000000,-3040.000000
17,-204.000000,-3080.000000
18,-204.000000,-3080.000000
19,-88.000000,-3080.000000
20,52.000000,-3080.000000
21,-24.000000,-3040.000000
22,-88.000000,-3080.000000
23,-128.000000,-3080.000000
24,-156.000000,-3080.000000
25,-172.000000,-3080.000000
26,-184.000000,-3080.000000
27,-192.000000,-3080.000000
28,-196.000000,-3080.000000
29,-200.000000,-3080.000000
30,-200.000000,-3080.000000
31,-200.000000,-3080.000000
32,-204.000000,-3080.000000
33,-204.000000,-3080.000000
34,-204.000000,-3080.000000
35,-204.000000,-3080.000000
36,-204.000000,-3080.000000
37,-200.000000,-3080.000000
38,-204.000000,-3080.000000
39,-204.000000,-3080.000000
40,-204.000000,-3080.000000
41,-204.000000,-3080.000000
42,-204.000000,-3080.000000
43,-204.000000,-3080.000000
44,-204.000000,-3080.000000
45,-204.000000,-3080.000000
46,-204.000000,-3080.000000
47,-204.000000,-3080.000000
48,-204.000000,-3080.000000
49,-204.000000,-3080.000000
50,-204.000000,-3080.000000
51,-204.000000,-3080.000000
52,-200.000000,-3040.000000
53,-204.000000,-3080.000000
54,-204.000000,-3080.000000
55,-204.000000,-3040.000000
56,-204.000000,-3080.000000
57,-172.000000,-3080.000000
58,4.000000,-3080.000000
59,12.000000,-3080.000000
60,-68.000000,-3080.000000
61,-116.000000,-3080.000000
62,-148.000000,-3080.000000
63,-168.000000,-3080.000000
64,-184.000000,-3080.000000
65,-188.000000,-3080.000000
66,-196.000000,-3040.000000
67,-196.000000,-3080.000000
68,-200.000000,-3080.000000
69,-200.000000,-3080.000000
70,-200.000000,-3080.000000
71,-200.000000,-3040.000000
72,-200.000000,-3080.000000
73,-204.000000,-3080.000000
74,-204.000000,-3040.000000
75,-204.000000,-3040.000000
76,-204.000000,-3080.000000
77,-204.000000,-3080.000000
78,-204.000000,-3040.000000
79,-204.000000,-3080.000000
80,-204.000000,-3040.000000
81,-204.000000,-3080.000000
82,-204.000000,-3040.000000
83,-200.000000,-3080.000000
84,-204.000000,-3080.000000
85,-204.000000,-3040.000000
86,-200.000000,-3040.000000
87,-204.000000,-3080.000000
88,-200.000000,-3080.000000
89,-204.000000,-3040.000000
90,-204.000000,-3080.000000
91,-204.000000,-3080.000000
92,-204.000000,-3040.000000
93,-204.000000,-3040.000000
94,-204.000000,-3080.000000
95,-204.000000,-3080.000000
96,-52.000000,-3040.000000
97,52.000000,-3040.000000
98,-40.000000,-3080.000000
99,-96.000000,-3040.000000
100,-136.000000,-3040.000000
101,-160.000000,-3080.000000
102,-180.000000,-3080.000000
103,-184.000000,-3040.000000
104,-188.000000,-3080.000000
105,-196.000000,-3080.000000
106,-200.000000,-3040.000000
107,-200.000000,-3080.000000
108,-200.000000,-3080.000000
109,-200.000000,-3040.000000
110,-200.000000,-3080.000000
111,-204.000000,-3040.000000
112,-204.000000,-3040.000000
113,-204.000000,-3040.000000
114,-204.000000,-3080.000000
115,-204.000000,-3080.000000
116,-204.000000,-3040.000000
117,-204.000000,-3080.000000
118,-200.000000,-3080.000000
119,-204.000000,-3040.000000
120,-204.000000,-3080.000000
121,-204.000000,-3040.000000
122,-204.000000,-3080.000000
123,-204.000000,-3040.000000
124,-200.000000,-3080.000000
125,-204.000000,-3040.000000
126,-204.000000,-3040.000000
127,-204.000000,-3040.000000
128,-204.000000,-3040.000000
129,-204.000000,-3040.000000
130,-204.000000,-3040.000000
131,-204.000000,-3080.000000
132,-204.000000,-3040.000000
133,-204.000000,-3040.000000
134,-128.000000,-3080.000000
135,28.000000,-3080.000000
136,-8.000000,-3080.000000
137,-80.000000,-3080.000000
138,-124.000000,-3080.000000
139,-148.000000,-3080.000000
140,-172.000000,-3040.000000
141,-180.000000,-3040.000000
142,-188.000000,-3040.000000
143,-196.000000,-3040.000000
144,-196.000000,-3080.000000
145,-200.000000,-3040.000000
146,-200.000000,-3040.000000
147,-200.000000,-3080.000000
148,-200.000000,-3080.000000
149,-200.000000,-3080.000000
150,-204.000000,-3080.000000
151,-204.000000,-3040.000000
152,-200.000000,-3040.000000
153,-204.000000,-3080.000000
154,-204.000000,-3040.000000
155,-204.000000,-3080.000000
156,-204.000000,-3080.000000
157,-204.000000,-3080.000000
158,-204.000000,-3080.000000
159,-204.000000,-3080.000000
160,-204.000000,-3080.000000
161,-204.000000,-3040.000000
162,-204.000000,-3080.000000
163,-200.000000,-3080.000000
164,-204.000000,-3080.000000
165,-204.000000,-3080.000000
166,-200.000000,-3040.000000
167,-204.000000,-3080.000000
168,-204.000000,-3080.000000
169,-204.000000,-3040.000000
170,-204.000000,-3040.000000
171,-200.000000,-3080.000000
172,-200.000000,-3080.000000
173,-24.000000,-3040.000000
174,28.000000,-3080.000000
175,-52.000000,-3080.000000
176,-104.000000,-3040.000000
177,-140.000000,-3080.000000
178,-164.000000,-3040.000000
179,-180.000000,-3080.000000
180,-188.000000,-3040.000000
181,-192.000000,-3080.000000
182,-196.000000,-3040.000000
183,-200.000000,-3040.000000
184,-200.000000,-3040.000000
185,-200.000000,-3080.000000
186,-204.000000,-3080.000000
187,-200.000000,-3080.000000
188,-204.000000,-3040.000000
189,-200.000000,-3040.000000
190,-200.000000,-3040.000000
191,-204.000000,-3080.000000
192,-204.000000,-3080.000000
193,-200.000000,-3040.000000
194,-204.000000,-3080.000000
195,-200.000000,-3040.000000
196,-200.000000,-3040.000000
197,-204.000000,-3080.000000
198,-204.000000,-3080.000000
199,-200.000000,-3080.000000
200,-200.000000,-3040.000000
201,-200.000000,-3040.000000
202,-200.000000,-3080.000000
203,-204.000000,-3040.000000
204,-204.000000,-3080.000000
205,-204.000000,-3040.000000
206,-204.000000,-3080.000000
207,-200.000000,-3080.000000
208,-200.000000,-3040.000000
209,-200.000000,-3080.000000
210,-204.000000,-3040.000000
211,-84.000000,-3040.000000
212,52.000000,-3080.000000
213,-24.000000,-3040.000000
214,-88.000000,-3080.000000
215,-128.000000,-3080.000000
216,-152.000000,-3040.000000
217,-172.000000,-3040.000000
218,-184.000000,-3040.000000
219,-192.000000,-3040.000000
220,-196.000000,-3040.000000
221,-196.000000,-3040.000000
222,-200.000000,-3040.000000
223,-200.000000,-3040.000000
224,-200.000000,-3040.000000
225,-200.000000,-3080.000000
226,-204.000000,-3040.000000
227,-200.000000,-3080.000000
228,-204.000000,-3080.000000
229,-204.000000,-3080.000000
230,-200.000000,-3040.000000
231,-200.000000,-3080.000000
232,-204.000000,-3040.000000
233,-200.000000,-3040.000000
234,-204.000000,-3080.000000
235,-204.000000,-3080.000000
236,-204.000000,-3040.000000
237,-200.000000,-3080.000000
238,-204.000000,-3040.000000
239,-204.000000,-3040.000000
240,-204.000000,-3040.000000
241,-200.000000,-3040.000000
242,-200.000000,-3080.000000
243,-204.000000,-3080.000000
244,-204.000000,-3040.000000
245,-204.000000,-3040.000000
246,-200.000000,-3080.000000
247,-204.000000,-3080.000000
248,-204.000000,-3040.000000
249,-168.000000,-3040.000000
250,-124.000000,-3080.000000
251,-156.000000,-3040.000000
252,-172.000000,-3040.000000
253,-184.000000,-3040.000000
254,-192.000000,-3040.000000
255,-196.000000,-3080.000000
256,-196.000000,-3080.000000
257,-200.000000,-3080.000000
258,-204.000000,-3080.000000
259,-172.000000,-3080.000000
260,-184.000000,-3080.000000
261,-192.000000,-3080.000000
262,-196.000000,-3080.000000
263,-200.000000,-3080.000000
264,-200.000000,-3040.000000
265,-204.000000,-3040.000000
266,-204.000000,-3080.000000
267,-200.000000,-3080.000000
268,-200.000000,-3080.000000
269,-204.000000,-3040.000000
270,-200.000000,-3040.000000
271,-204.000000,-3040.000000
272,-200.000000,-3040.000000
273,-184.000000,-3080.000000
274,-164.000000,-3080.000000
275,-176.000000,-3040.000000
276,-184.000000,-3080.000000
277,-188.000000,-3040.000000
278,-188.000000,-3040.000000
279,-188.000000,-3040.000000
280,-192.000000,-3080.000000
281,-196.000000,-3040.000000
282,-192.000000,-3040.000000
283,-196.000000,-3040.000000
284,-196.000000,-3040.000000
285,-196.000000,-3040.000000
286,-192.000000,-3040.000000
287,-196.000000,-3080.000000
288,-192.000000,-3080.000000
289,-192.000000,-3080.000000
290,-196.000000,-3040.000000
291,-192.000000,-3080.000000
292,-196.000000,-3080.000000
293,-196.000000,-3080.000000
294,-192.000000,-3040.000000
295,-196.000000,-3040.000000
296,-196.000000,-3040.000000
297,-196.000000,-3040.000000
298,-196.000000,-3080.000000
299,-192.000000,-3040.000000
300,-192.000000,-3040.000000
301,-192.000000,-3040.000000
302,-192.000000,-3080.000000
303,-196.000000,-3040.000000
304,-196.000000,-3040.000000
305,-192.000000,-3040.000000
306,-192.000000,-3080.000000
307,-192.000000,-3040.000000
308,-192.000000,-3080.000000
309,-196.000000,-3080.000000
310,-192.000000,-3040.000000
311,-192.000000,-3040.000000
312,-192.000000,-3080.000000
313,-196.000000,-3040.000000
314,-196.000000,-3080.000000
315,-196.000000,-3080.000000
316,-192.000000,-3080.000000
317,-192.000000,-3040.000000
318,-196.000000,-3040.000000
319,-196.000000,-3080.000000
320,-196.000000,-3080.000000
321,-196.000000,-3040.000000
322,-196.000000,-3080.000000
323,-196.000000,-3040.000000
324,-192.000000,-3040.000000
325,-192.000000,-3040.000000
326,-192.000000,-3080.000000
327,-192.000000,-3080.000000
328,-192.000000,-3080.000000
329,-192.000000,-3080.000000
330,-196.000000,-3040.000000
331,-196.000000,-3040.000000
332,-192.000000,-3040.000000
333,-196.000000,-3040.000000
334,-192.000000,-3080.000000
335,-192.000000,-3040.000000
336,-196.000000,-3040.000000
337,-192.000000,-3040.000000
338,-192.000000,-3080.000000
339,-192.000000,-3080.000000
340,-192.000000,-3040.000000
341,-192.000000,-3040.000000
342,-192.000000,-3040.000000
343,-196.000000,-3080.000000
344,-192.000000,-3080.000000
345,-192.000000,-3080.000000
346,-192.000000,-3080.000000
347,-196.000000,-3080.000000
348,-192.000000,-3040.000000
349,-192.000000,-3080.000000
350,-192.000000,-3080.000000
351,-192.000000,-3080.000000
352,-192.000000,-3040.000000
353,-192.000000,-3080.000000
354,-192.000000,-3040.000000
355,-192.000000,-3040.000000
356,-192.000000,-3080.000000
357,-196.000000,-3040.000000
358,-196.000000,-3080.000000
359,-192.000000,-3040.000000
360,-196.000000,-3080.000000
361,-196.000000,-3040.000000
362,-192.000000,-3040.000000
363,-196.000000,-3040.000000
364,-192.000000,-3080.000000
365,-196.000000,-3080.000000
366,-196.000000,-3040.000000
367,-192.000000,-3040.000000
368,-192.000000,-3080.000000
369,-192.000000,-3040.000000
370,-192.000000,-3080.000000
371,-192.000000,-3040.000000
372,-192.000000,-3080.000000
373,-196.000000,-3080.000000
374,-192.000000,-3040.000000
375,-196.000000,-3080.000000
376,-192.000000,-3040.000000
377,-192.000000,-3040.000000
378,-196.000000,-3040.000000
379,-192.000000,-3040.000000
380,-192.000000,-3080.000000
381,-192.000000,-3080.000000
382,-196.000000,-3040.000000
383,-192.000000,-3080.000000
384,-196.000000,-3080.000000
385,-192.000000,-3080.000000
386,-192.000000,-3040.000000
387,-192.000000,-3040.000000
388,-192.000000,-3040.000000
389,-192.000000,-3080.000000
390,-192.000000,-3040.000000
391,-192.000000,-3040.000000
392,-196.000000,-3040.000000
393,-192.000000,-3040.000000
394,-192.000000,-3080.000000
395,-196.000000,-3080.000000
396,-196.000000,-3080.000000
397,-192.000000,-3080.000000
398,-192.000000,-3080.000000
399,-72.000000,-3080.000000
400,36.000000,-3040.000000
401,96.000000,-3040.000000
402,84.000000,-3040.000000
403,-16.000000,-3080.000000
404,-76.000000,-3080.000000
405,-120.000000,-3040.000000
406,-148.000000,-3040.000000
407,-160.000000,-3080.000000
408,-172.000000,-3040.000000
409,-180.000000,-3040.000000
410,-184.000000,-3080.000000
411,-188.000000,-3080.000000
412,-192.000000,-3080.000000
413,-192.000000,-3080.000000
414,-192.000000,-3080.000000
415,-192.000000,-3040.000000
416,-192.000000,-3080.000000
417,-196.000000,-3080.000000
418,-192.000000,-3080.000000
419,-196.000000,-3080.000000
420,-196.000000,-3040.000000
421,-192.000000,-3040.000000
422,-196.000000,-3040.000000
423,-192.000000,-3040.000000
424,-196.000000,-3080.000000
425,-192.000000,-3080.000000
426,-192.000000,-3040.000000
427,-192.000000,-3040.000000
428,-192.000000,-3080.000000
429,-192.000000,-3040.000000
430,-196.000000,-3080.000000
431,-196.000000,-3040.000000
432,-192.000000,-3080.000000
433,-192.000000,-3040.000000
434,-192.000000,-3080.000000
435,-192.000000,-3040.000000
436,-192.000000,-3080.000000
437,-192.000000,-3080.000000
438,-192.000000,-3040.000000
439,-192.000000,-3080.000000
440,-196.000000,-3080.000000
441,-196.000000,-3040.000000
442,-192.000000,-3040.000000
443,-192.000000,-3080.000000
444,-192.000000,-3040.000000
445,-192.000000,-3040.000000
446,-192.000000,-3080.000000
447,-196.000000,-3080.000000
448,-192.000000,-3040.000000
449,-192.000000,-3080.000000
450,-192.000000,-3040.000000
451,-192.000000,-3080.000000
452,-192.000000,-3040.000000
453,-192.000000,-3040.000000
454,-196.000000,-3040.000000
455,-192.000000,-3040.000000
456,-192.000000,-3040.000000
457,-196.000000,-3040.000000
458,-192.000000,-3040.000000
459,-196.000000,-3080.000000
460,-192.000000,-3080.000000
461,-196.000000,-3080.000000
462,-192.000000,-3080.000000
463,-192.000000,-3040.000000
464,-196.000000,-3080.000000
465,-192.000000,-3040.000000
466,-196.000000,-3080.000000
467,-192.000000,-3040.000000
468,-192.000000,-3080.000000
469,-192.000000,-3040.000000
470,-192.000000,-3040.000000
471,-192.000000,-3080.000000
472,-196.000000,-3040.000000
473,-196.000000,-3040.000000
474,-192.000000,-3040.000000
475,-192.000000,-3040.000000
476,-192.000000,-3040.000000
477,-192.000000,-3040.000000
478,-192.000000,-3040.000000
479,-192.000000,-3040.000000
480,-192.000000,-3080.000000
481,-192.000000,-3080.000000
482,-192.000000,-3080.000000
483,-196.000000,-3080.000000
484,-192.000000,-3040.000000
485,-196.000000,-3040.000000
486,-192.000000,-3080.000000
487,-196.000000,-3080.000000
488,-192.000000,-3040.000000
489,-192.000000,-3080.000000
490,-196.000000,-3080.000000
491,-192.000000,-3040.000000
492,-192.000000,-3040.000000
493,-192.000000,-3040.000000
494,-192.000000,-3040.000000
495,-196.000000,-3040.000000
496,-196.000000,-3040.000000
497,-196.000000,-3040.000000
498,-192.000000,-3040.000000
499,-192.000000,-3080.000000
500,-192.000000,-3080.000000
501,-192.000000,-3080.000000
502,-192.000000,-3080.000000
503,-192.000000,-3080.000000
504,-192.000000,-3080.000000
505,-196.000000,-3040.000000
506,-192.000000,-3040.000000
507,-192.000000,-3040.000000
508,-192.000000,-3080.000000
509,-192.000000,-3040.000000
510,-192.000000,-3040.000000
511,-196.000000,-3080.000000
512,-192.000000,-3080.000000
513,-192.000000,-3080.000000
514,-196.000000,-3040.000000
515,-196.000000,-3040.000000
516,-192.000000,-3040.000000
517,-192.000000,-3080.000000
518,-196.000000,-3040.000000
519,-196.000000,-3040.000000
520,-196.000000,-3080.000000
521,-192.000000,-3040.000000
522,-192.000000,-3040.000000
523,-196.000000,-3080.000000
524,-120.000000,-3080.000000
525,4.000000,-3040.000000
526,80.000000,-3040.000000
527,128.000000,-3080.000000
528,12.000000,-3040.000000
529,-60.000000,-3040.000000
530,-108.000000,-3080.000000
531,-136.000000,-3040.000000
532,-156.000000,-3080.000000
533,-172.000000,-3040.000000
534,-176.000000,-3040.000000
535,-180.000000,-3040.000000
536,-188.000000,-3040.000000
537,-188.000000,-3040.000000
538,-188.000000,-3080.000000
539,-192.000000,-3040.000000
540,-192.000000,-3080.000000
541,-192.000000,-3040.000000
542,-192.000000,-3120.000000
543,-192.000000,-3080.000000
544,-192.000000,-3080.000000
545,-192.000000,-3080.000000
546,-192.000000,-3040.000000
547,-192.000000,-3080.000000
548,-192.000000,-3080.000000
549,-192.000000,-3040.000000
550,-192.000000,-3040.000000
551,-192.000000,-3040.000000
552,-192.000000,-3040.000000
553,-192.000000,-3080.000000
554,-192.000000,-3040.000000
555,-196.000000,-3040.000000
556,-192.000000,-3040.000000
557,-196.000000,-3040.000000
558,-192.000000,-3040.000000
559,-196.000000,-3080.000000
560,-192.000000,-3080.000000
561,-192.000000,-3040.000000
562,-196.000000,-3080.000000
563,-192.000000,-3080.000000
564,-196.000000,-3080.000000
565,-192.000000,-3080.000000
566,-192.000000,-3040.000000
567,-192.000000,-3040.000000
568,-192.000000,-3040.000000
569,-196.000000,-3080.000000
570,-192.000000,-3080.000000
571,-192.000000,-3040.000000
572,-196.000000,-3040.000000
573,-196.000000,-3040.000000
574,-192.000000,-3040.000000
575,-192.000000,-3040.000000
576,-192.000000,-3080.000000
577,-192.000000,-3080.000000
578,-192.000000,-3080.000000
579,-192.000000,-3080.000000
580,-192.000000,-3040.000000
581,-192.000000,-3040.000000
582,-192.000000,-3080.000000
583,-196.000000,-3080.000000
584,-196.000000,-3040.000000
585,-196.000000,-3080.000000
586,-192.000000,-3080.000000
587,-192.000000,-3040.000000
588,-192.000000,-3040.000000
589,-192.000000,-3040.000000
590,-192.000000,-3080.000000
591,-192.000000,-3040.000000
592,-192.000000,-3080.000000
593,-192.000000,-3080.000000
594,-196.000000,-3040.000000
595,-192.000000,-3080.000000
596,-192.000000,-3080.000000
597,-196.000000,-3080.000000
598,-192.000000,-3040.000000
599,-192.000000,-3080.000000
600,-192.000000,-3080.000000
601,-192.000000,-3040.000000
602,-192.000000,-3040.000000
603,-192.000000,-3040.000000
604,-196.000000,-3080.000000
605,-192.000000,-3080.000000
606,-196.000000,-3080.000000
607,-192.000000,-3080.000000
608,-192.000000,-3080.000000
609,-196.000000,-3080.000000
610,-196.000000,-3080.000000
611,-196.000000,-3040.000000
612,-192.000000,-3040.000000
613,-196.000000,-3040.000000
614,-192.000000,-3040.000000
615,-192.000000,-3040.000000
616,-196.000000,-3040.000000
617,-192.000000,-3040.000000
618,-192.000000,-3040.000000
619,-192.000000,-3040.000000
620,-192.000000,-3040.000000
621,-192.000000,-3040.000000
622,-192.000000,-3040.000000
623,-192.000000,-3080.000000
624,-192.000000,-3080.000000
625,-192.000000,-3040.000000
626,-192.000000,-3040.000000
627,-196.000000,-3040.000000
628,-192.000000,-3040.000000
629,-192.000000,-3040.000000
630,-192.000000,-3080.000000
631,-192.000000,-3040.000000
632,-192.000000,-3040.000000
633,-192.000000,-3040.000000
634,-196.000000,-3040.000000
635,-192.000000,-3040.000000
636,-192.000000,-3040.000000
637,-192.000000,-3080.000000
638,-192.000000,-3080.000000
639,-192.000000,-3040.000000
640,-192.000000,-3080.000000
641,-192.000000,-3080.000000
642,-192.000000,-3040.000000
643,-192.000000,-3040.000000
644,-196.000000,-3040.000000
645,-192.000000,-3040.000000
646,-196.000000,-3040.000000
647,-192.000000,-3040.000000
648,-196.000000,-3040.000000
649,-176.000000,-3080.000000
650,-32.000000,-3080.000000
651,60.000000,-3080.000000
652,108.000000,-3040.000000
653,48.000000,-3080.000000
654,-40.000000,-3040.000000
655,-96.000000,-3080.000000
656,-128.000000,-3040.000000
657,-152.000000,-3040.000000
658,-164.000000,-3040.000000
659,-176.000000,-3040.000000
660,-180.000000,-3080.000000
661,-188.000000,-3040.000000
662,-188.000000,-3080.000000
663,-188.000000,-3080.000000
664,-192.000000,-3080.000000
665,-188.000000,-3080.000000
666,-192.000000,-3040.000000
667,-192.000000,-3080.000000
668,-192.000000,-3040.000000
669,-192.000000,-3080.000000
670,-192.000000,-3080.000000
671,-192.000000,-3080.000000
672,-192.000000,-3080.000000
673,-192.000000,-3080.000000
674,-192.000000,-3040.000000
675,-192.000000,-3080.000000
676,-192.000000,-3080.000000
677,-192.000000,-3040.000000
678,-192.000000,-3040.000000
679,-196.000000,-3080.000000
680,-192.000000,-3040.000000
681,-192.000000,-3040.000000
682,-192.000000,-3080.000000
683,-192.000000,-3040.000000
684,-192.000000,-3080.000000
685,-192.000000,-3040.000000
