repport_data/power_measurements_V2/data_27_008.csv

Channel              :,CH1,CH2
Frequency            :,  ?,  ?
Period               :,  ?,  ?
PK-PK                :,452.0mV,80.00mV
Probe attenuation    :,1X,1X
Voltage per ADC value:,0.250000mV,2.500000mV
Time interval        :,400.00000uS,400.00000uS

index,CH1_Voltage(mV),CH2_Voltage(mV)
1,-176.000000,-3080.000000
2,-176.000000,-3080.000000
3,-180.000000,-3080.000000
4,-176.000000,-3080.000000
5,-176.000000,-3080.000000
6,-176.000000,-3080.000000
7,-176.000000,-3080.000000
8,-180.000000,-3120.000000
9,-180.000000,-3080.000000
10,-176.000000,-3080.000000
11,-184.000000,-3080.000000
12,-180.000000,-3080.000000
13,-176.000000,-3080.000000
14,-176.000000,-3080.000000
15,-180.000000,-3080.000000
16,-172.000000,-3080.000000
17,-180.000000,-3080.000000
18,-176.000000,-3080.000000
19,-180.000000,-3080.000000
20,-184.000000,-3080.000000
21,-180.000000,-3080.000000
22,-176.000000,-3080.000000
23,-180.000000,-3080.000000
24,-180.000000,-3080.000000
25,-176.000000,-3120.000000
26,-180.000000,-3080.000000
27,-180.000000,-3120.000000
28,-180.000000,-3080.000000
29,-176.000000,-3080.000000
30,-180.000000,-3080.000000
31,-184.000000,-3080.000000
32,-184.000000,-3080.000000
33,-180.000000,-3080.000000
34,-180.000000,-3080.000000
35,-176.000000,-3080.000000
36,-180.000000,-3080.000000
37,-184.000000,-3080.000000
38,-180.000000,-3080.000000
39,-180.000000,-3080.000000
40,-176.000000,-3080.000000
41,-180.000000,-3120.000000
42,-180.000000,-3080.000000
43,-180.000000,-3080.000000
44,-180.000000,-3080.000000
45,-184.000000,-3080.000000
46,-176.000000,-3080.000000
47,-180.000000,-3080.000000
48,-176.000000,-3080.000000
49,-180.000000,-3080.000000
50,-180.000000,-3040.000000
51,-180.000000,-3080.000000
52,-176.000000,-3080.000000
53,-180.000000,-3080.000000
54,-184.000000,-3080.000000
55,-184.000000,-3080.000000
56,-180.000000,-3080.000000
57,-172.000000,-3080.000000
58,-180.000000,-3080.000000
59,-176.000000,-3120.000000
60,-180.000000,-3080.000000
61,-180.000000,-3080.000000
62,-180.000000,-3080.000000
63,-180.000000,-3080.000000
64,-176.000000,-3080.000000
65,-176.000000,-3080.000000
66,-176.000000,-3080.000000
67,-184.000000,-3080.000000
68,-184.000000,-3080.000000
69,-176.000000,-3120.000000
70,-176.000000,-3080.000000
71,-180.000000,-3120.000000
72,-180.000000,-3080.000000
73,-180.000000,-3080.000000
74,-180.000000,-3080.000000
75,-184.000000,-3080.000000
76,-176.000000,-3120.000000
77,-176.000000,-3080.000000
78,-180.000000,-3080.000000
79,-176.000000,-3120.000000
80,-176.000000,-3080.000000
81,-180.000000,-3120.000000
82,-180.000000,-3080.000000
83,-180.000000,-3080.000000
84,-176.000000,-3080.000000
85,-180.000000,-3120.000000
86,-180.000000,-3080.000000
87,-176.000000,-3080.000000
88,-176.000000,-3080.000000
89,-180.000000,-3080.000000
90,-180.000000,-3080.000000
91,-180.000000,-3080.000000
92,-176.000000,-3080.000000
93,-180.000000,-3080.000000
94,-180.000000,-3080.000000
95,-180.000000,-3080.000000
96,-180.000000,-3080.000000
97,-180.000000,-3080.000000
98,-180.000000,-3080.000000
99,-176.000000,-3120.000000
100,-180.000000,-3080.000000
101,-152.000000,-3080.000000
102,-12.000000,-3080.000000
103,92.000000,-3080.000000
104,164.000000,-3080.000000
105,188.000000,-3080.000000
106,192.000000,-3080.000000
107,128.000000,-3080.000000
108,24.000000,-3080.000000
109,-52.000000,-3080.000000
110,-96.000000,-3080.000000
111,-128.000000,-3120.000000
112,-144.000000,-3080.000000
113,-156.000000,-3080.000000
114,-168.000000,-3080.000000
115,-172.000000,-3080.000000
116,-176.000000,-3080.000000
117,-176.000000,-3080.000000
118,-176.000000,-3080.000000
119,-176.000000,-3080.000000
120,-180.000000,-3080.000000
121,-176.000000,-3080.000000
122,-180.000000,-3080.000000
123,-180.000000,-3080.000000
124,-180.000000,-3080.000000
125,-180.000000,-3080.000000
126,-180.000000,-3080.000000
127,-176.000000,-3080.000000
128,-180.000000,-3080.000000
129,-180.000000,-3080.000000
130,-184.000000,-3040.000000
131,-180.000000,-3080.000000
132,-180.000000,-3080.000000
133,-180.000000,-3080.000000
134,-176.000000,-3080.000000
135,-180.000000,-3080.000000
136,-180.000000,-3080.000000
137,-180.000000,-3080.000000
138,-180.000000,-3080.000000
139,-176.000000,-3080.000000
140,-180.000000,-3040.000000
141,-180.000000,-3080.000000
142,-180.000000,-3080.000000
143,-180.000000,-3080.000000
144,-180.000000,-3080.000000
145,-180.000000,-3040.000000
146,-184.000000,-3080.000000
147,-180.000000,-3080.000000
148,-180.000000,-3080.000000
149,-180.000000,-3080.000000
150,-176.000000,-3080.000000
151,-180.000000,-3080.000000
152,-176.000000,-3080.000000
153,-184.000000,-3080.000000
154,-180.000000,-3080.000000
155,-176.000000,-3080.000000
156,-176.000000,-3080.000000
157,-176.000000,-3080.000000
158,-176.000000,-3080.000000
159,-180.000000,-3080.000000
160,-176.000000,-3080.000000
161,-184.000000,-3080.000000
162,-180.000000,-3080.000000
163,-180.000000,-3080.000000
164,-180.000000,-3080.000000
165,-180.000000,-3080.000000
166,-180.000000,-3080.000000
167,-180.000000,-3080.000000
168,-176.000000,-3080.000000
169,-180.000000,-3040.000000
170,-180.000000,-3080.000000
171,-184.000000,-3080.000000
172,-180.000000,-3080.000000
173,-176.000000,-3080.000000
174,-180.000000,-3080.000000
175,-180.000000,-3080.000000
176,-184.000000,-3080.000000
177,-184.000000,-3080.000000
178,-180.000000,-3080.000000
179,-184.000000,-3080.000000
180,-176.000000,-3080.000000
181,-180.000000,-3080.000000
182,-184.000000,-3080.000000
183,-184.000000,-3080.000000
184,-184.000000,-3080.000000
185,-180.000000,-3080.000000
186,-184.000000,-3040.000000
187,-184.000000,-3080.000000
188,-180.000000,-3040.000000
189,-180.000000,-3080.000000
190,-180.000000,-3080.000000
191,-176.000000,-3080.000000
192,-180.000000,-3080.000000
193,-180.000000,-3080.000000
194,-184.000000,-3080.000000
195,-180.000000,-3080.000000
196,-176.000000,-3080.000000
197,-180.000000,-3080.000000
198,-180.000000,-3120.000000
199,-184.000000,-3080.000000
200,-180.000000,-3080.000000
201,-176.000000,-3040.000000
202,-176.000000,-3080.000000
203,-176.000000,-3080.000000
204,-180.000000,-3080.000000
205,-184.000000,-3040.000000
206,-184.000000,-3080.000000
207,-184.000000,-3080.000000
208,-180.000000,-3080.000000
209,-180.000000,-3080.000000
210,-180.000000,-3080.000000
211,-184.000000,-3080.000000
212,-176.000000,-3080.000000
213,-176.000000,-3080.000000
214,-184.000000,-3080.000000
215,-180.000000,-3080.000000
216,-180.000000,-3080.000000
217,-180.000000,-3080.000000
218,-180.000000,-3080.000000
219,-180.000000,-3080.000000
220,-180.000000,-3080.000000
221,-180.000000,-3080.000000
222,-180.000000,-3080.000000
223,-180.000000,-3080.000000
224,-176.000000,-3080.000000
225,-180.000000,-3080.000000
226,-180.000000,-3080.000000
227,-64.000000,-3120.000000
228,48.000000,-3080.000000
229,148.000000,-3040.000000
230,180.000000,-3040.000000
231,200.000000,-3080.000000
232,188.000000,-3080.000000
233,60.000000,-3080.000000
234,-20.000000,-3080.000000
235,-84.000000,-3080.000000
236,-116.000000,-3120.000000
237,-136.000000,-3080.000000
238,-152.000000,-3080.000000
239,-160.000000,-3080.000000
240,-168.000000,-3080.000000
241,-172.000000,-3080.000000
242,-176.000000,-3080.000000
243,-176.000000,-3080.000000
244,-176.000000,-3080.000000
245,-180.000000,-3080.000000
246,-180.000000,-3080.000000
247,-180.000000,-3080.000000
248,-180.000000,-3080.000000
249,-180.000000,-3080.000000
250,-176.000000,-3080.000000
251,-180.000000,-3120.000000
252,-180.000000,-3080.000000
253,-176.000000,-3080.000000
254,-180.000000,-3080.000000
255,-180.000000,-3080.000000
256,-184.000000,-3080.000000
257,-180.000000,-3080.000000
258,-180.000000,-3120.000000
259,-180.000000,-3080.000000
260,-176.000000,-3080.000000
261,-180.000000,-3080.000000
262,-180.000000,-3080.000000
263,-180.000000,-3080.000000
264,-180.000000,-3080.000000
265,-176.000000,-3080.000000
266,-180.000000,-3080.000000
267,-180.000000,-3080.000000
268,-184.000000,-3080.000000
269,-180.000000,-3080.000000
270,-180.000000,-3080.000000
271,-180.000000,-3080.000000
272,-180.000000,-3080.000000
273,-180.000000,-3080.000000
274,-180.000000,-3080.000000
275,-180.000000,-3080.000000
276,-184.000000,-3080.000000
277,-176.000000,-3040.000000
278,-180.000000,-3080.000000
279,-180.000000,-3080.000000
280,-180.000000,-3080.000000
281,-180.000000,-3080.000000
282,-180.000000,-3080.000000
283,-176.000000,-3120.000000
284,-176.000000,-3080.000000
285,-176.000000,-3080.000000
286,-180.000000,-3080.000000
287,-180.000000,-3080.000000
288,-180.000000,-3080.000000
289,-180.000000,-3040.000000
290,-176.000000,-3080.000000
291,-180.000000,-3080.000000
292,-184.000000,-3080.000000
293,-180.000000,-3080.000000
294,-176.000000,-3080.000000
295,-180.000000,-3080.000000
296,-180.000000,-3080.000000
297,-180.000000,-3080.000000
298,-184.000000,-3080.000000
299,-180.000000,-3080.000000
300,-180.000000,-3080.000000
301,-180.000000,-3080.000000
302,-184.000000,-3120.000000
303,-184.000000,-3080.000000
304,-180.000000,-3080.000000
305,-176.000000,-3080.000000
306,-176.000000,-3080.000000
307,-172.000000,-3120.000000
308,-176.000000,-3080.000000
309,-176.000000,-3080.000000
310,-180.000000,-3080.000000
311,-180.000000,-3080.000000
312,-180.000000,-3080.000000
313,-180.000000,-3080.000000
314,-176.000000,-3040.000000
315,-176.000000,-3080.000000
316,-180.000000,-3080.000000
317,-176.000000,-3080.000000
318,-180.000000,-3080.000000
319,-180.000000,-3080.000000
320,-176.000000,-3080.000000
321,-180.000000,-3080.000000
322,-176.000000,-3080.000000
323,-180.000000,-3080.000000
324,-180.000000,-3080.000000
325,-180.000000,-3080.000000
326,-180.000000,-3080.000000
327,-180.000000,-3080.000000
328,-180.000000,-3080.000000
329,-176.000000,-3040.000000
330,-180.000000,-3080.000000
331,-180.000000,-3120.000000
332,-180.000000,-3080.000000
333,-176.000000,-3080.000000
334,-176.000000,-3080.000000
335,-180.000000,-3080.000000
336,-184.000000,-3080.000000
337,-180.000000,-3080.000000
338,-184.000000,-3080.000000
339,-180.000000,-3080.000000
340,-180.000000,-3080.000000
341,-176.000000,-3080.000000
342,-180.000000,-3080.000000
343,-180.000000,-3080.000000
344,-176.000000,-3080.000000
345,-184.000000,-3080.000000
346,-180.000000,-3080.000000
347,-180.000000,-3080.000000
348,-180.000000,-3080.000000
349,-180.000000,-3080.000000
350,-180.000000,-3080.000000
351,-180.000000,-3080.000000
352,-128.000000,-3080.000000
353,4.000000,-3080.000000
354,108.000000,-3080.000000
355,172.000000,-3080.000000
356,188.000000,-3080.000000
357,188.000000,-3080.000000
358,120.000000,-3080.000000
359,12.000000,-3080.000000
360,-56.000000,-3080.000000
361,-100.000000,-3080.000000
362,-128.000000,-3080.000000
363,-148.000000,-3080.000000
364,-156.000000,-3080.000000
365,-164.000000,-3080.000000
366,-168.000000,-3080.000000
367,-172.000000,-3080.000000
368,-172.000000,-3080.000000
369,-176.000000,-3080.000000
370,-180.000000,-3080.000000
371,-180.000000,-3080.000000
372,-176.000000,-3080.000000
373,-180.000000,-3080.000000
374,-176.000000,-3080.000000
375,-176.000000,-3040.000000
376,-172.000000,-3080.000000
377,-176.000000,-3080.000000
378,-180.000000,-3080.000000
379,-180.000000,-3080.000000
380,-180.000000,-3080.000000
381,-176.000000,-3080.000000
382,-180.000000,-3080.000000
383,-184.000000,-3080.000000
384,-180.000000,-3080.000000
385,-180.000000,-3080.000000
386,-180.000000,-3080.000000
387,-180.000000,-3080.000000
388,-180.000000,-3080.000000
389,-180.000000,-3080.000000
390,-176.000000,-3080.000000
391,-180.000000,-3080.000000
392,-176.000000,-3080.000000
393,-172.000000,-3080.000000
394,-176.000000,-3080.000000
395,-184.000000,-3080.000000
396,-180.000000,-3080.000000
397,-180.000000,-3080.000000
398,-176.000000,-3080.000000
399,-180.000000,-3080.000000
400,-180.000000,-3080.000000
401,-188.000000,-3080.000000
402,-180.000000,-3080.000000
403,-180.000000,-3080.000000
404,-172.000000,-3080.000000
405,-180.000000,-3080.000000
406,-188.000000,-3080.000000
407,-180.000000,-3080.000000
408,-188.000000,-3080.000000
409,-180.000000,-3080.000000
410,-180.000000,-3120.000000
411,-180.000000,-3080.000000
412,-180.000000,-3080.000000
413,-180.000000,-3080.000000
414,-180.000000,-3080.000000
415,-180.000000,-3080.000000
416,-180.000000,-3080.000000
417,-180.000000,-3080.000000
418,-180.000000,-3080.000000
419,-176.000000,-3080.000000
420,-176.000000,-3080.000000
421,-180.000000,-3080.000000
422,-176.000000,-3080.000000
423,-180.000000,-3080.000000
424,-180.000000,-3080.000000
425,-180.000000,-3080.000000
426,-180.000000,-3120.000000
427,-176.000000,-3080.000000
428,-180.000000,-3080.000000
429,-180.000000,-3080.000000
430,-180.000000,-3080.000000
431,-180.000000,-3080.000000
432,-180.000000,-3080.000000
433,-176.000000,-3080.000000
434,-180.000000,-3080.000000
435,-180.000000,-3080.000000
436,-180.000000,-3080.000000
437,-180.000000,-3080.000000
438,-176.000000,-3080.000000
439,-184.000000,-3120.000000
440,-180.000000,-3080.000000
441,-180.000000,-3120.000000
442,-180.000000,-3120.000000
443,-180.000000,-3040.000000
444,-180.000000,-3080.000000
445,-180.000000,-3080.000000
446,-180.000000,-3080.000000
447,-180.000000,-3080.000000
448,-180.000000,-3080.000000
449,-176.000000,-3080.000000
450,-176.000000,-3080.000000
451,-180.000000,-3080.000000
452,-180.000000,-3080.000000
453,-180.000000,-3080.000000
454,-184.000000,-3080.000000
455,-180.000000,-3080.000000
456,-172.000000,-3080.000000
457,-180.000000,-3080.000000
458,-184.000000,-3080.000000
459,-180.000000,-3080.000000
460,-180.000000,-3080.000000
461,-180.000000,-3080.000000
462,-180.000000,-3080.000000
463,-176.000000,-3080.000000
464,-176.000000,-3040.000000
465,-180.000000,-3080.000000
466,-176.000000,-3040.000000
467,-180.000000,-3080.000000
468,-176.000000,-3080.000000
469,-180.000000,-3080.000000
470,-176.000000,-3080.000000
471,-180.000000,-3040.000000
472,-180.000000,-3080.000000
473,-180.000000,-3080.000000
474,-180.000000,-3120.000000
475,-180.000000,-3080.000000
476,-180.000000,-3120.000000
477,-180.000000,-3080.000000
478,-52.000000,-3080.000000
479,72.000000,-3080.000000
480,152.000000,-3080.000000
481,180.000000,-3080.000000
482,196.000000,-3080.000000
483,184.000000,-3080.000000
484,52.000000,-3080.000000
485,-28.000000,-3080.000000
486,-88.000000,-3080.000000
487,-116.000000,-3080.000000
488,-140.000000,-3080.000000
489,-156.000000,-3080.000000
490,-164.000000,-3080.000000
491,-168.000000,-3080.000000
492,-172.000000,-3080.000000
493,-176.000000,-3080.000000
494,-172.000000,-3080.000000
495,-176.000000,-3040.000000
496,-180.000000,-3080.000000
497,-176.000000,-3080.000000
498,-180.000000,-3080.000000
499,-176.000000,-3080.000000
500,-180.000000,-3080.000000
501,-176.000000,-3080.000000
502,-176.000000,-3080.000000
503,-180.000000,-3080.000000
504,-176.000000,-3080.000000
505,-180.000000,-3080.000000
506,-184.000000,-3080.000000
507,-180.000000,-3080.000000
508,-180.000000,-3080.000000
509,-180.000000,-3120.000000
510,-176.000000,-3080.000000
511,-176.000000,-3080.000000
512,-180.000000,-3080.000000
513,-176.000000,-3080.000000
514,-176.000000,-3080.000000
515,-180.000000,-3080.000000
516,-180.000000,-3040.000000
517,-180.000000,-3080.000000
518,-176.000000,-3080.000000
519,-180.000000,-3080.000000
520,-180.000000,-3080.000000
521,-180.000000,-3080.000000
522,-176.000000,-3080.000000
523,-180.000000,-3080.000000
524,-176.000000,-3080.000000
525,-180.000000,-3080.000000
526,-180.000000,-3080.000000
527,-184.000000,-3080.000000
528,-180.000000,-3080.000000
529,-184.000000,-3080.000000
530,-180.000000,-3080.000000
531,-172.000000,-3080.000000
532,-180.000000,-3080.000000
533,-180.000000,-3080.000000
534,-180.000000,-3080.000000
535,-184.000000,-3080.000000
536,-180.000000,-3080.000000
537,-180.000000,-3080.000000
538,-180.000000,-3080.000000
539,-184.000000,-3080.000000
540,-180.000000,-3080.000000
541,-180.000000,-3080.000000
542,-184.000000,-3080.000000
543,-180.000000,-3080.000000
544,-180.000000,-3080.000000
545,-180.000000,-3080.000000
546,-180.000000,-3080.000000
547,-176.000000,-3080.000000
548,-180.000000,-3080.000000
549,-180.000000,-3080.000000
550,-180.000000,-3080.000000
551,-180.000000,-3080.000000
552,-180.000000,-3080.000000
553,-176.000000,-3080.000000
554,-172.000000,-3080.000000
555,-180.000000,-3080.000000
556,-180.000000,-3080.000000
557,-184.000000,-3040.000000
558,-180.000000,-3080.000000
559,-176.000000,-3080.000000
560,-176.000000,-3080.000000
561,-180.000000,-3040.000000
562,-180.000000,-3080.000000
563,-180.000000,-3080.000000
564,-180.000000,-3120.000000
565,-176.000000,-3120.000000
566,-180.000000,-3080.000000
567,-176.000000,-3080.000000
568,-180.000000,-3080.000000
569,-180.000000,-3080.000000
570,-176.000000,-3080.000000
571,-176.000000,-3080.000000
572,-180.000000,-3080.000000
573,-176.000000,-3120.000000
574,-180.000000,-3080.000000
575,-184.000000,-3120.000000
576,-180.000000,-3080.000000
577,-180.000000,-3080.000000
578,-180.000000,-3080.000000
579,-184.000000,-3080.000000
580,-180.000000,-3080.000000
581,-180.000000,-3080.000000
582,-180.000000,-3080.000000
583,-180.000000,-3080.000000
584,-176.000000,-3080.000000
585,-180.000000,-3080.000000
586,-180.000000,-3080.000000
587,-180.000000,-3080.000000
588,-180.000000,-3080.000000
589,-180.000000,-3080.000000
590,-180.000000,-3080.000000
591,-180.000000,-3080.000000
592,-180.000000,-3080.000000
593,-176.000000,-3080.000000
594,-180.000000,-3080.000000
595,-180.000000,-3080.000000
596,-180.000000,-3080.000000
597,-184.000000,-3080.000000
598,-180.000000,-3080.000000
599,-176.000000,-3080.000000
600,-180.000000,-3080.000000
601,-184.000000,-3080.000000
602,-180.000000,-3080.000000
603,-112.000000,-3080.000000
604,20.000000,-3080.000000
605,128.000000,-3080.000000
606,176.000000,-3080.000000
607,196.000000,-3080.000000
608,192.000000,-3120.000000
609,96.000000,-3080.000000
610,-4.000000,-3080.000000
611,-68.000000,-3080.000000
612,-108.000000,-3080.000000
613,-132.000000,-3080.000000
614,-152.000000,-3080.000000
615,-160.000000,-3080.000000
616,-164.000000,-3080.000000
617,-172.000000,-3080.000000
618,-172.000000,-3120.000000
619,-172.000000,-3080.000000
620,-180.000000,-3080.000000
621,-176.000000,-3080.000000
622,-180.000000,-3080.000000
623,-176.000000,-3080.000000
624,-180.000000,-3080.000000
625,-180.000000,-3080.000000
626,-184.000000,-3080.000000
627,-184.000000,-3120.000000
628,-184.000000,-3080.000000
629,-172.000000,-3080.000000
630,-180.000000,-3120.000000
631,-180.000000,-3080.000000
632,-176.000000,-3080.000000
633,-184.000000,-3080.000000
634,-176.000000,-3080.000000
635,-180.000000,-3080.000000
636,-180.000000,-3080.000000
637,-176.000000,-3080.000000
638,-184.000000,-3080.000000
639,-176.000000,-3080.000000
640,-176.000000,-3080.000000
641,-180.000000,-3080.000000
642,-184.000000,-3080.000000
643,-176.000000,-3080.000000
644,-176.000000,-3080.000000
645,-180.000000,-3080.000000
646,-180.000000,-3080.000000
647,-180.000000,-3080.000000
648,-176.000000,-3080.000000
649,-180.000000,-3080.000000
650,-184.000000,-3080.000000
651,-180.000000,-3080.000000
652,-176.000000,-3080.000000
653,-176.000000,-3120.000000
654,-184.000000,-3080.000000
655,-188.000000,-3080.000000
656,-184.000000,-3080.000000
657,-180.000000,-3080.000000
658,-180.000000,-3080.000000
659,-176.000000,-3080.000000
660,-180.000000,-3080.000000
661,-180.000000,-3080.000000
662,-180.000000,-3080.000000
663,-180.000000,-3080.000000
664,-180.000000,-3120.000000
665,-180.000000,-3080.000000
666,-176.000000,-3080.000000
667,-180.000000,-3080.000000
668,-176.000000,-3080.000000
669,-176.000000,-3080.000000
670,-176.000000,-3120.000000
671,-180.000000,-3080.000000
672,-176.000000,-3080.000000
673,-180.000000,-3080.000000
674,-180.000000,-3080.000000
675,-176.000000,-3080.000000
676,-176.000000,-3080.000000
677,-184.000000,-3080.000000
678,-184.000000,-3080.000000
679,-180.000000,-3080.000000
680,-180.000000,-3080.000000
681,-180.000000,-3080.000000
682,-176.000000,-3080.000000
683,-176.000000,-3080.000000
684,-180.000000,-3080.000000
685,-180.000000,-3080.000000
