repport_data/power_measurements_V2/data_27_009.csv

Channel              :,CH1,CH2
Frequency            :,  ?,  ?
Period               :,  ?,  ?
PK-PK                :,468.0mV,80.00mV
Probe attenuation    :,1X,1X
Voltage per ADC value:,0.250000mV,2.500000mV
Time interval        :,200.00000uS,200.00000uS

index,CH1_Voltage(mV),CH2_Voltage(mV)
1,-176.000000,-3080.000000
2,-176.000000,-3080.000000
3,-176.000000,-3080.000000
4,-184.000000,-3080.000000
5,-180.000000,-3080.000000
6,-180.000000,-3080.000000
7,-184.000000,-3080.000000
8,-176.000000,-3040.000000
9,-184.000000,-3080.000000
10,-180.000000,-3080.000000
11,-180.000000,-3040.000000
12,-184.000000,-3040.000000
13,-176.000000,-3080.000000
14,-176.000000,-3080.000000
15,-180.000000,-3080.000000
16,-176.000000,-3080.000000
17,-180.000000,-3080.000000
18,-176.000000,-3080.000000
19,-180.000000,-3080.000000
20,-180.000000,-3080.000000
21,-180.000000,-3040.000000
22,-176.000000,-3080.000000
23,-176.000000,-3080.000000
24,-176.000000,-3080.000000
25,-176.000000,-3080.000000
26,-180.000000,-3040.000000
27,-176.000000,-3080.000000
28,-176.000000,-3080.000000
29,-184.000000,-3040.000000
30,-180.000000,-3080.000000
31,-184.000000,-3040.000000
32,-176.000000,-3080.000000
33,-176.000000,-3080.000000
34,-180.000000,-3080.000000
35,-180.000000,-3120.000000
36,-176.000000,-3080.000000
37,-176.000000,-3080.000000
38,-180.000000,-3080.000000
39,-176.000000,-3080.000000
40,-180.000000,-3080.000000
41,-180.000000,-3080.000000
42,-180.000000,-3080.000000
43,-180.000000,-3040.000000
44,-180.000000,-3080.000000
45,-180.000000,-3080.000000
46,-180.000000,-3080.000000
47,-180.000000,-3080.000000
48,-180.000000,-3080.000000
49,-176.000000,-3080.000000
50,-180.000000,-3080.000000
51,-180.000000,-3040.000000
52,-180.000000,-3080.000000
53,-180.000000,-3080.000000
54,-180.000000,-3080.000000
55,-188.000000,-3080.000000
56,-176.000000,-3080.000000
57,-180.000000,-3120.000000
58,-180.000000,-3080.000000
59,-180.000000,-3080.000000
60,-184.000000,-3040.000000
61,-180.000000,-3080.000000
62,-180.000000,-3080.000000
63,-180.000000,-3080.000000
64,-184.000000,-3080.000000
65,-184.000000,-3080.000000
66,-180.000000,-3080.000000
67,-180.000000,-3040.000000
68,-176.000000,-3080.000000
69,-156.000000,-3080.000000
70,-80.000000,-3040.000000
71,-16.000000,-3080.000000
72,44.000000,-3040.000000
73,88.000000,-3080.000000
74,136.000000,-3040.000000
75,164.000000,-3080.000000
76,180.000000,-3080.000000
77,184.000000,-3080.000000
78,192.000000,-3080.000000
79,200.000000,-3080.000000
80,188.000000,-3080.000000
81,144.000000,-3080.000000
82,76.000000,-3080.000000
83,28.000000,-3080.000000
84,-16.000000,-3040.000000
85,-52.000000,-3080.000000
86,-72.000000,-3080.000000
87,-96.000000,-3080.000000
88,-112.000000,-3080.000000
89,-124.000000,-3040.000000
90,-136.000000,-3080.000000
91,-148.000000,-3080.000000
92,-152.000000,-3080.000000
93,-160.000000,-3080.000000
94,-164.000000,-3080.000000
95,-164.000000,-3080.000000
96,-168.000000,-3080.000000
97,-168.000000,-3080.000000
98,-172.000000,-3080.000000
99,-172.000000,-3120.000000
100,-176.000000,-3080.000000
101,-176.000000,-3080.000000
102,-176.000000,-3080.000000
103,-176.000000,-3080.000000
104,-176.000000,-3080.000000
105,-180.000000,-3080.000000
106,-176.000000,-3040.000000
107,-176.000000,-3080.000000
108,-184.000000,-3080.000000
109,-180.000000,-3080.000000
110,-176.000000,-3080.000000
111,-180.000000,-3080.000000
112,-180.000000,-3080.000000
113,-184.000000,-3040.000000
114,-176.000000,-3040.000000
115,-180.000000,-3080.000000
116,-180.000000,-3080.000000
117,-172.000000,-3080.000000
118,-180.000000,-3080.000000
119,-176.000000,-3080.000000
120,-180.000000,-3080.000000
121,-180.000000,-3080.000000
122,-180.000000,-3080.000000
123,-180.000000,-3080.000000
124,-180.000000,-3080.000000
125,-180.000000,-3040.000000
126,-184.000000,-3080.000000
127,-180.000000,-3080.000000
128,-176.000000,-3040.000000
129,-184.000000,-3040.000000
130,-180.000000,-3080.000000
131,-184.000000,-3080.000000
132,-176.000000,-3080.000000
133,-176.000000,-3080.000000
134,-176.000000,-3080.000000
135,-176.000000,-3080.000000
136,-184.000000,-3080.000000
137,-176.000000,-3080.000000
138,-176.000000,-3080.000000
139,-180.000000,-3080.000000
140,-184.000000,-3040.000000
141,-180.000000,-3080.000000
142,-180.000000,-3080.000000
143,-180.000000,-3080.000000
144,-176.000000,-3080.000000
145,-176.000000,-3080.000000
146,-184.000000,-3080.000000
147,-176.000000,-3040.000000
148,-176.000000,-3080.000000
149,-180.000000,-3080.000000
150,-180.000000,-3080.000000
151,-184.000000,-3080.000000
152,-180.000000,-3080.000000
153,-184.000000,-3080.000000
154,-184.000000,-3080.000000
155,-176.000000,-3080.000000
156,-180.000000,-3040.000000
157,-180.000000,-3080.000000
158,-176.000000,-3080.000000
159,-180.000000,-3040.000000
160,-180.000000,-3080.000000
161,-180.000000,-3080.000000
162,-176.000000,-3040.000000
163,-168.000000,-3080.000000
164,-180.000000,-3080.000000
165,-176.000000,-3080.000000
166,-180.000000,-3040.000000
167,-180.000000,-3080.000000
168,-180.000000,-3080.000000
169,-180.000000,-3080.000000
170,-180.000000,-3080.000000
171,-180.000000,-3080.000000
172,-180.000000,-3080.000000
173,-180.000000,-3080.000000
174,-180.000000,-3080.000000
175,-180.000000,-3080.000000
176,-180.000000,-3080.000000
177,-180.000000,-3080.000000
178,-176.000000,-3040.000000
179,-180.000000,-3040.000000
180,-180.000000,-3080.000000
181,-180.000000,-3080.000000
182,-180.000000,-3080.000000
183,-180.000000,-3080.000000
184,-180.000000,-3080.000000
185,-180.000000,-3080.000000
186,-184.000000,-3080.000000
187,-184.000000,-3080.000000
188,-184.000000,-3040.000000
189,-180.000000,-3080.000000
190,-180.000000,-3080.000000
191,-180.000000,-3080.000000
192,-180.000000,-3040.000000
193,-176.000000,-3080.000000
194,-180.000000,-3080.000000
195,-180.000000,-3040.000000
196,-180.000000,-3080.000000
197,-180.000000,-3040.000000
198,-180.000000,-3040.000000
199,-180.000000,-3080.000000
200,-180.000000,-3080.000000
201,-176.000000,-3080.000000
202,-180.000000,-3080.000000
203,-180.000000,-3080.000000
204,-180.000000,-3080.000000
205,-180.000000,-3040.000000
206,-180.000000,-3080.000000
207,-184.000000,-3040.000000
208,-180.000000,-3080.000000
209,-180.000000,-3080.000000
210,-180.000000,-3080.000000
211,-176.000000,-3080.000000
212,-180.000000,-3080.000000
213,-176.000000,-3080.000000
214,-176.000000,-3080.000000
215,-180.000000,-3080.000000
216,-176.000000,-3080.000000
217,-180.000000,-3040.000000
218,-176.000000,-3080.000000
219,-176.000000,-3080.000000
220,-180.000000,-3120.000000
221,-180.000000,-3040.000000
222,-180.000000,-3040.000000
223,-180.000000,-3080.000000
224,-176.000000,-3080.000000
225,-176.000000,-3080.000000
226,-180.000000,-3080.000000
227,-180.000000,-3080.000000
228,-180.000000,-3080.000000
229,-176.000000,-3040.000000
230,-180.000000,-3080.000000
231,-176.000000,-3080.000000
232,-184.000000,-3080.000000
233,-180.000000,-3080.000000
234,-176.000000,-3080.000000
235,-176.000000,-3080.000000
236,-180.000000,-3080.000000
237,-180.000000,-3080.000000
238,-180.000000,-3080.000000
239,-172.000000,-3080.000000
240,-180.000000,-3080.000000
241,-176.000000,-3080.000000
242,-180.000000,-3080.000000
243,-176.000000,-3080.000000
244,-180.000000,-3040.000000
245,-180.000000,-3080.000000
246,-176.000000,-3040.000000
247,-180.000000,-3080.000000
248,-176.000000,-3080.000000
249,-176.000000,-3080.000000
250,-172.000000,-3080.000000
251,-172.000000,-3080.000000
252,-180.000000,-3040.000000
253,-176.000000,-3080.000000
254,-180.000000,-3080.000000
255,-184.000000,-3080.000000
256,-176.000000,-3040.000000
257,-176.000000,-3080.000000
258,-180.000000,-3040.000000
259,-176.000000,-3080.000000
260,-180.000000,-3080.000000
261,-184.000000,-3080.000000
262,-176.000000,-3040.000000
263,-180.000000,-3080.000000
264,-172.000000,-3040.000000
265,-180.000000,-3080.000000
266,-180.000000,-3080.000000
267,-180.000000,-3080.000000
268,-184.000000,-3080.000000
269,-176.000000,-3080.000000
270,-180.000000,-3080.000000
271,-180.000000,-3080.000000
272,-184.000000,-3080.000000
273,-180.000000,-3080.000000
274,-180.000000,-3080.000000
275,-180.000000,-3040.000000
276,-176.000000,-3080.000000
277,-180.000000,-3040.000000
278,-180.000000,-3040.000000
279,-180.000000,-3080.000000
280,-180.000000,-3080.000000
281,-180.000000,-3080.000000
282,-180.000000,-3040.000000
283,-176.000000,-3080.000000
284,-180.000000,-3080.000000
285,-180.000000,-3080.000000
286,-180.000000,-3080.000000
287,-180.000000,-3080.000000
288,-176.000000,-3080.000000
289,-176.000000,-3080.000000
290,-180.000000,-3080.000000
291,-180.000000,-3080.000000
292,-180.000000,-3080.000000
293,-180.000000,-3040.000000
294,-180.000000,-3040.000000
295,-176.000000,-3040.000000
296,-180.000000,-3040.000000
297,-180.000000,-3040.000000
298,-180.000000,-3080.000000
299,-180.000000,-3080.000000
300,-184.000000,-3080.000000
301,-180.000000,-3040.000000
302,-180.000000,-3080.000000
303,-180.000000,-3080.000000
304,-176.000000,-3080.000000
305,-180.000000,-3080.000000
306,-184.000000,-3080.000000
307,-180.000000,-3080.000000
308,-180.000000,-3080.000000
309,-180.000000,-3080.000000
310,-180.000000,-3080.000000
311,-180.000000,-3080.000000
312,-176.000000,-3080.000000
313,-180.000000,-3080.000000
314,-180.000000,-3080.000000
315,-176.000000,-3080.000000
316,-180.000000,-3080.000000
317,-180.000000,-3120.000000
318,-176.000000,-3080.000000
319,-180.000000,-3120.000000
320,-144.000000,-3080.000000
321,-68.000000,-3040.000000
322,-8.000000,-3040.000000
323,52.000000,-3080.000000
324,96.000000,-3080.000000
325,144.000000,-3080.000000
326,168.000000,-3080.000000
327,176.000000,-3080.000000
328,184.000000,-3080.000000
329,188.000000,-3080.000000
330,196.000000,-3080.000000
331,184.000000,-3080.000000
332,136.000000,-3040.000000
333,72.000000,-3080.000000
334,20.000000,-3080.000000
335,-20.000000,-3080.000000
336,-52.000000,-3080.000000
337,-76.000000,-3080.000000
338,-96.000000,-3080.000000
339,-112.000000,-3080.000000
340,-128.000000,-3040.000000
341,-136.000000,-3080.000000
342,-148.000000,-3040.000000
343,-152.000000,-3080.000000
344,-156.000000,-3080.000000
345,-160.000000,-3080.000000
346,-168.000000,-3040.000000
347,-168.000000,-3040.000000
348,-172.000000,-3080.000000
349,-176.000000,-3080.000000
350,-172.000000,-3040.000000
351,-176.000000,-3080.000000
352,-180.000000,-3040.000000
353,-172.000000,-3080.000000
354,-180.000000,-3080.000000
355,-180.000000,-3080.000000
356,-176.000000,-3040.000000
357,-176.000000,-3040.000000
358,-176.000000,-3080.000000
359,-180.000000,-3040.000000
360,-180.000000,-3080.000000
361,-176.000000,-3080.000000
362,-180.000000,-3080.000000
363,-180.000000,-3080.000000
364,-180.000000,-3080.000000
365,-176.000000,-3040.000000
366,-176.000000,-3080.000000
367,-180.000000,-3080.000000
368,-180.000000,-3040.000000
369,-180.000000,-3080.000000
370,-180.000000,-3080.000000
371,-180.000000,-3040.000000
372,-180.000000,-3080.000000
373,-180.000000,-3080.000000
374,-180.000000,-3040.000000
375,-180.000000,-3080.000000
376,-176.000000,-3040.000000
377,-176.000000,-3080.000000
378,-180.000000,-3080.000000
379,-180.000000,-3040.000000
380,-180.000000,-3080.000000
381,-184.000000,-3080.000000
382,-180.000000,-3080.000000
383,-180.000000,-3080.000000
384,-180.000000,-3040.000000
385,-176.000000,-3080.000000
386,-180.000000,-3040.000000
387,-180.000000,-3080.000000
388,-180.000000,-3080.000000
389,-180.000000,-3040.000000
390,-180.000000,-3080.000000
391,-180.000000,-3080.000000
392,-184.000000,-3080.000000
393,-176.000000,-3080.000000
394,-176.000000,-3080.000000
395,-176.000000,-3080.000000
396,-180.000000,-3080.000000
397,-180.000000,-3080.000000
398,-176.000000,-3080.000000
399,-180.000000,-3080.000000
400,-180.000000,-3080.000000
401,-180.000000,-3080.000000
402,-180.000000,-3080.000000
403,-176.000000,-3080.000000
404,-176.000000,-3040.000000
405,-180.000000,-3040.000000
406,-176.000000,-3080.000000
407,-184.000000,-3080.000000
408,-180.000000,-3080.000000
409,-176.000000,-3080.000000
410,-184.000000,-3040.000000
411,-180.000000,-3080.000000
412,-180.000000,-3040.000000
413,-180.000000,-3080.000000
414,-176.000000,-3080.000000
415,-184.000000,-3080.000000
416,-176.000000,-3080.000000
417,-180.000000,-3080.000000
418,-176.000000,-3080.000000
419,-180.000000,-3080.000000
420,-176.000000,-3080.000000
421,-180.000000,-3080.000000
422,-184.000000,-3080.000000
423,-176.000000,-3080.000000
424,-180.000000,-3040.000000
425,-176.000000,-3040.000000
426,-176.000000,-3080.000000
427,-180.000000,-3080.000000
428,-180.000000,-3080.000000
429,-180.000000,-3080.000000
430,-180.000000,-3080.000000
431,-176.000000,-3080.000000
432,-184.000000,-3040.000000
433,-180.000000,-3080.000000
434,-180.000000,-3080.000000
435,-180.000000,-3080.000000
436,-176.000000,-3080.000000
437,-180.000000,-3080.000000
438,-180.000000,-3080.000000
439,-176.000000,-3080.000000
440,-180.000000,-3080.000000
441,-180.000000,-3080.000000
442,-180.000000,-3080.000000
443,-180.000000,-3080.000000
444,-180.000000,-3080.000000
445,-180.000000,-3040.000000
446,-176.000000,-3080.000000
447,-180.000000,-3080.000000
448,-176.000000,-3080.000000
449,-176.000000,-3080.000000
450,-176.000000,-3040.000000
451,-180.000000,-3080.000000
452,-180.000000,-3080.000000
453,-180.000000,-3040.000000
454,-180.000000,-3080.000000
455,-180.000000,-3080.000000
456,-176.000000,-3080.000000
457,-180.000000,-3080.000000
458,-180.000000,-3080.000000
459,-180.000000,-3080.000000
460,-180.000000,-3080.000000
461,-180.000000,-3080.000000
462,-172.000000,-3080.000000
463,-184.000000,-3080.000000
464,-180.000000,-3080.000000
465,-180.000000,-3080.000000
466,-184.000000,-3080.000000
467,-180.000000,-3080.000000
468,-184.000000,-3080.000000
469,-176.000000,-3080.000000
470,-180.000000,-3080.000000
471,-184.000000,-3080.000000
472,-180.000000,-3080.000000
473,-180.000000,-3040.000000
474,-180.000000,-3080.000000
475,-184.000000,-3040.000000
476,-180.000000,-3040.000000
477,-180.000000,-3080.000000
478,-180.000000,-3080.000000
479,-180.000000,-3080.000000
480,-176.000000,-3080.000000
481,-180.000000,-3040.000000
482,-180.000000,-3040.000000
483,-180.000000,-3080.000000
484,-176.000000,-3080.000000
485,-180.000000,-3080.000000
486,-180.000000,-3080.000000
487,-180.000000,-3080.000000
488,-176.000000,-3080.000000
489,-180.000000,-3080.000000
490,-184.000000,-3080.000000
491,-180.000000,-3080.000000
492,-180.000000,-3040.000000
493,-180.000000,-3080.000000
494,-176.000000,-3080.000000
495,-176.000000,-3080.000000
496,-184.000000,-3040.000000
497,-180.000000,-3080.000000
498,-184.000000,-3080.000000
499,-180.000000,-3080.000000
500,-180.000000,-3080.000000
501,-180.000000,-3080.000000
502,-180.000000,-3080.000000
503,-180.000000,-3080.000000
504,-180.000000,-3080.000000
505,-176.000000,-3080.000000
506,-180.000000,-3080.000000
507,-180.000000,-3080.000000
508,-172.000000,-3040.000000
509,-180.000000,-3080.000000
510,-176.000000,-3080.000000
511,-180.000000,-3040.000000
512,-184.000000,-3040.000000
513,-172.000000,-3080.000000
514,-184.000000,-3080.000000
515,-180.000000,-3080.000000
516,-184.000000,-3080.000000
517,-180.000000,-3040.000000
518,-176.000000,-3080.000000
519,-180.000000,-3080.000000
520,-180.000000,-3080.000000
521,-180.000000,-3040.000000
522,-180.000000,-3080.000000
523,-176.000000,-3080.000000
524,-180.000000,-3080.000000
525,-176.000000,-3080.000000
526,-176.000000,-3080.000000
527,-180.000000,-3080.000000
528,-180.000000,-3080.000000
529,-180.000000,-3080.000000
530,-176.000000,-3080.000000
531,-180.000000,-3040.000000
532,-176.000000,-3080.000000
533,-176.000000,-3080.000000
534,-180.000000,-3080.000000
535,-180.000000,-3080.000000
536,-176.000000,-3040.000000
537,-180.000000,-3080.000000
538,-180.000000,-3080.000000
539,-180.000000,-3080.000000
540,-176.000000,-3040.000000
541,-180.000000,-3080.000000
542,-176.000000,-3080.000000
543,-180.000000,-3080.000000
544,-180.000000,-3040.000000
545,-180.000000,-3080.000000
546,-180.000000,-3080.000000
547,-180.000000,-3080.000000
548,-180.000000,-3080.000000
549,-180.000000,-3080.000000
550,-180.000000,-3080.000000
551,-176.000000,-3080.000000
552,-180.000000,-3040.000000
553,-176.000000,-3080.000000
554,-180.000000,-3080.000000
555,-176.000000,-3080.000000
556,-180.000000,-3040.000000
557,-180.000000,-3080.000000
558,-180.000000,-3080.000000
559,-180.000000,-3080.000000
560,-180.000000,-3040.000000
561,-180.000000,-3080.000000
562,-176.000000,-3080.000000
563,-180.000000,-3080.000000
564,-180.000000,-3040.000000
565,-180.000000,-3080.000000
566,-180.000000,-3080.000000
567,-176.000000,-3080.000000
568,-176.000000,-3080.000000
569,-180.000000,-3080.000000
570,-180.000000,-3080.000000
571,-128.000000,-3040.000000
572,-64.000000,-3080.000000
573,0.000000,-3120.000000
574,60.000000,-3080.000000
575,100.000000,-3080.000000
576,144.000000,-3080.000000
577,176.000000,-3040.000000
578,180.000000,-3080.000000
579,188.000000,-3080.000000
580,196.000000,-3040.000000
581,192.000000,-3120.000000
582,180.000000,-3080.000000
583,124.000000,-3040.000000
584,60.000000,-3080.000000
585,12.000000,-3080.000000
586,-28.000000,-3080.000000
587,-56.000000,-3080.000000
588,-80.000000,-3080.000000
589,-104.000000,-3080.000000
590,-116.000000,-3040.000000
591,-128.000000,-3080.000000
592,-140.000000,-3080.000000
593,-148.000000,-3080.000000
594,-156.000000,-3080.000000
595,-160.000000,-3080.000000
596,-164.000000,-3080.000000
597,-168.000000,-3040.000000
598,-168.000000,-3080.000000
599,-172.000000,-3080.000000
600,-176.000000,-3080.000000
601,-176.000000,-3080.000000
602,-176.000000,-3040.000000
603,-180.000000,-3080.000000
604,-176.000000,-3040.000000
605,-180.000000,-3080.000000
606,-176.000000,-3080.000000
607,-176.000000,-3080.000000
608,-180.000000,-3080.000000
609,-172.000000,-3080.000000
610,-180.000000,-3040.000000
611,-184.000000,-3080.000000
612,-176.000000,-3080.000000
613,-184.000000,-3040.000000
614,-172.000000,-3080.000000
615,-176.000000,-3080.000000
616,-180.000000,-3040.000000
617,-180.000000,-3080.000000
618,-180.000000,-3080.000000
619,-176.000000,-3040.000000
620,-180.000000,-3080.000000
621,-180.000000,-3080.000000
622,-180.000000,-3080.000000
623,-180.000000,-3080.000000
624,-180.000000,-3080.000000
625,-180.000000,-3080.000000
626,-176.000000,-3040.000000
627,-176.000000,-3040.000000
628,-180.000000,-3040.000000
629,-176.000000,-3080.000000
630,-180.000000,-3080.000000
631,-180.000000,-3080.000000
632,-180.000000,-3080.000000
633,-176.000000,-3120.000000
634,-176.000000,-3080.000000
635,-180.000000,-3080.000000
636,-180.000000,-3080.000000
637,-180.000000,-3040.000000
638,-180.000000,-3040.000000
639,-176.000000,-3080.000000
640,-180.000000,-3080.000000
641,-180.000000,-3080.000000
642,-180.000000,-3080.000000
643,-180.000000,-3080.000000
644,-180.000000,-3080.000000
645,-180.000000,-3080.000000
646,-176.000000,-3080.000000
647,-180.000000,-3080.000000
648,-180.000000,-3080.000000
649,-176.000000,-3080.000000
650,-180.000000,-3080.000000
651,-180.000000,-3080.000000
652,-180.000000,-3080.000000
653,-180.000000,-3080.000000
654,-176.000000,-3040.000000
655,-172.000000,-3080.000000
656,-184.000000,-3080.000000
657,-176.000000,-3080.000000
658,-180.000000,-3080.000000
659,-184.000000,-3040.000000
660,-172.000000,-3080.000000
661,-180.000000,-3080.000000
662,-180.000000,-3080.000000
663,-180.000000,-3080.000000
664,-184.000000,-3080.000000
665,-176.000000,-3080.000000
666,-176.000000,-3080.000000
667,-180.000000,-3080.000000
668,-180.000000,-3040.000000
669,-180.000000,-3080.000000
670,-180.000000,-3080.000000
671,-180.000000,-3040.000000
672,-180.000000,-3080.000000
673,-180.000000,-3080.000000
674,-180.000000,-3080.000000
675,-180.000000,-3080.000000
676,-180.000000,-3080.000000
677,-180.000000,-3080.000000
678,-176.000000,-3080.000000
679,-180.000000,-3080.000000
680,-180.000000,-3040.000000
681,-180.000000,-3080.000000
682,-180.000000,-3080.000000
683,-184.000000,-3080.000000
684,-176.000000,-3080.000000
685,-176.000000,-3080.000000
