repport_data/power_measurements_V2/data_27_010.csv

Channel              :,CH1,CH2
Frequency            :,  ?,  ?
Period               :,  ?,  ?
PK-PK                :,776.0mV?,3.440V
Probe attenuation    :,1X,1X
Voltage per ADC value:,0.250000mV,2.500000mV
Time interval        :,2000.00000uS,2000.00000uS

index,CH1_Voltage(mV),CH2_Voltage(mV)
1,-180.000000,-3080.000000
2,-180.000000,-3080.000000
3,-180.000000,-3080.000000
4,-12.000000,-3080.000000
5,128.000000,-3120.000000
6,-144.000000,-3120.000000
7,-176.000000,-3080.000000
8,-176.000000,-3080.000000
9,-180.000000,-3120.000000
10,-180.000000,-3080.000000
11,-180.000000,-3080.000000
12,-180.000000,-3080.000000
13,-180.000000,-3080.000000
14,-180.000000,-3080.000000
15,-176.000000,-3080.000000
16,-184.000000,-3080.000000
17,-180.000000,-3080.000000
18,-180.000000,-3080.000000
19,-180.000000,-3080.000000
20,-172.000000,-3120.000000
21,-180.000000,-3080.000000
22,-180.000000,-3120.000000
23,-176.000000,-3080.000000
24,-180.000000,-3080.000000
25,-176.000000,-3120.000000
26,-184.000000,-3080.000000
27,-180.000000,-3080.000000
28,-180.000000,-3080.000000
29,-64.000000,-3120.000000
30,184.000000,-3080.000000
31,-140.000000,-3080.000000
32,-180.000000,-3080.000000
33,-184.000000,-3080.000000
34,-180.000000,-3080.000000
35,-180.000000,-3080.000000
36,-184.000000,-3080.000000
37,-180.000000,-3080.000000
38,-180.000000,-3080.000000
39,-180.000000,-3080.000000
40,-180.000000,-3080.000000
41,-188.000000,-3080.000000
42,-180.000000,-3120.000000
43,-184.000000,-3080.000000
44,-176.000000,-3080.000000
45,-184.000000,-3080.000000
46,-176.000000,-3080.000000
47,-184.000000,-3080.000000
48,-180.000000,-3120.000000
49,-180.000000,-3080.000000
50,-176.000000,-3080.000000
51,-180.000000,-3080.000000
52,-176.000000,-3080.000000
53,-184.000000,-3120.000000
54,-128.000000,-3080.000000
55,192.000000,-3080.000000
56,-132.000000,-3080.000000
57,-176.000000,-3120.000000
58,-184.000000,-3080.000000
59,-180.000000,-3080.000000
60,-180.000000,-3080.000000
61,-176.000000,-3080.000000
62,-180.000000,-3080.000000
63,-180.000000,-3080.000000
64,-176.000000,-3080.000000
65,-188.000000,-3080.000000
66,-180.000000,-3080.000000
67,-180.000000,-3080.000000
68,-180.000000,-3080.000000
69,-184.000000,-3120.000000
70,-180.000000,-3080.000000
71,-184.000000,-3080.000000
72,-180.000000,-3080.000000
73,-180.000000,-3120.000000
74,-180.000000,-3120.000000
75,-180.000000,-3080.000000
76,-180.000000,-3080.000000
77,-184.000000,-3120.000000
78,-184.000000,-3120.000000
79,-180.000000,-3080.000000
80,196.000000,-3080.000000
81,-120.000000,-3080.000000
82,-168.000000,-3080.000000
83,-180.000000,-3120.000000
84,-176.000000,-3080.000000
85,-184.000000,-3080.000000
86,-180.000000,-3080.000000
87,-180.000000,-3120.000000
88,-180.000000,-3080.000000
89,-180.000000,-3120.000000
90,-180.000000,-3080.000000
91,-184.000000,-3080.000000
92,-180.000000,-3080.000000
93,-180.000000,-3120.000000
94,-184.000000,-3120.000000
95,-176.000000,-3080.000000
96,-184.000000,-3120.000000
97,-180.000000,-3080.000000
98,-180.000000,-3080.000000
99,-176.000000,-3120.000000
100,-180.000000,-3080.000000
101,-180.000000,-3080.000000
102,-184.000000,-3080.000000
103,-184.000000,-3080.000000
104,-180.000000,-3080.000000
105,188.000000,-3080.000000
106,-100.000000,-3080.000000
107,-172.000000,-3080.000000
108,-180.000000,-3080.000000
109,-180.000000,-3080.000000
110,-176.000000,-3080.000000
111,-180.000000,-3080.000000
112,-180.000000,-3080.000000
113,-180.000000,-3120.000000
114,-176.000000,-3080.000000
115,-180.000000,-3080.000000
116,-176.000000,-3080.000000
117,-180.000000,-3120.000000
118,-176.000000,-3080.000000
119,-180.000000,-3080.000000
120,-176.000000,-3080.000000
121,-180.000000,-3080.000000
122,-180.000000,-3080.000000
123,-180.000000,-3120.000000
124,-180.000000,-3080.000000
125,-180.000000,-3080.000000
126,-184.000000,-3080.000000
127,-176.000000,-3120.000000
128,-180.000000,-3080.000000
129,-180.000000,-3080.000000
130,188.000000,-3080.000000
131,-92.000000,-3080.000000
132,-168.000000,-3080.000000
133,-184.000000,-3080.000000
134,-184.000000,-3080.000000
135,-180.000000,-3120.000000
136,-176.000000,-3080.000000
137,-184.000000,-3120.000000
138,-180.000000,-3080.000000
139,-176.000000,-3080.000000
140,-180.000000,-3080.000000
141,-180.000000,-3080.000000
142,-180.000000,-3080.000000
143,-180.000000,-3080.000000
144,-180.000000,-3080.000000
145,-188.000000,-3080.000000
146,-180.000000,-3080.000000
147,-176.000000,-3080.000000
148,-180.000000,-3120.000000
149,-180.000000,-3080.000000
150,-176.000000,-3080.000000
151,-180.000000,-3080.000000
152,-180.000000,-3080.000000
153,-176.000000,-3120.000000
154,-180.000000,-3080.000000
155,184.000000,-3080.000000
156,-68.000000,-3120.000000
157,-168.000000,-3080.000000
158,-176.000000,-3120.000000
159,-176.000000,-3080.000000
160,-180.000000,-3080.000000
161,-180.000000,-3120.000000
162,-180.000000,-3120.000000
163,-176.000000,-3120.000000
164,-184.000000,-3080.000000
165,-180.000000,-3080.000000
166,-184.000000,-3080.000000
167,-180.000000,-3080.000000
168,-180.000000,-3080.000000
169,-180.000000,-3080.000000
170,-180.000000,-3120.000000
171,-180.000000,-3120.000000
172,-180.000000,-3080.000000
173,-180.000000,-3120.000000
174,-180.000000,-3080.000000
175,-184.000000,-3080.000000
176,-176.000000,-3120.000000
177,-180.000000,-3120.000000
178,-180.000000,-3080.000000
179,-184.000000,-3080.000000
180,156.000000,-3120.000000
181,216.000000,-3080.000000
182,248.000000,-3080.000000
183,252.000000,-3080.000000
184,260.000000,-3080.000000
185,256.000000,-3120.000000
186,260.000000,-3040.000000
187,256.000000,-3080.000000
188,256.000000,-3120.000000
189,256.000000,-3120.000000
190,256.000000,-3080.000000
191,260.000000,-3080.000000
192,252.000000,-3120.000000
193,256.000000,-3080.000000
194,252.000000,-3080.000000
195,252.000000,-3080.000000
196,252.000000,-3080.000000
197,252.000000,-3120.000000
198,256.000000,-3080.000000
199,256.000000,-3080.000000
200,256.000000,-3080.000000
201,160.000000,-3080.000000
202,164.000000,-3080.000000
203,160.000000,-3080.000000
204,164.000000,-3080.000000
205,168.000000,-3120.000000
206,160.000000,-3120.000000
207,156.000000,-3080.000000
208,156.000000,-3080.000000
209,160.000000,-3080.000000
210,160.000000,-3080.000000
211,164.000000,-3120.000000
212,164.000000,-3080.000000
213,164.000000,-3080.000000
214,164.000000,-3080.000000
215,156.000000,-3080.000000
216,152.000000,-3080.000000
217,160.000000,-3080.000000
218,156.000000,-3120.000000
219,164.000000,-3080.000000
220,164.000000,-3120.000000
221,164.000000,-3120.000000
222,164.000000,-3120.000000
223,160.000000,-3080.000000
224,156.000000,-3080.000000
225,160.000000,-3080.000000
226,160.000000,-3080.000000
227,160.000000,-3080.000000
228,160.000000,-3080.000000
229,164.000000,-3080.000000
230,164.000000,-3080.000000
231,168.000000,-3080.000000
232,156.000000,-3080.000000
233,156.000000,-3080.000000
234,160.000000,-3080.000000
235,160.000000,-3080.000000
236,164.000000,-3080.000000
237,164.000000,-3080.000000
238,164.000000,-3080.000000
239,164.000000,-3080.000000
240,164.000000,-3080.000000
241,156.000000,-3080.000000
242,152.000000,-3080.000000
243,160.000000,-3080.000000
244,164.000000,-3120.000000
245,168.000000,-3080.000000
246,164.000000,-3120.000000
247,180.000000,-3080.000000
248,180.000000,-3120.000000
249,184.000000,-3080.000000
250,176.000000,-3080.000000
251,184.000000,-3080.000000
252,184.000000,-3080.000000
253,180.000000,-3080.000000
254,-32.000000,-3080.000000
255,-164.000000,-3080.000000
256,-180.000000,-3080.000000
257,-184.000000,-3080.000000
258,-184.000000,-3080.000000
259,-180.000000,-3080.000000
260,-180.000000,-3080.000000
261,-180.000000,-3120.000000
262,-184.000000,-3080.000000
263,-180.000000,-3080.000000
264,-180.000000,-3080.000000
265,-192.000000,-3080.000000
266,-180.000000,-3040.000000
267,-184.000000,-3080.000000
268,-176.000000,-3080.000000
269,-180.000000,-3080.000000
270,-184.000000,-3080.000000
271,-184.000000,-3080.000000
272,-180.000000,-3080.000000
273,-180.000000,-3080.000000
274,-184.000000,-3080.000000
275,-180.000000,-3080.000000
276,-184.000000,-3080.000000
277,-176.000000,-3080.000000
278,-184.000000,-3080.000000
279,40.000000,-3080.000000
280,76.000000,-3080.000000
281,-144.000000,-3080.000000
282,-176.000000,-3080.000000
283,-184.000000,-3080.000000
284,-180.000000,-3080.000000
285,-184.000000,-3080.000000
286,-184.000000,-3080.000000
287,-184.000000,-3080.000000
288,-180.000000,-3080.000000
289,-180.000000,-3120.000000
290,-180.000000,-3080.000000
291,-180.000000,-3080.000000
292,-180.000000,-3080.000000
293,-176.000000,-3120.000000
294,-184.000000,-3080.000000
295,-184.000000,-3080.000000
296,-184.000000,-3120.000000
297,-180.000000,-3080.000000
298,-176.000000,-3080.000000
299,-180.000000,-3080.000000
300,-184.000000,-3080.000000
301,-184.000000,-3120.000000
302,-176.000000,-3120.000000
303,-180.000000,-3080.000000
304,-16.000000,-3080.000000
305,136.000000,-3120.000000
306,-152.000000,-3080.000000
307,-176.000000,-3080.000000
308,-180.000000,-3120.000000
309,-180.000000,-3080.000000
310,-176.000000,-3080.000000
311,-180.000000,-3120.000000
312,-180.000000,-3120.000000
313,-180.000000,-3080.000000
314,-180.000000,-3080.000000
315,-180.000000,-3080.000000
316,-172.000000,-3080.000000
317,-176.000000,-3080.000000
318,-180.000000,-3080.000000
319,-176.000000,-3080.000000
320,-184.000000,-3120.000000
321,-180.000000,-3080.000000
322,-184.000000,-3080.000000
323,-184.000000,-3080.000000
324,-180.000000,-3080.000000
325,-180.000000,-3080.000000
326,-180.000000,-3120.000000
327,-180.000000,-3080.000000
328,-180.000000,-3080.000000
329,-72.000000,-3080.000000
330,188.000000,-3080.000000
331,-132.000000,-3080.000000
332,-176.000000,-3080.000000
333,-176.000000,-3080.000000
334,-176.000000,-3080.000000
335,-180.000000,-3080.000000
336,-184.000000,-3080.000000
337,-176.000000,-3080.000000
338,-180.000000,-3080.000000
339,-180.000000,-3080.000000
340,-180.000000,-3080.000000
341,-184.000000,-3080.000000
342,-176.000000,-3080.000000
343,-180.000000,-3080.000000
344,-180.000000,-3080.000000
345,-180.000000,-3080.000000
346,-176.000000,-3080.000000
347,-184.000000,-3080.000000
348,-180.000000,-3080.000000
349,-184.000000,-3080.000000
350,-176.000000,-3080.000000
351,-184.000000,-3120.000000
352,-180.000000,-3080.000000
353,-180.000000,-3120.000000
354,-140.000000,-3080.000000
355,192.000000,-3080.000000
356,-132.000000,-3080.000000
357,-172.000000,-3080.000000
358,-180.000000,-3080.000000
359,-180.000000,-3080.000000
360,-180.000000,-3080.000000
361,-184.000000,-3120.000000
362,-180.000000,-3080.000000
363,-176.000000,-3080.000000
364,-180.000000,-3080.000000
365,-180.000000,-3080.000000
366,-172.000000,-3080.000000
367,-180.000000,-3120.000000
368,-180.000000,-3080.000000
369,-180.000000,-3080.000000
370,-180.000000,-3080.000000
371,-180.000000,-3120.000000
372,-184.000000,-3120.000000
373,-180.000000,-3080.000000
374,-184.000000,-3080.000000
375,-176.000000,-3080.000000
376,-180.000000,-3120.000000
377,-184.000000,-3080.000000
378,-184.000000,-3080.000000
379,-180.000000,-3080.000000
380,192.000000,-3080.000000
381,-120.000000,-3080.000000
382,-172.000000,-3080.000000
383,-176.000000,-3080.000000
384,-180.000000,-3080.000000
385,-180.000000,-3080.000000
386,-180.000000,-3080.000000
387,-180.000000,-3080.000000
388,-180.000000,-3080.000000
389,-180.000000,-3080.000000
390,-176.000000,-3120.000000
391,-180.000000,-3080.000000
392,-184.000000,-3080.000000
393,-180.000000,-3120.000000
394,-180.000000,-3120.000000
395,-180.000000,-3080.000000
396,-180.000000,-3080.000000
397,-176.000000,-3120.000000
398,-176.000000,-3080.000000
399,-180.000000,-3080.000000
400,-180.000000,-3120.000000
401,-176.000000,-3080.000000
402,-180.000000,-3120.000000
403,-176.000000,-3080.000000
404,-184.000000,-3080.000000
405,192.000000,-3080.000000
406,-104.000000,-3080.000000
407,-168.000000,-3080.000000
408,-180.000000,-3080.000000
409,-176.000000,-3120.000000
410,-180.000000,-3080.000000
411,-180.000000,-3080.000000
412,-184.000000,-3080.000000
413,-180.000000,-3080.000000
414,-180.000000,-3080.000000
415,-176.000000,-3080.000000
416,-180.000000,-3120.000000
417,-180.000000,-3120.000000
418,-180.000000,-3120.000000
419,-180.000000,-3080.000000
420,-180.000000,-3080.000000
421,-180.000000,-3080.000000
422,-176.000000,-3080.000000
423,-184.000000,-3080.000000
424,-184.000000,-3080.000000
425,-176.000000,-3080.000000
426,-180.000000,-3080.000000
427,-180.000000,-3080.000000
428,-180.000000,-3080.000000
429,-180.000000,-3080.000000
430,184.000000,-3080.000000
431,-80.000000,-3080.000000
432,-172.000000,-3080.000000
433,-176.000000,-3120.000000
434,-180.000000,-3080.000000
435,-180.000000,-3080.000000
436,-180.000000,-3080.000000
437,-180.000000,-3080.000000
438,-180.000000,-3080.000000
439,-180.000000,-3080.000000
440,-180.000000,-3080.000000
441,-180.000000,-3080.000000
442,-180.000000,-3080.000000
443,-184.000000,-3080.000000
444,-180.000000,-3080.000000
445,-176.000000,-3080.000000
446,-172.000000,-3080.000000
447,-184.000000,-3120.000000
448,-176.000000,-3080.000000
449,-184.000000,-3080.000000
450,-180.000000,-3080.000000
451,-176.000000,-3080.000000
452,-180.000000,-3080.000000
453,-180.000000,-3080.000000
454,-180.000000,-3080.000000
455,168.000000,-3080.000000
456,-60.000000,-3080.000000
457,-168.000000,-3080.000000
458,-176.000000,-3080.000000
459,-180.000000,-3080.000000
460,-180.000000,-3080.000000
461,-184.000000,-3080.000000
462,-180.000000,-3120.000000
463,-180.000000,-3080.000000
464,-176.000000,-3080.000000
465,-180.000000,-3120.000000
466,-176.000000,-3080.000000
467,-180.000000,-3080.000000
468,-176.000000,-3080.000000
469,-176.000000,-3080.000000
470,-180.000000,-3080.000000
471,-176.000000,-3080.000000
472,-176.000000,-3080.000000
473,-180.000000,-3080.000000
474,-180.000000,-3080.000000
475,-176.000000,-3080.000000
476,-180.000000,-3080.000000
477,-180.000000,-3120.000000
478,-176.000000,-3080.000000
479,-176.000000,-3080.000000
480,152.000000,-3080.000000
481,-32.000000,-3080.000000
482,-164.000000,-3080.000000
483,-180.000000,-3080.000000
484,-184.000000,-3080.000000
485,-180.000000,-3080.000000
486,-172.000000,-3080.000000
487,-172.000000,-3080.000000
488,-180.000000,-3080.000000
489,-180.000000,-3080.000000
490,-172.000000,-3120.000000
491,-180.000000,-3080.000000
492,-184.000000,-3080.000000
493,-180.000000,-3080.000000
494,-180.000000,-3080.000000
495,-180.000000,-3080.000000
496,-176.000000,-3080.000000
497,-180.000000,-3080.000000
498,-180.000000,-3080.000000
499,-180.000000,-3080.000000
500,-180.000000,-3080.000000
501,-180.000000,-3080.000000
502,-180.000000,-3080.000000
503,-180.000000,-3080.000000
504,-176.000000,-3080.000000
505,112.000000,-3080.000000
506,4.000000,-3080.000000
507,-160.000000,-3080.000000
508,-176.000000,-3080.000000
509,-180.000000,-3080.000000
510,-184.000000,-3080.000000
511,-180.000000,-3120.000000
512,-180.000000,-3080.000000
513,-180.000000,-3120.000000
514,-180.000000,-3080.000000
515,-180.000000,-3080.000000
516,-180.000000,-3080.000000
517,-180.000000,-3120.000000
518,-184.000000,-3080.000000
519,-180.000000,-3080.000000
520,-184.000000,-3080.000000
521,-176.000000,-3120.000000
522,-180.000000,-3120.000000
523,-180.000000,-3120.000000
524,-180.000000,-3080.000000
525,-180.000000,-3080.000000
526,-180.000000,-3080.000000
527,-176.000000,-3080.000000
528,-180.000000,-3120.000000
529,-180.000000,-3080.000000
530,68.000000,-3080.000000
531,48.000000,-3080.000000
532,-160.000000,-3120.000000
533,-180.000000,-3080.000000
534,-180.000000,-3080.000000
535,-180.000000,-3080.000000
536,-172.000000,-3080.000000
537,-180.000000,-3080.000000
538,-180.000000,-3080.000000
539,-180.000000,-3080.000000
540,-184.000000,-3080.000000
541,-176.000000,-3080.000000
542,-180.000000,-3080.000000
543,-180.000000,-3080.000000
544,-180.000000,-3080.000000
545,-176.000000,-3080.000000
546,-180.000000,-3080.000000
547,-180.000000,-3080.000000
548,-180.000000,-3080.000000
549,-176.000000,-3080.000000
550,-180.000000,-3080.000000
551,-176.000000,-3080.000000
552,-180.000000,-3120.000000
553,-180.000000,-3080.000000
554,-180.000000,-3080.000000
555,20.000000,-3080.000000
556,100.000000,-3080.000000
557,-152.000000,-3080.000000
558,-180.000000,-3080.000000
559,-180.000000,-3080.000000
560,-172.000000,-3080.000000
561,-184.000000,-3120.000000
562,-180.000000,-3080.000000
563,-180.000000,-3080.000000
564,-176.000000,-3080.000000
565,-176.000000,-3080.000000
566,-180.000000,-3080.000000
567,-180.000000,-3080.000000
568,-180.000000,-3080.000000
569,-176.000000,-3080.000000
570,-180.000000,-3080.000000
571,-176.000000,-3080.000000
572,-180.000000,-3080.000000
573,-180.000000,-3080.000000
574,-184.000000,-3080.000000
575,-180.000000,-3080.000000
576,-180.000000,-3080.000000
577,-180.000000,-3080.000000
578,-176.000000,-3080.000000
579,-180.000000,-3080.000000
580,-40.000000,-3080.000000
581,168.000000,-3080.000000
582,-144.000000,-3080.000000
583,-172.000000,-3120.000000
584,-176.000000,-3120.000000
585,-184.000000,-3080.000000
586,-172.000000,-3080.000000
587,-180.000000,-3120.000000
588,-176.000000,-3080.000000
589,-176.000000,-3080.000000
590,-180.000000,-3080.000000
591,-180.000000,-3120.000000
592,-180.000000,-3080.000000
593,-180.000000,-3080.000000
594,-180.000000,-3080.000000
595,-180.000000,-3080.000000
596,-180.000000,-3120.000000
597,-180.000000,-3080.000000
598,-180.000000,-3120.000000
599,-180.000000,-3080.000000
600,-180.000000,-3080.000000
601,-180.000000,-3080.000000
602,-180.000000,-3080.000000
603,-176.000000,-3080.000000
604,-180.000000,-3080.000000
605,-96.000000,-3080.000000
606,188.000000,-3080.000000
607,-140.000000,-3080.000000
608,-172.000000,-3080.000000
609,-180.000000,-3080.000000
610,-176.000000,-3120.000000
611,-184.000000,-3120.000000
612,-176.000000,-3120.000000
613,-176.000000,-3080.000000
614,-180.000000,-3080.000000
615,-180.000000,-3080.000000
616,-184.000000,-3080.000000
617,-180.000000,-3080.000000
618,-176.000000,-3120.000000
619,-176.000000,-3120.000000
620,-180.000000,-3080.000000
621,-176.000000,-3080.000000
622,-180.000000,-3080.000000
623,-180.000000,-3120.000000
624,-180.000000,-3120.000000
625,-176.000000,-3080.000000
626,-180.000000,-3080.000000
627,-176.000000,-3080.000000
628,-176.000000,-3080.000000
629,-180.000000,-3080.000000
630,-168.000000,-3080.000000
631,196.000000,-3120.000000
632,-128.000000,-3080.000000
633,-176.000000,-3120.000000
634,-176.000000,-3080.000000
635,-180.000000,-3120.000000
636,-172.000000,-3080.000000
637,-180.000000,-3120.000000
638,-184.000000,-3080.000000
639,-180.000000,-3080.000000
640,-180.000000,-3080.000000
641,-184.000000,-3080.000000
642,-180.000000,-3120.000000
643,-180.000000,-3120.000000
644,-180.000000,-3080.000000
645,-176.000000,-3120.000000
646,-180.000000,-3120.000000
647,-180.000000,-3080.000000
648,-184.000000,-3080.000000
649,-180.000000,-3080.000000
650,-180.000000,-3080.000000
651,-176.000000,-3080.000000
652,-184.000000,-3120.000000
653,-180.000000,-3080.000000
654,-180.000000,-3120.000000
655,-184.000000,-3080.000000
656,196.000000,-3080.000000
657,-112.000000,-3080.000000
658,-172.000000,-3080.000000
659,-184.000000,-3080.000000
660,-176.000000,-3080.000000
661,-184.000000,-3080.000000
662,-180.000000,-3120.000000
663,-180.000000,-3120.000000
664,-180.000000,-3120.000000
665,-180.000000,-3080.000000
666,-180.000000,-3080.000000
667,-180.000000,-3080.000000
668,-176.000000,-3080.000000
669,-180.000000,-3080.000000
670,-180.000000,-3120.000000
671,-176.000000,-3120.000000
672,-176.000000,-3080.000000
673,-184.000000,-3080.000000
674,-180.000000,-3080.000000
675,-176.000000,-3120.000000
676,-184.000000,-3080.000000
677,-176.000000,-3080.000000
678,-180.000000,-3120.000000
679,-184.000000,-3120.000000
680,-180.000000,-3080.000000
681,188.000000,-3080.000000
682,-92.000000,-3080.000000
683,-176.000000,-3120.000000
684,-176.000000,-3080.000000
685,-180.000000,-3080.000000
686,-184.000000,-3080.000000
687,-180.000000,-3080.000000
