repport_data/power_measurements_V2/data_27_004.csv

Channel              :,CH1,CH2
Frequency            :,  ?,  ?
Period               :,  ?,  ?
PK-PK                :,64.00mV,120.0mV
Probe attenuation    :,1X,1X
Voltage per ADC value:,0.250000mV,2.500000mV
Time interval        :,2000.00000uS,2000.00000uS

index,CH1_Voltage(mV),CH2_Voltage(mV)
1,180.000000,-3080.000000
2,180.000000,-3080.000000
3,184.000000,-3080.000000
4,180.000000,-3080.000000
5,184.000000,-3080.000000
6,184.000000,-3080.000000
7,180.000000,-3080.000000
8,184.000000,-3080.000000
9,184.000000,-3120.000000
10,180.000000,-3080.000000
11,180.000000,-3080.000000
12,184.000000,-3080.000000
13,184.000000,-3040.000000
14,184.000000,-3080.000000
15,188.000000,-3080.000000
16,184.000000,-3080.000000
17,188.000000,-3080.000000
18,188.000000,-3040.000000
19,192.000000,-3080.000000
20,188.000000,-3120.000000
21,192.000000,-3040.000000
22,188.000000,-3080.000000
23,192.000000,-3080.000000
24,184.000000,-3080.000000
25,188.000000,-3080.000000
26,184.000000,-3080.000000
27,188.000000,-3080.000000
28,188.000000,-3080.000000
29,188.000000,-3080.000000
30,188.000000,-3080.000000
31,184.000000,-3080.000000
32,184.000000,-3080.000000
33,188.000000,-3120.000000
34,188.000000,-3080.000000
35,188.000000,-3080.000000
36,188.000000,-3120.000000
37,188.000000,-3080.000000
38,188.000000,-3080.000000
39,188.000000,-3080.000000
40,188.000000,-3080.000000
41,184.000000,-3080.000000
42,188.000000,-3080.000000
43,188.000000,-3080.000000
44,184.000000,-3080.000000
45,192.000000,-3080.000000
46,188.000000,-3080.000000
47,188.000000,-3080.000000
48,184.000000,-3080.000000
49,192.000000,-3080.000000
50,180.000000,-3080.000000
51,192.000000,-3080.000000
52,184.000000,-3080.000000
53,188.000000,-3040.000000
54,188.000000,-3080.000000
55,188.000000,-3080.000000
56,192.000000,-3080.000000
57,188.000000,-3080.000000
58,188.000000,-3080.000000
59,180.000000,-3080.000000
60,184.000000,-3080.000000
61,192.000000,-3080.000000
62,188.000000,-3080.000000
63,184.000000,-3040.000000
64,184.000000,-3080.000000
65,184.000000,-3040.000000
66,184.000000,-3080.000000
67,188.000000,-3080.000000
68,184.000000,-3080.000000
69,188.000000,-3080.000000
70,188.000000,-3080.000000
71,188.000000,-3080.000000
72,188.000000,-3080.000000
73,184.000000,-3080.000000
74,184.000000,-3080.000000
75,188.000000,-3080.000000
76,188.000000,-3080.000000
77,192.000000,-3080.000000
78,188.000000,-3080.000000
79,188.000000,-3080.000000
80,188.000000,-3080.000000
81,192.000000,-3080.000000
82,184.000000,-3080.000000
83,188.000000,-3080.000000
84,192.000000,-3080.000000
85,184.000000,-3080.000000
86,192.000000,-3080.000000
87,188.000000,-3080.000000
88,188.000000,-3080.000000
89,188.000000,-3080.000000
90,184.000000,-3080.000000
91,188.000000,-3080.000000
92,188.000000,-3120.000000
93,188.000000,-3080.000000
94,184.000000,-3080.000000
95,184.000000,-3040.000000
96,188.000000,-3080.000000
97,184.000000,-3080.000000
98,192.000000,-3080.000000
99,188.000000,-3080.000000
100,188.000000,-3080.000000
101,188.000000,-3080.000000
102,188.000000,-3080.000000
103,188.000000,-3080.000000
104,188.000000,-3080.000000
105,192.000000,-3080.000000
106,184.000000,-3080.000000
107,192.000000,-3040.000000
108,192.000000,-3080.000000
109,188.000000,-3080.000000
110,192.000000,-3080.000000
111,184.000000,-3080.000000
112,188.000000,-3080.000000
113,184.000000,-3080.000000
114,188.000000,-3080.000000
115,192.000000,-3080.000000
116,192.000000,-3080.000000
117,180.000000,-3080.000000
118,184.000000,-3080.000000
119,184.000000,-3080.000000
120,184.000000,-3080.000000
121,188.000000,-3080.000000
122,184.000000,-3080.000000
123,184.000000,-3080.000000
124,184.000000,-3080.000000
125,176.000000,-3080.000000
126,184.000000,-3080.000000
127,180.000000,-3080.000000
128,184.000000,-3080.000000
129,188.000000,-3080.000000
130,188.000000,-3080.000000
131,180.000000,-3080.000000
132,184.000000,-3080.000000
133,184.000000,-3040.000000
134,188.000000,-3040.000000
135,184.000000,-3080.000000
136,184.000000,-3080.000000
137,188.000000,-3080.000000
138,184.000000,-3080.000000
139,184.000000,-3040.000000
140,188.000000,-3080.000000
141,184.000000,-3080.000000
142,180.000000,-3080.000000
143,184.000000,-3080.000000
144,184.000000,-3120.000000
145,188.000000,-3080.000000
146,188.000000,-3080.000000
147,188.000000,-3080.000000
148,184.000000,-3080.000000
149,184.000000,-3080.000000
150,184.000000,-3080.000000
151,188.000000,-3080.000000
152,188.000000,-3080.000000
153,192.000000,-3080.000000
154,184.000000,-3080.000000
155,180.000000,-3080.000000
156,188.000000,-3080.000000
157,184.000000,-3080.000000
158,184.000000,-3080.000000
159,180.000000,-3080.000000
160,184.000000,-3080.000000
161,188.000000,-3080.000000
162,188.000000,-3080.000000
163,180.000000,-3080.000000
164,180.000000,-3080.000000
165,188.000000,-3080.000000
166,192.000000,-3080.000000
167,184.000000,-3080.000000
168,188.000000,-3080.000000
169,184.000000,-3080.000000
170,184.000000,-3080.000000
171,184.000000,-3080.000000
172,184.000000,-3080.000000
173,184.000000,-3080.000000
174,184.000000,-3080.000000
175,184.000000,-3120.000000
176,192.000000,-3080.000000
177,188.000000,-3120.000000
178,184.000000,-3080.000000
179,188.000000,-3080.000000
180,184.000000,-3080.000000
181,188.000000,-3120.000000
182,184.000000,-3080.000000
183,184.000000,-3080.000000
184,188.000000,-3080.000000
185,184.000000,-3120.000000
186,184.000000,-3080.000000
187,180.000000,-3080.000000
188,184.000000,-3080.000000
189,184.000000,-3080.000000
190,188.000000,-3080.000000
191,176.000000,-3080.000000
192,184.000000,-3080.000000
193,180.000000,-3080.000000
194,184.000000,-3080.000000
195,184.000000,-3080.000000
196,176.000000,-3080.000000
197,180.000000,-3080.000000
198,188.000000,-3080.000000
199,184.000000,-3080.000000
200,184.000000,-3080.000000
201,180.000000,-3080.000000
202,184.000000,-3040.000000
203,184.000000,-3080.000000
204,180.000000,-3080.000000
205,184.000000,-3080.000000
206,184.000000,-3080.000000
207,184.000000,-3080.000000
208,184.000000,-3080.000000
209,184.000000,-3120.000000
210,184.000000,-3080.000000
211,184.000000,-3080.000000
212,184.000000,-3080.000000
213,184.000000,-3080.000000
214,184.000000,-3080.000000
215,184.000000,-3080.000000
216,180.000000,-3080.000000
217,184.000000,-3080.000000
218,188.000000,-3080.000000
219,184.000000,-3080.000000
220,184.000000,-3080.000000
221,188.000000,-3080.000000
222,184.000000,-3080.000000
223,184.000000,-3080.000000
224,180.000000,-3080.000000
225,184.000000,-3080.000000
226,188.000000,-3080.000000
227,188.000000,-3080.000000
228,188.000000,-3080.000000
229,184.000000,-3080.000000
230,184.000000,-3120.000000
231,188.000000,-3080.000000
232,188.000000,-3080.000000
233,188.000000,-3080.000000
234,188.000000,-3080.000000
235,184.000000,-3080.000000
236,192.000000,-3080.000000
237,188.000000,-3080.000000
238,188.000000,-3080.000000
239,184.000000,-3080.000000
240,192.000000,-3080.000000
241,188.000000,-3080.000000
242,192.000000,-3080.000000
243,188.000000,-3080.000000
244,188.000000,-3080.000000
245,188.000000,-3080.000000
246,188.000000,-3040.000000
247,192.000000,-3080.000000
248,192.000000,-3080.000000
249,184.000000,-3080.000000
250,184.000000,-3080.000000
251,192.000000,-3080.000000
252,184.000000,-3080.000000
253,184.000000,-3080.000000
254,184.000000,-3080.000000
255,188.000000,-3080.000000
256,192.000000,-3080.000000
257,188.000000,-3080.000000
258,188.000000,-3080.000000
259,192.000000,-3080.000000
260,188.000000,-3080.000000
261,188.000000,-3080.000000
262,184.000000,-3080.000000
263,184.000000,-3080.000000
264,184.000000,-3080.000000
265,196.000000,-3080.000000
266,188.000000,-3080.000000
267,188.000000,-3080.000000
268,188.000000,-3080.000000
269,188.000000,-3080.000000
270,192.000000,-3080.000000
271,188.000000,-3080.000000
272,188.000000,-3080.000000
273,188.000000,-3080.000000
274,192.000000,-3080.000000
275,188.000000,-3080.000000
276,188.000000,-3080.000000
277,188.000000,-3040.000000
278,192.000000,-3080.000000
279,188.000000,-3080.000000
280,192.000000,-3080.000000
281,188.000000,-3080.000000
282,188.000000,-3080.000000
283,192.000000,-3080.000000
284,188.000000,-3080.000000
285,184.000000,-3080.000000
286,184.000000,-3040.000000
287,192.000000,-3080.000000
288,188.000000,-3080.000000
289,184.000000,-3080.000000
290,188.000000,-3080.000000
291,188.000000,-3080.000000
292,188.000000,-3080.000000
293,188.000000,-3080.000000
294,188.000000,-3080.000000
295,188.000000,-3080.000000
296,192.000000,-3080.000000
297,188.000000,-3080.000000
298,192.000000,-3080.000000
299,188.000000,-3080.000000
300,184.000000,-3080.000000
301,188.000000,-3080.000000
302,188.000000,-3080.000000
303,192.000000,-3080.000000
304,188.000000,-3080.000000
305,184.000000,-3080.000000
306,192.000000,-3080.000000
307,192.000000,-3080.000000
308,184.000000,-3080.000000
309,188.000000,-3080.000000
310,188.000000,-3080.000000
311,192.000000,-3080.000000
312,192.000000,-3080.000000
313,188.000000,-3080.000000
314,184.000000,-3080.000000
315,188.000000,-3080.000000
316,188.000000,-3120.000000
317,184.000000,-3080.000000
318,188.000000,-3080.000000
319,184.000000,-3080.000000
320,188.000000,-3080.000000
321,184.000000,-3080.000000
322,180.000000,-3080.000000
323,180.000000,-3080.000000
324,180.000000,-3120.000000
325,184.000000,-3080.000000
326,180.000000,-3080.000000
327,184.000000,-3080.000000
328,180.000000,-3080.000000
329,184.000000,-3120.000000
330,184.000000,-3080.000000
331,184.000000,-3080.000000
332,184.000000,-3080.000000
333,180.000000,-3080.000000
334,184.000000,-3080.000000
335,184.000000,-3080.000000
336,176.000000,-3080.000000
337,180.000000,-3080.000000
338,176.000000,-3080.000000
339,184.000000,-3080.000000
340,184.000000,-3080.000000
341,180.000000,-3080.000000
342,184.000000,-3080.000000
343,184.000000,-3080.000000
344,184.000000,-3080.000000
345,180.000000,-3080.000000
346,176.000000,-3080.000000
347,184.000000,-3080.000000
348,184.000000,-3080.000000
349,184.000000,-3080.000000
350,180.000000,-3080.000000
351,180.000000,-3080.000000
352,184.000000,-3080.000000
353,180.000000,-3080.000000
354,180.000000,-3080.000000
355,176.000000,-3080.000000
356,176.000000,-3080.000000
357,180.000000,-3080.000000
358,184.000000,-3080.000000
359,184.000000,-3080.000000
360,188.000000,-3080.000000
361,172.000000,-3080.000000
362,184.000000,-3080.000000
363,184.000000,-3080.000000
364,180.000000,-3080.000000
365,184.000000,-3080.000000
366,184.000000,-3080.000000
367,184.000000,-3080.000000
368,184.000000,-3080.000000
369,180.000000,-3080.000000
370,184.000000,-3080.000000
371,188.000000,-3080.000000
372,188.000000,-3080.000000
373,184.000000,-3080.000000
374,188.000000,-3080.000000
375,184.000000,-3120.000000
376,188.000000,-3080.000000
377,184.000000,-3080.000000
378,188.000000,-3080.000000
379,184.000000,-3120.000000
380,188.000000,-3080.000000
381,184.000000,-3080.000000
382,184.000000,-3120.000000
383,184.000000,-3080.000000
384,184.000000,-3080.000000
385,184.000000,-3080.000000
386,188.000000,-3080.000000
387,180.000000,-3120.000000
388,188.000000,-3080.000000
389,180.000000,-3080.000000
390,184.000000,-3080.000000
391,184.000000,-3080.000000
392,184.000000,-3080.000000
393,180.000000,-3080.000000
394,184.000000,-3040.000000
395,180.000000,-3080.000000
396,184.000000,-3080.000000
397,184.000000,-3080.000000
398,184.000000,-3080.000000
399,184.000000,-3080.000000
400,188.000000,-3040.000000
401,180.000000,-3080.000000
402,184.000000,-3080.000000
403,184.000000,-3080.000000
404,184.000000,-3080.000000
405,184.000000,-3080.000000
406,184.000000,-3080.000000
407,188.000000,-3080.000000
408,192.000000,-3080.000000
409,184.000000,-3080.000000
410,188.000000,-3080.000000
411,188.000000,-3080.000000
412,184.000000,-3120.000000
413,180.000000,-3080.000000
414,184.000000,-3080.000000
415,180.000000,-3080.000000
416,180.000000,-3080.000000
417,180.000000,-3080.000000
418,184.000000,-3080.000000
419,188.000000,-3080.000000
420,184.000000,-3080.000000
421,184.000000,-3080.000000
422,184.000000,-3080.000000
423,184.000000,-3080.000000
424,188.000000,-3080.000000
425,184.000000,-3080.000000
426,188.000000,-3080.000000
427,184.000000,-3080.000000
428,184.000000,-3080.000000
429,188.000000,-3080.000000
430,184.000000,-3080.000000
431,192.000000,-3080.000000
432,188.000000,-3080.000000
433,184.000000,-3080.000000
434,192.000000,-3080.000000
435,188.000000,-3080.000000
436,192.000000,-3080.000000
437,184.000000,-3080.000000
438,192.000000,-3080.000000
439,188.000000,-3080.000000
440,184.000000,-3080.000000
441,184.000000,-3080.000000
442,184.000000,-3080.000000
443,184.000000,-3080.000000
444,184.000000,-3080.000000
445,184.000000,-3080.000000
446,188.000000,-3120.000000
447,180.000000,-3080.000000
448,184.000000,-3080.000000
449,184.000000,-3080.000000
450,184.000000,-3080.000000
451,184.000000,-3080.000000
452,184.000000,-3080.000000
453,184.000000,-3080.000000
454,184.000000,-3080.000000
455,184.000000,-3040.000000
456,184.000000,-3080.000000
457,184.000000,-3080.000000
458,188.000000,-3080.000000
459,188.000000,-3080.000000
460,188.000000,-3080.000000
461,184.000000,-3080.000000
462,188.000000,-3080.000000
463,192.000000,-3080.000000
464,188.000000,-3080.000000
465,184.000000,-3080.000000
466,184.000000,-3080.000000
467,184.000000,-3080.000000
468,196.000000,-3080.000000
469,184.000000,-3080.000000
470,188.000000,-3080.000000
471,184.000000,-3080.000000
472,184.000000,-3080.000000
473,184.000000,-3080.000000
474,184.000000,-3080.000000
475,192.000000,-3080.000000
476,188.000000,-3080.000000
477,188.000000,-3080.000000
478,184.000000,-3080.000000
479,184.000000,-3080.000000
480,188.000000,-3080.000000
481,184.000000,-3080.000000
482,184.000000,-3080.000000
483,192.000000,-3080.000000
484,184.000000,-3080.000000
485,188.000000,-3080.000000
486,192.000000,-3080.000000
487,184.000000,-3080.000000
488,188.000000,-3080.000000
489,188.000000,-3080.000000
490,184.000000,-3080.000000
491,192.000000,-3080.000000
492,184.000000,-3080.000000
493,188.000000,-3080.000000
494,184.000000,-3080.000000
495,192.000000,-3080.000000
496,192.000000,-3080.000000
497,188.000000,-3080.000000
498,188.000000,-3080.000000
499,188.000000,-3080.000000
500,192.000000,-3080.000000
501,196.000000,-3080.000000
502,184.000000,-3080.000000
503,188.000000,-3080.000000
504,188.000000,-3120.000000
505,188.000000,-3080.000000
506,188.000000,-3080.000000
507,188.000000,-3080.000000
508,192.000000,-3080.000000
509,192.000000,-3080.000000
510,184.000000,-3080.000000
511,184.000000,-3080.000000
512,184.000000,-3080.000000
513,188.000000,-3080.000000
514,188.000000,-3080.000000
515,188.000000,-3080.000000
516,188.000000,-3080.000000
517,192.000000,-3080.000000
518,188.000000,-3080.000000
519,184.000000,-3080.000000
520,188.000000,-3080.000000
521,176.000000,-3080.000000
522,184.000000,-3080.000000
523,184.000000,-3080.000000
524,184.000000,-3080.000000
525,184.000000,-3120.000000
526,172.000000,-3080.000000
527,180.000000,-3080.000000
528,180.000000,-3080.000000
529,184.000000,-3080.000000
530,180.000000,-3080.000000
531,180.000000,-3080.000000
532,188.000000,-3080.000000
533,184.000000,-3080.000000
534,176.000000,-3080.000000
535,180.000000,-3080.000000
536,184.000000,-3080.000000
537,184.000000,-3080.000000
538,184.000000,-3080.000000
539,180.000000,-3080.000000
540,180.000000,-3080.000000
541,184.000000,-3080.000000
542,180.000000,-3080.000000
543,180.000000,-3080.000000
544,184.000000,-3080.000000
545,180.000000,-3080.000000
546,176.000000,-3120.000000
547,180.000000,-3080.000000
548,184.000000,-3080.000000
549,188.000000,-3080.000000
550,176.000000,-3120.000000
551,180.000000,-3080.000000
552,184.000000,-3080.000000
553,184.000000,-3080.000000
554,184.000000,-3080.000000
555,188.000000,-3080.000000
556,192.000000,-3080.000000
557,184.000000,-3080.000000
558,180.000000,-3080.000000
559,180.000000,-3080.000000
560,184.000000,-3080.000000
561,188.000000,-3080.000000
562,184.000000,-3080.000000
563,184.000000,-3040.000000
564,180.000000,-3080.000000
565,188.000000,-3040.000000
566,184.000000,-3080.000000
567,176.000000,-3080.000000
568,180.000000,-3080.000000
569,184.000000,-3080.000000
570,184.000000,-3080.000000
571,188.000000,-3080.000000
572,184.000000,-3040.000000
573,188.000000,-3080.000000
574,184.000000,-3080.000000
575,184.000000,-3080.000000
576,176.000000,-3080.000000
577,184.000000,-3040.000000
578,184.000000,-3080.000000
579,184.000000,-3080.000000
580,180.000000,-3080.000000
581,180.000000,-3080.000000
582,176.000000,-3080.000000
583,180.000000,-3080.000000
584,180.000000,-3080.000000
585,180.000000,-3080.000000
586,180.000000,-3080.000000
587,184.000000,-3080.000000
588,180.000000,-3080.000000
589,184.000000,-3040.000000
590,180.000000,-3080.000000
591,180.000000,-3080.000000
592,184.000000,-3080.000000
593,180.000000,-3080.000000
594,184.000000,-3080.000000
595,184.000000,-3080.000000
596,188.000000,-3120.000000
597,184.000000,-3080.000000
598,184.000000,-3080.000000
599,184.000000,-3080.000000
600,184.000000,-3080.000000
601,184.000000,-3080.000000
602,184.000000,-3080.000000
603,184.000000,-3080.000000
604,180.000000,-3080.000000
605,188.000000,-3080.000000
606,184.000000,-3080.000000
607,180.000000,-3080.000000
608,180.000000,-3080.000000
609,184.000000,-3080.000000
610,184.000000,-3080.000000
611,184.000000,-3080.000000
612,184.000000,-3080.000000
613,184.000000,-3120.000000
614,184.000000,-3080.000000
615,184.000000,-3080.000000
616,180.000000,-3080.000000
617,184.000000,-3080.000000
618,188.000000,-3080.000000
619,184.000000,-3080.000000
620,184.000000,-3080.000000
621,184.000000,-3040.000000
622,184.000000,-3080.000000
623,184.000000,-3040.000000
624,184.000000,-3080.000000
625,188.000000,-3080.000000
626,184.000000,-3080.000000
627,188.000000,-3080.000000
628,192.000000,-3080.000000
629,192.000000,-3120.000000
630,184.000000,-3080.000000
631,188.000000,-3080.000000
632,184.000000,-3040.000000
633,188.000000,-3080.000000
634,192.000000,-3080.000000
635,188.000000,-3080.000000
636,192.000000,-3080.000000
637,188.000000,-3080.000000
638,196.000000,-3080.000000
639,188.000000,-3040.000000
640,188.000000,-3080.000000
641,184.000000,-3080.000000
642,188.000000,-3080.000000
643,188.000000,-3120.000000
644,188.000000,-3080.000000
645,188.000000,-3080.000000
646,192.000000,-3080.000000
647,188.000000,-3080.000000
648,192.000000,-3080.000000
649,184.000000,-3080.000000
650,192.000000,-3080.000000
651,184.000000,-3080.000000
652,188.000000,-3080.000000
653,192.000000,-3080.000000
654,192.000000,-3080.000000
655,188.000000,-3080.000000
656,188.000000,-3080.000000
657,188.000000,-3080.000000
658,188.000000,-3080.000000
659,188.000000,-3080.000000
660,192.000000,-3080.000000
661,192.000000,-3080.000000
662,192.000000,-3080.000000
663,188.000000,-3080.000000
664,184.000000,-3080.000000
665,192.000000,-3080.000000
666,192.000000,-3080.000000
667,188.000000,-3120.000000
668,188.000000,-3080.000000
669,192.000000,-3080.000000
670,200.000000,-3080.000000
671,188.000000,-3080.000000
672,192.000000,-3080.000000
673,188.000000,-3080.000000
674,188.000000,-3080.000000
675,184.000000,-3040.000000
676,184.000000,-3080.000000
677,188.000000,-3080.000000
678,188.000000,-3080.000000
679,192.000000,-3080.000000
680,192.000000,-3080.000000
681,196.000000,-3080.000000
682,196.000000,-3080.000000
683,192.000000,-3080.000000
684,188.000000,-3080.000000
685,188.000000,-3080.000000
686,188.000000,-3080.000000
687,188.000000,-3080.000000
688,188.000000,-3080.000000
689,184.000000,-3080.000000
690,188.000000,-3080.000000
691,188.000000,-3080.000000
692,188.000000,-3080.000000
693,188.000000,-3080.000000
694,192.000000,-3080.000000
695,188.000000,-3080.000000
696,188.000000,-3080.000000
697,188.000000,-3080.000000
698,192.000000,-3080.000000
699,188.000000,-3080.000000
700,192.000000,-3080.000000
701,196.000000,-3080.000000
702,192.000000,-3080.000000
703,188.000000,-3080.000000
704,180.000000,-3080.000000
705,188.000000,-3080.000000
706,188.000000,-3080.000000
707,184.000000,-3080.000000
