repport_data/power_measurements_V2/data_27_003.csv

Channel              :,CH1,CH2
Frequency            :,  ?,  ?
Period               :,  ?,  ?
PK-PK                :,484.0mV,80.00mV
Probe attenuation    :,1X,1X
Voltage per ADC value:,0.250000mV,2.500000mV
Time interval        :,2000.00000uS,2000.00000uS

index,CH1_Voltage(mV),CH2_Voltage(mV)
1,-208.000000,-3080.000000
2,-208.000000,-3080.000000
3,-212.000000,-3120.000000
4,-208.000000,-3080.000000
5,-208.000000,-3080.000000
6,-204.000000,-3080.000000
7,-212.000000,-3080.000000
8,-216.000000,-3080.000000
9,-212.000000,-3080.000000
10,-208.000000,-3120.000000
11,-212.000000,-3080.000000
12,-208.000000,-3120.000000
13,-208.000000,-3080.000000
14,-208.000000,-3080.000000
15,-208.000000,-3080.000000
16,-212.000000,-3120.000000
17,-212.000000,-3080.000000
18,-212.000000,-3080.000000
19,88.000000,-3080.000000
20,-24.000000,-3120.000000
21,-192.000000,-3080.000000
22,-212.000000,-3120.000000
23,-208.000000,-3080.000000
24,-208.000000,-3080.000000
25,-212.000000,-3120.000000
26,-212.000000,-3080.000000
27,-212.000000,-3080.000000
28,-212.000000,-3120.000000
29,-208.000000,-3080.000000
30,-208.000000,-3080.000000
31,-212.000000,-3080.000000
32,-208.000000,-3080.000000
33,-212.000000,-3120.000000
34,-216.000000,-3120.000000
35,-208.000000,-3080.000000
36,-212.000000,-3120.000000
37,-216.000000,-3120.000000
38,-208.000000,-3080.000000
39,-212.000000,-3080.000000
40,-212.000000,-3120.000000
41,-212.000000,-3080.000000
42,-208.000000,-3080.000000
43,-208.000000,-3080.000000
44,44.000000,-3080.000000
45,8.000000,-3080.000000
46,-180.000000,-3080.000000
47,-204.000000,-3080.000000
48,-212.000000,-3120.000000
49,-216.000000,-3080.000000
50,-208.000000,-3080.000000
51,-220.000000,-3080.000000
52,-208.000000,-3120.000000
53,-212.000000,-3120.000000
54,-208.000000,-3080.000000
55,-208.000000,-3080.000000
56,-208.000000,-3120.000000
57,-208.000000,-3080.000000
58,-208.000000,-3080.000000
59,-212.000000,-3120.000000
60,-208.000000,-3120.000000
61,-212.000000,-3080.000000
62,-208.000000,-3120.000000
63,-208.000000,-3120.000000
64,-208.000000,-3080.000000
65,-212.000000,-3120.000000
66,-212.000000,-3120.000000
67,-216.000000,-3080.000000
68,-212.000000,-3120.000000
69,20.000000,-3080.000000
70,40.000000,-3080.000000
71,-176.000000,-3120.000000
72,-212.000000,-3120.000000
73,-208.000000,-3080.000000
74,-208.000000,-3080.000000
75,-212.000000,-3080.000000
76,-212.000000,-3120.000000
77,-212.000000,-3120.000000
78,-208.000000,-3120.000000
79,-208.000000,-3080.000000
80,-208.000000,-3120.000000
81,-212.000000,-3120.000000
82,-212.000000,-3080.000000
83,-216.000000,-3080.000000
84,-216.000000,-3080.000000
85,-208.000000,-3080.000000
86,-212.000000,-3080.000000
87,-208.000000,-3120.000000
88,-212.000000,-3080.000000
89,-208.000000,-3120.000000
90,-212.000000,-3080.000000
91,-216.000000,-3080.000000
92,-212.000000,-3080.000000
93,-212.000000,-3080.000000
94,-16.000000,-3080.000000
95,80.000000,-3120.000000
96,-176.000000,-3120.000000
97,-204.000000,-3120.000000
98,-208.000000,-3080.000000
99,-216.000000,-3120.000000
100,-216.000000,-3080.000000
101,-212.000000,-3080.000000
102,-208.000000,-3080.000000
103,-212.000000,-3080.000000
104,-216.000000,-3120.000000
105,-212.000000,-3080.000000
106,-208.000000,-3080.000000
107,-212.000000,-3080.000000
108,-212.000000,-3120.000000
109,-212.000000,-3080.000000
110,-208.000000,-3120.000000
111,-212.000000,-3120.000000
112,-208.000000,-3080.000000
113,-212.000000,-3120.000000
114,-208.000000,-3080.000000
115,-216.000000,-3080.000000
116,-212.000000,-3120.000000
117,-208.000000,-3080.000000
118,-208.000000,-3080.000000
119,-56.000000,-3080.000000
120,132.000000,-3080.000000
121,-176.000000,-3120.000000
122,-204.000000,-3080.000000
123,-208.000000,-3080.000000
124,-212.000000,-3080.000000
125,-208.000000,-3080.000000
126,-208.000000,-3080.000000
127,-212.000000,-3080.000000
128,-212.000000,-3080.000000
129,-216.000000,-3080.000000
130,-212.000000,-3080.000000
131,-212.000000,-3080.000000
132,-212.000000,-3080.000000
133,-212.000000,-3080.000000
134,-212.000000,-3080.000000
135,-208.000000,-3080.000000
136,-216.000000,-3080.000000
137,-212.000000,-3080.000000
138,-212.000000,-3080.000000
139,-204.000000,-3120.000000
140,-212.000000,-3080.000000
141,-208.000000,-3120.000000
142,-212.000000,-3080.000000
143,-208.000000,-3080.000000
144,-104.000000,-3080.000000
145,156.000000,-3080.000000
146,-176.000000,-3080.000000
147,-204.000000,-3040.000000
148,-204.000000,-3080.000000
149,-212.000000,-3080.000000
150,-208.000000,-3080.000000
151,-212.000000,-3080.000000
152,-204.000000,-3080.000000
153,-212.000000,-3080.000000
154,-212.000000,-3080.000000
155,-212.000000,-3080.000000
156,-216.000000,-3120.000000
157,-212.000000,-3080.000000
158,-204.000000,-3040.000000
159,-212.000000,-3080.000000
160,-208.000000,-3080.000000
161,-212.000000,-3080.000000
162,-216.000000,-3080.000000
163,-208.000000,-3080.000000
164,-212.000000,-3080.000000
165,-208.000000,-3080.000000
166,-212.000000,-3080.000000
167,-212.000000,-3080.000000
168,-216.000000,-3080.000000
169,-140.000000,-3080.000000
170,160.000000,-3080.000000
171,228.000000,-3080.000000
172,244.000000,-3080.000000
173,248.000000,-3080.000000
174,248.000000,-3040.000000
175,244.000000,-3080.000000
176,248.000000,-3080.000000
177,244.000000,-3080.000000
178,248.000000,-3080.000000
179,244.000000,-3040.000000
180,244.000000,-3080.000000
181,248.000000,-3080.000000
182,244.000000,-3040.000000
183,244.000000,-3080.000000
184,244.000000,-3080.000000
185,244.000000,-3080.000000
186,244.000000,-3080.000000
187,248.000000,-3080.000000
188,244.000000,-3080.000000
189,244.000000,-3080.000000
190,244.000000,-3080.000000
191,148.000000,-3080.000000
192,140.000000,-3080.000000
193,140.000000,-3080.000000
194,144.000000,-3080.000000
195,140.000000,-3080.000000
196,144.000000,-3080.000000
197,140.000000,-3080.000000
198,144.000000,-3080.000000
199,144.000000,-3080.000000
200,128.000000,-3080.000000
201,128.000000,-3080.000000
202,140.000000,-3080.000000
203,140.000000,-3080.000000
204,144.000000,-3080.000000
205,144.000000,-3080.000000
206,148.000000,-3080.000000
207,144.000000,-3080.000000
208,140.000000,-3080.000000
209,132.000000,-3040.000000
210,132.000000,-3080.000000
211,140.000000,-3080.000000
212,136.000000,-3080.000000
213,140.000000,-3080.000000
214,140.000000,-3080.000000
215,140.000000,-3080.000000
216,136.000000,-3080.000000
217,136.000000,-3080.000000
218,132.000000,-3080.000000
219,140.000000,-3080.000000
220,136.000000,-3040.000000
221,140.000000,-3080.000000
222,140.000000,-3080.000000
223,144.000000,-3080.000000
224,144.000000,-3080.000000
225,140.000000,-3080.000000
226,136.000000,-3080.000000
227,136.000000,-3080.000000
228,136.000000,-3080.000000
229,136.000000,-3080.000000
230,136.000000,-3080.000000
231,140.000000,-3080.000000
232,140.000000,-3080.000000
233,140.000000,-3080.000000
234,136.000000,-3080.000000
235,132.000000,-3040.000000
236,136.000000,-3080.000000
237,208.000000,-3080.000000
238,-136.000000,-3080.000000
239,-216.000000,-3080.000000
240,-224.000000,-3080.000000
241,-224.000000,-3080.000000
242,-224.000000,-3080.000000
243,-220.000000,-3080.000000
244,-224.000000,-3080.000000
245,-224.000000,-3080.000000
246,-104.000000,-3040.000000
247,-208.000000,-3080.000000
248,-220.000000,-3080.000000
249,-224.000000,-3080.000000
250,-220.000000,-3040.000000
251,-224.000000,-3080.000000
252,-224.000000,-3080.000000
253,-216.000000,-3080.000000
254,-164.000000,-3080.000000
255,-212.000000,-3080.000000
256,-224.000000,-3080.000000
257,-220.000000,-3080.000000
258,-224.000000,-3080.000000
259,-220.000000,-3080.000000
260,-220.000000,-3080.000000
261,36.000000,-3040.000000
262,-196.000000,-3080.000000
263,-220.000000,-3080.000000
264,-220.000000,-3080.000000
265,-220.000000,-3080.000000
266,-220.000000,-3080.000000
267,-220.000000,-3080.000000
268,-220.000000,-3080.000000
269,-88.000000,-3080.000000
270,-212.000000,-3040.000000
271,-220.000000,-3080.000000
272,-216.000000,-3040.000000
273,-220.000000,-3080.000000
274,-220.000000,-3080.000000
275,-220.000000,-3040.000000
276,-216.000000,-3080.000000
277,-160.000000,-3080.000000
278,-212.000000,-3080.000000
279,-224.000000,-3080.000000
280,-220.000000,-3080.000000
281,-220.000000,-3080.000000
282,-220.000000,-3080.000000
283,-220.000000,-3080.000000
284,16.000000,-3080.000000
285,-188.000000,-3080.000000
286,-224.000000,-3080.000000
287,-224.000000,-3080.000000
288,-224.000000,-3080.000000
289,-220.000000,-3080.000000
290,-220.000000,-3080.000000
291,-220.000000,-3080.000000
292,-84.000000,-3080.000000
293,-204.000000,-3080.000000
294,-220.000000,-3080.000000
295,-220.000000,-3080.000000
296,-224.000000,-3040.000000
297,-220.000000,-3080.000000
298,-220.000000,-3080.000000
299,-220.000000,-3080.000000
300,-200.000000,-3040.000000
301,-220.000000,-3080.000000
302,-216.000000,-3080.000000
303,-216.000000,-3080.000000
304,-124.000000,-3080.000000
305,136.000000,-3080.000000
306,156.000000,-3080.000000
307,160.000000,-3080.000000
308,156.000000,-3080.000000
309,164.000000,-3080.000000
310,164.000000,-3080.000000
311,156.000000,-3080.000000
312,-160.000000,-3080.000000
313,-208.000000,-3080.000000
314,-212.000000,-3080.000000
315,-212.000000,-3040.000000
316,-212.000000,-3080.000000
317,-212.000000,-3080.000000
318,-216.000000,-3080.000000
319,-212.000000,-3080.000000
320,-216.000000,-3040.000000
321,-212.000000,-3080.000000
322,-212.000000,-3080.000000
323,-212.000000,-3080.000000
324,-212.000000,-3040.000000
325,-212.000000,-3080.000000
326,-212.000000,-3080.000000
327,-212.000000,-3080.000000
328,-212.000000,-3080.000000
329,-212.000000,-3080.000000
330,-212.000000,-3040.000000
331,-208.000000,-3040.000000
332,-208.000000,-3120.000000
333,-212.000000,-3040.000000
334,-216.000000,-3080.000000
335,-216.000000,-3080.000000
336,-212.000000,-3040.000000
337,156.000000,-3040.000000
338,-128.000000,-3040.000000
339,-204.000000,-3080.000000
340,-212.000000,-3080.000000
341,-212.000000,-3080.000000
342,-208.000000,-3080.000000
343,-216.000000,-3080.000000
344,-208.000000,-3080.000000
345,-212.000000,-3080.000000
346,-212.000000,-3080.000000
347,-208.000000,-3040.000000
348,-216.000000,-3080.000000
349,-208.000000,-3080.000000
350,-212.000000,-3040.000000
351,-208.000000,-3080.000000
352,-216.000000,-3080.000000
353,-212.000000,-3080.000000
354,-208.000000,-3080.000000
355,-204.000000,-3080.000000
356,-212.000000,-3080.000000
357,-212.000000,-3080.000000
358,-212.000000,-3080.000000
359,-208.000000,-3040.000000
360,-212.000000,-3080.000000
361,-208.000000,-3080.000000
362,156.000000,-3080.000000
363,-120.000000,-3040.000000
364,-200.000000,-3080.000000
365,-208.000000,-3080.000000
366,-216.000000,-3080.000000
367,-212.000000,-3080.000000
368,-212.000000,-3080.000000
369,-212.000000,-3080.000000
370,-208.000000,-3080.000000
371,-212.000000,-3040.000000
372,-208.000000,-3080.000000
373,-208.000000,-3080.000000
374,-208.000000,-3080.000000
375,-212.000000,-3040.000000
376,-208.000000,-3080.000000
377,-212.000000,-3080.000000
378,-208.000000,-3080.000000
379,-212.000000,-3080.000000
380,-208.000000,-3080.000000
381,-212.000000,-3080.000000
382,-208.000000,-3080.000000
383,-212.000000,-3080.000000
384,-212.000000,-3080.000000
385,-212.000000,-3080.000000
386,-200.000000,-3080.000000
387,152.000000,-3080.000000
388,-104.000000,-3080.000000
389,-200.000000,-3080.000000
390,-212.000000,-3040.000000
391,-212.000000,-3040.000000
392,-212.000000,-3080.000000
393,-212.000000,-3080.000000
394,-212.000000,-3080.000000
395,-208.000000,-3040.000000
396,-212.000000,-3080.000000
397,-212.000000,-3080.000000
398,-204.000000,-3080.000000
399,-212.000000,-3040.000000
400,-212.000000,-3080.000000
401,-208.000000,-3080.000000
402,-212.000000,-3040.000000
403,-208.000000,-3080.000000
404,-212.000000,-3080.000000
405,-212.000000,-3080.000000
406,-216.000000,-3080.000000
407,-212.000000,-3080.000000
408,-212.000000,-3080.000000
409,-208.000000,-3080.000000
410,-216.000000,-3080.000000
411,-212.000000,-3080.000000
412,140.000000,-3080.000000
413,-84.000000,-3080.000000
414,-200.000000,-3080.000000
415,-212.000000,-3080.000000
416,-212.000000,-3040.000000
417,-212.000000,-3120.000000
418,-212.000000,-3080.000000
419,-212.000000,-3080.000000
420,-208.000000,-3080.000000
421,-212.000000,-3080.000000
422,-212.000000,-3080.000000
423,-212.000000,-3080.000000
424,-208.000000,-3080.000000
425,-212.000000,-3080.000000
426,-212.000000,-3040.000000
427,-212.000000,-3080.000000
428,-212.000000,-3080.000000
429,-208.000000,-3080.000000
430,-212.000000,-3080.000000
431,-212.000000,-3080.000000
432,-212.000000,-3080.000000
433,-212.000000,-3080.000000
434,-212.000000,-3080.000000
435,-212.000000,-3080.000000
436,-204.000000,-3080.000000
437,124.000000,-3080.000000
438,-68.000000,-3080.000000
439,-192.000000,-3080.000000
440,-208.000000,-3080.000000
441,-208.000000,-3080.000000
442,-212.000000,-3080.000000
443,-212.000000,-3080.000000
444,-216.000000,-3080.000000
445,-208.000000,-3080.000000
446,-212.000000,-3080.000000
447,-212.000000,-3080.000000
448,-212.000000,-3040.000000
449,-216.000000,-3080.000000
450,-212.000000,-3080.000000
451,-208.000000,-3040.000000
452,-212.000000,-3080.000000
453,-208.000000,-3080.000000
454,-208.000000,-3080.000000
455,-216.000000,-3080.000000
456,-212.000000,-3080.000000
457,-216.000000,-3080.000000
458,-208.000000,-3080.000000
459,-208.000000,-3080.000000
460,-216.000000,-3080.000000
461,-212.000000,-3040.000000
462,108.000000,-3080.000000
463,-44.000000,-3080.000000
464,-192.000000,-3080.000000
465,-208.000000,-3080.000000
466,-212.000000,-3080.000000
467,-208.000000,-3080.000000
468,-208.000000,-3080.000000
469,-216.000000,-3040.000000
470,-212.000000,-3080.000000
471,-212.000000,-3080.000000
472,-212.000000,-3040.000000
473,-208.000000,-3080.000000
474,-208.000000,-3080.000000
475,-208.000000,-3080.000000
476,-208.000000,-3080.000000
477,-208.000000,-3080.000000
478,-212.000000,-3040.000000
479,-208.000000,-3040.000000
480,-212.000000,-3080.000000
481,-212.000000,-3080.000000
482,-212.000000,-3080.000000
483,-208.000000,-3080.000000
484,-212.000000,-3080.000000
485,-208.000000,-3080.000000
486,-216.000000,-3080.000000
487,76.000000,-3040.000000
488,-16.000000,-3080.000000
489,-192.000000,-3080.000000
490,-204.000000,-3080.000000
491,-204.000000,-3080.000000
492,-212.000000,-3080.000000
493,-212.000000,-3080.000000
494,-208.000000,-3080.000000
495,-208.000000,-3040.000000
496,-212.000000,-3080.000000
497,-216.000000,-3080.000000
498,-212.000000,-3080.000000
499,-212.000000,-3080.000000
500,-212.000000,-3040.000000
501,-216.000000,-3040.000000
502,-208.000000,-3080.000000
503,-208.000000,-3040.000000
504,-208.000000,-3040.000000
505,-212.000000,-3080.000000
506,-208.000000,-3080.000000
507,-216.000000,-3080.000000
508,-212.000000,-3080.000000
509,-212.000000,-3080.000000
510,-212.000000,-3080.000000
511,-208.000000,-3080.000000
512,44.000000,-3080.000000
513,16.000000,-3080.000000
514,-184.000000,-3080.000000
515,-204.000000,-3080.000000
516,-212.000000,-3080.000000
517,-212.000000,-3040.000000
518,-216.000000,-3080.000000
519,-208.000000,-3080.000000
520,-208.000000,-3080.000000
521,-208.000000,-3080.000000
522,-216.000000,-3080.000000
523,-208.000000,-3080.000000
524,-208.000000,-3080.000000
525,-212.000000,-3040.000000
526,-212.000000,-3080.000000
527,-212.000000,-3080.000000
528,-208.000000,-3080.000000
529,-208.000000,-3080.000000
530,-208.000000,-3080.000000
531,-212.000000,-3080.000000
532,-212.000000,-3080.000000
533,-212.000000,-3080.000000
534,-212.000000,-3080.000000
535,-212.000000,-3080.000000
536,-212.000000,-3040.000000
537,12.000000,-3080.000000
538,52.000000,-3040.000000
539,-180.000000,-3040.000000
540,-204.000000,-3080.000000
541,-216.000000,-3080.000000
542,-208.000000,-3080.000000
543,-208.000000,-3080.000000
544,-212.000000,-3080.000000
545,-208.000000,-3080.000000
546,-204.000000,-3080.000000
547,-208.000000,-3080.000000
548,-212.000000,-3080.000000
549,-212.000000,-3080.000000
550,-212.000000,-3080.000000
551,-212.000000,-3040.000000
552,-212.000000,-3080.000000
553,-212.000000,-3080.000000
554,-212.000000,-3080.000000
555,-212.000000,-3080.000000
556,-212.000000,-3040.000000
557,-212.000000,-3040.000000
558,-212.000000,-3080.000000
559,-212.000000,-3080.000000
560,-208.000000,-3080.000000
561,-212.000000,-3040.000000
562,-32.000000,-3080.000000
563,96.000000,-3080.000000
564,-180.000000,-3040.000000
565,-212.000000,-3080.000000
566,-212.000000,-3080.000000
567,-212.000000,-3040.000000
568,-212.000000,-3080.000000
569,-208.000000,-3080.000000
570,-212.000000,-3080.000000
571,-216.000000,-3080.000000
572,-212.000000,-3040.000000
573,-208.000000,-3080.000000
574,-212.000000,-3080.000000
575,-208.000000,-3080.000000
576,-212.000000,-3080.000000
577,-212.000000,-3080.000000
578,-212.000000,-3080.000000
579,-212.000000,-3080.000000
580,-212.000000,-3080.000000
581,-216.000000,-3040.000000
582,-212.000000,-3080.000000
583,-212.000000,-3080.000000
584,-208.000000,-3080.000000
585,-208.000000,-3080.000000
586,-216.000000,-3080.000000
587,-76.000000,-3040.000000
588,148.000000,-3040.000000
589,-176.000000,-3080.000000
590,-204.000000,-3080.000000
591,-208.000000,-3080.000000
592,-212.000000,-3080.000000
593,-216.000000,-3080.000000
594,-212.000000,-3080.000000
595,-212.000000,-3080.000000
596,-212.000000,-3080.000000
597,-208.000000,-3080.000000
598,-208.000000,-3080.000000
599,-208.000000,-3080.000000
600,-212.000000,-3080.000000
601,-208.000000,-3040.000000
602,-216.000000,-3080.000000
603,-212.000000,-3040.000000
604,-212.000000,-3080.000000
605,-208.000000,-3040.000000
606,-208.000000,-3080.000000
607,-208.000000,-3080.000000
608,-216.000000,-3080.000000
609,-212.000000,-3040.000000
610,-212.000000,-3080.000000
611,-216.000000,-3080.000000
612,-120.000000,-3080.000000
613,160.000000,-3080.000000
614,-164.000000,-3080.000000
615,-204.000000,-3080.000000
616,-212.000000,-3080.000000
617,-212.000000,-3080.000000
618,-212.000000,-3080.000000
619,-212.000000,-3080.000000
620,-212.000000,-3080.000000
621,-212.000000,-3080.000000
622,-208.000000,-3080.000000
623,-212.000000,-3080.000000
624,-208.000000,-3080.000000
625,-212.000000,-3080.000000
626,-212.000000,-3080.000000
627,-212.000000,-3080.000000
628,-208.000000,-3080.000000
629,-212.000000,-3080.000000
630,-204.000000,-3080.000000
631,-208.000000,-3080.000000
632,-212.000000,-3080.000000
633,-212.000000,-3080.000000
634,-208.000000,-3080.000000
635,-208.000000,-3080.000000
636,-204.000000,-3080.000000
637,-172.000000,-3040.000000
638,172.000000,-3080.000000
639,-160.000000,-3080.000000
640,-204.000000,-3080.000000
641,-212.000000,-3080.000000
642,-212.000000,-3080.000000
643,-208.000000,-3080.000000
644,-212.000000,-3080.000000
645,-208.000000,-3080.000000
646,-212.000000,-3080.000000
647,-212.000000,-3080.000000
648,-212.000000,-3080.000000
649,-212.000000,-3040.000000
650,-212.000000,-3080.000000
651,-208.000000,-3080.000000
652,-212.000000,-3080.000000
653,-208.000000,-3080.000000
654,-212.000000,-3080.000000
655,-212.000000,-3080.000000
656,-216.000000,-3040.000000
657,-208.000000,-3040.000000
658,-208.000000,-3080.000000
659,-208.000000,-3080.000000
660,-208.000000,-3040.000000
661,-208.000000,-3080.000000
662,-216.000000,-3080.000000
663,172.000000,-3080.000000
664,-148.000000,-3080.000000
665,-200.000000,-3080.000000
666,-204.000000,-3040.000000
667,-208.000000,-3040.000000
668,-212.000000,-3040.000000
669,-212.000000,-3080.000000
670,-212.000000,-3080.000000
671,-220.000000,-3080.000000
672,-208.000000,-3080.000000
673,-208.000000,-3080.000000
674,-208.000000,-3040.000000
675,-204.000000,-3080.000000
676,-212.000000,-3080.000000
677,-208.000000,-3080.000000
678,-212.000000,-3080.000000
679,-212.000000,-3040.000000
680,-212.000000,-3040.000000
681,-208.000000,-3080.000000
682,-212.000000,-3040.000000
683,-216.000000,-3080.000000
684,-204.000000,-3080.000000
685,-208.000000,-3080.000000
686,-212.000000,-3080.000000
687,-208.000000,-3080.000000
