repport_data/power_measurements_V2/data_27_006.csv

Channel              :,CH1,CH2
Frequency            :,  ?,  ?
Period               :,  ?,  ?
PK-PK                :,484.0mV,80.00mV
Probe attenuation    :,1X,1X
Voltage per ADC value:,0.250000mV,2.500000mV
Time interval        :,200.00000uS,200.00000uS

index,CH1_Voltage(mV),CH2_Voltage(mV)
1,164.000000,-3080.000000
2,164.000000,-3080.000000
3,160.000000,-3120.000000
4,160.000000,-3120.000000
5,160.000000,-3080.000000
6,156.000000,-3120.000000
7,156.000000,-3080.000000
8,160.000000,-3080.000000
9,160.000000,-3080.000000
10,160.000000,-3080.000000
11,156.000000,-3080.000000
12,156.000000,-3080.000000
13,156.000000,-3080.000000
14,160.000000,-3080.000000
15,160.000000,-3080.000000
16,156.000000,-3080.000000
17,160.000000,-3080.000000
18,156.000000,-3080.000000
19,156.000000,-3080.000000
20,160.000000,-3080.000000
21,160.000000,-3080.000000
22,160.000000,-3080.000000
23,156.000000,-3080.000000
24,160.000000,-3080.000000
25,80.000000,-3080.000000
26,20.000000,-3080.000000
27,-20.000000,-3120.000000
28,-60.000000,-3120.000000
29,-92.000000,-3120.000000
30,-116.000000,-3080.000000
31,-132.000000,-3080.000000
32,-152.000000,-3080.000000
33,-164.000000,-3080.000000
34,-176.000000,-3080.000000
35,-180.000000,-3120.000000
36,-188.000000,-3040.000000
37,-188.000000,-3080.000000
38,-200.000000,-3080.000000
39,-200.000000,-3080.000000
40,-200.000000,-3080.000000
41,-208.000000,-3080.000000
42,-196.000000,-3080.000000
43,-212.000000,-3120.000000
44,-204.000000,-3080.000000
45,-208.000000,-3120.000000
46,-212.000000,-3080.000000
47,-208.000000,-3120.000000
48,-212.000000,-3080.000000
49,-208.000000,-3080.000000
50,-216.000000,-3080.000000
51,-208.000000,-3120.000000
52,-212.000000,-3080.000000
53,-212.000000,-3080.000000
54,-208.000000,-3080.000000
55,-216.000000,-3080.000000
56,-212.000000,-3080.000000
57,-212.000000,-3120.000000
58,-212.000000,-3080.000000
59,-212.000000,-3120.000000
60,-208.000000,-3080.000000
61,-212.000000,-3080.000000
62,-212.000000,-3080.000000
63,-216.000000,-3080.000000
64,-216.000000,-3080.000000
65,-208.000000,-3080.000000
66,-216.000000,-3080.000000
67,-212.000000,-3120.000000
68,-212.000000,-3080.000000
69,-212.000000,-3080.000000
70,-212.000000,-3080.000000
71,-216.000000,-3120.000000
72,-208.000000,-3080.000000
73,-212.000000,-3080.000000
74,-212.000000,-3080.000000
75,-212.000000,-3080.000000
76,-212.000000,-3080.000000
77,-212.000000,-3080.000000
78,-216.000000,-3080.000000
79,-216.000000,-3080.000000
80,-212.000000,-3080.000000
81,-212.000000,-3080.000000
82,-212.000000,-3080.000000
83,-212.000000,-3120.000000
84,-212.000000,-3080.000000
85,-216.000000,-3120.000000
86,-216.000000,-3080.000000
87,-212.000000,-3080.000000
88,-212.000000,-3080.000000
89,-216.000000,-3080.000000
90,-216.000000,-3080.000000
91,-212.000000,-3080.000000
92,-212.000000,-3120.000000
93,-216.000000,-3080.000000
94,-208.000000,-3080.000000
95,-212.000000,-3080.000000
96,-212.000000,-3080.000000
97,-216.000000,-3080.000000
98,-216.000000,-3080.000000
99,-212.000000,-3120.000000
100,-216.000000,-3080.000000
101,-216.000000,-3080.000000
102,-216.000000,-3080.000000
103,-212.000000,-3080.000000
104,-212.000000,-3080.000000
105,-212.000000,-3080.000000
106,-212.000000,-3080.000000
107,-212.000000,-3080.000000
108,-212.000000,-3080.000000
109,-220.000000,-3120.000000
110,-212.000000,-3080.000000
111,-216.000000,-3120.000000
112,-212.000000,-3080.000000
113,-212.000000,-3080.000000
114,-216.000000,-3080.000000
115,-216.000000,-3080.000000
116,-212.000000,-3120.000000
117,-212.000000,-3080.000000
118,-212.000000,-3080.000000
119,-212.000000,-3080.000000
120,-216.000000,-3080.000000
121,-216.000000,-3080.000000
122,-212.000000,-3080.000000
123,-212.000000,-3120.000000
124,-212.000000,-3080.000000
125,-216.000000,-3080.000000
126,-208.000000,-3080.000000
127,-212.000000,-3120.000000
128,-216.000000,-3080.000000
129,-212.000000,-3080.000000
130,-208.000000,-3080.000000
131,-212.000000,-3080.000000
132,-216.000000,-3120.000000
133,-216.000000,-3080.000000
134,-208.000000,-3080.000000
135,-212.000000,-3080.000000
136,-208.000000,-3080.000000
137,-208.000000,-3080.000000
138,-212.000000,-3080.000000
139,-212.000000,-3080.000000
140,-212.000000,-3080.000000
141,-212.000000,-3080.000000
142,-212.000000,-3120.000000
143,-212.000000,-3080.000000
144,-216.000000,-3080.000000
145,-216.000000,-3080.000000
146,-212.000000,-3080.000000
147,-212.000000,-3080.000000
148,-208.000000,-3080.000000
149,-216.000000,-3080.000000
150,-216.000000,-3080.000000
151,-212.000000,-3080.000000
152,-212.000000,-3080.000000
153,-216.000000,-3120.000000
154,-212.000000,-3080.000000
155,-212.000000,-3080.000000
156,-216.000000,-3040.000000
157,-216.000000,-3080.000000
158,-208.000000,-3080.000000
159,-208.000000,-3080.000000
160,-212.000000,-3080.000000
161,-216.000000,-3120.000000
162,-216.000000,-3080.000000
163,-216.000000,-3080.000000
164,-216.000000,-3080.000000
165,-212.000000,-3040.000000
166,-216.000000,-3080.000000
167,-208.000000,-3080.000000
168,-212.000000,-3080.000000
169,-212.000000,-3080.000000
170,-212.000000,-3080.000000
171,-212.000000,-3080.000000
172,-208.000000,-3080.000000
173,-208.000000,-3080.000000
174,-212.000000,-3080.000000
175,-212.000000,-3080.000000
176,-212.000000,-3080.000000
177,-216.000000,-3120.000000
178,-208.000000,-3080.000000
179,-216.000000,-3080.000000
180,-216.000000,-3120.000000
181,-208.000000,-3080.000000
182,-208.000000,-3080.000000
183,-212.000000,-3080.000000
184,-216.000000,-3080.000000
185,-212.000000,-3080.000000
186,-212.000000,-3080.000000
187,-212.000000,-3080.000000
188,-216.000000,-3080.000000
189,-212.000000,-3080.000000
190,-212.000000,-3080.000000
191,-216.000000,-3080.000000
192,-204.000000,-3120.000000
193,-216.000000,-3080.000000
194,-212.000000,-3080.000000
195,-212.000000,-3080.000000
196,-216.000000,-3080.000000
197,-208.000000,-3080.000000
198,-212.000000,-3080.000000
199,-216.000000,-3080.000000
200,-216.000000,-3080.000000
201,-212.000000,-3080.000000
202,-212.000000,-3080.000000
203,-216.000000,-3080.000000
204,-208.000000,-3080.000000
205,-212.000000,-3080.000000
206,-212.000000,-3080.000000
207,-212.000000,-3080.000000
208,-212.000000,-3120.000000
209,-212.000000,-3080.000000
210,-212.000000,-3080.000000
211,-212.000000,-3080.000000
212,-208.000000,-3080.000000
213,-212.000000,-3080.000000
214,-212.000000,-3080.000000
215,-212.000000,-3120.000000
216,-212.000000,-3080.000000
217,-208.000000,-3080.000000
218,-208.000000,-3080.000000
219,-212.000000,-3080.000000
220,-212.000000,-3080.000000
221,-212.000000,-3080.000000
222,-212.000000,-3080.000000
223,-212.000000,-3080.000000
224,-212.000000,-3080.000000
225,-212.000000,-3080.000000
226,-212.000000,-3080.000000
227,-216.000000,-3080.000000
228,-212.000000,-3080.000000
229,-212.000000,-3080.000000
230,-208.000000,-3080.000000
231,-212.000000,-3080.000000
232,-212.000000,-3080.000000
233,-212.000000,-3120.000000
234,-208.000000,-3120.000000
235,-216.000000,-3080.000000
236,-212.000000,-3080.000000
237,-208.000000,-3080.000000
238,-212.000000,-3080.000000
239,-208.000000,-3120.000000
240,-216.000000,-3080.000000
241,-212.000000,-3120.000000
242,-212.000000,-3120.000000
243,-216.000000,-3080.000000
244,-212.000000,-3080.000000
245,-212.000000,-3080.000000
246,-208.000000,-3080.000000
247,-212.000000,-3080.000000
248,-216.000000,-3080.000000
249,-208.000000,-3080.000000
250,-212.000000,-3080.000000
251,-212.000000,-3080.000000
252,-216.000000,-3080.000000
253,-212.000000,-3080.000000
254,-216.000000,-3080.000000
255,-212.000000,-3080.000000
256,-208.000000,-3080.000000
257,-216.000000,-3080.000000
258,-216.000000,-3080.000000
259,-212.000000,-3080.000000
260,-212.000000,-3120.000000
261,-212.000000,-3080.000000
262,-212.000000,-3080.000000
263,-212.000000,-3080.000000
264,-212.000000,-3080.000000
265,-208.000000,-3080.000000
266,-212.000000,-3080.000000
267,-208.000000,-3080.000000
268,-216.000000,-3080.000000
269,-208.000000,-3080.000000
270,-208.000000,-3080.000000
271,-212.000000,-3080.000000
272,-212.000000,-3080.000000
273,-216.000000,-3080.000000
274,-208.000000,-3080.000000
275,-164.000000,-3120.000000
276,-92.000000,-3120.000000
277,-32.000000,-3080.000000
278,24.000000,-3080.000000
279,72.000000,-3080.000000
280,112.000000,-3080.000000
281,136.000000,-3080.000000
282,152.000000,-3080.000000
283,160.000000,-3080.000000
284,164.000000,-3080.000000
285,164.000000,-3080.000000
286,172.000000,-3080.000000
287,88.000000,-3120.000000
288,32.000000,-3120.000000
289,-16.000000,-3120.000000
290,-56.000000,-3080.000000
291,-80.000000,-3080.000000
292,-116.000000,-3120.000000
293,-132.000000,-3080.000000
294,-148.000000,-3080.000000
295,-160.000000,-3080.000000
296,-172.000000,-3080.000000
297,-180.000000,-3080.000000
298,-184.000000,-3080.000000
299,-192.000000,-3080.000000
300,-184.000000,-3120.000000
301,-200.000000,-3120.000000
302,-204.000000,-3080.000000
303,-200.000000,-3120.000000
304,-204.000000,-3080.000000
305,-204.000000,-3080.000000
306,-208.000000,-3080.000000
307,-208.000000,-3080.000000
308,-212.000000,-3080.000000
309,-208.000000,-3080.000000
310,-208.000000,-3080.000000
311,-208.000000,-3080.000000
312,-208.000000,-3080.000000
313,-212.000000,-3080.000000
314,-208.000000,-3120.000000
315,-212.000000,-3080.000000
316,-212.000000,-3120.000000
317,-220.000000,-3080.000000
318,-212.000000,-3080.000000
319,-212.000000,-3080.000000
320,-212.000000,-3080.000000
321,-212.000000,-3120.000000
322,-212.000000,-3080.000000
323,-212.000000,-3080.000000
324,-216.000000,-3080.000000
325,-212.000000,-3080.000000
326,-212.000000,-3120.000000
327,-216.000000,-3080.000000
328,-212.000000,-3080.000000
329,-212.000000,-3080.000000
330,-212.000000,-3080.000000
331,-212.000000,-3080.000000
332,-216.000000,-3080.000000
333,-208.000000,-3080.000000
334,-212.000000,-3080.000000
335,-216.000000,-3120.000000
336,-216.000000,-3080.000000
337,-212.000000,-3080.000000
338,-208.000000,-3080.000000
339,-212.000000,-3080.000000
340,-216.000000,-3080.000000
341,-216.000000,-3080.000000
342,-216.000000,-3080.000000
343,-208.000000,-3080.000000
344,-212.000000,-3080.000000
345,-196.000000,-3080.000000
346,-212.000000,-3120.000000
347,-208.000000,-3080.000000
348,-212.000000,-3080.000000
349,-216.000000,-3080.000000
350,-212.000000,-3120.000000
351,-212.000000,-3080.000000
352,-212.000000,-3040.000000
353,-212.000000,-3080.000000
354,-208.000000,-3080.000000
355,-208.000000,-3080.000000
356,-212.000000,-3080.000000
357,-212.000000,-3080.000000
358,-208.000000,-3080.000000
359,-212.000000,-3080.000000
360,-212.000000,-3080.000000
361,-212.000000,-3080.000000
362,-212.000000,-3080.000000
363,-212.000000,-3080.000000
364,-212.000000,-3080.000000
365,-216.000000,-3080.000000
366,-212.000000,-3080.000000
367,-212.000000,-3080.000000
368,-212.000000,-3080.000000
369,-212.000000,-3080.000000
370,-212.000000,-3080.000000
371,-212.000000,-3120.000000
372,-212.000000,-3080.000000
373,-208.000000,-3120.000000
374,-212.000000,-3120.000000
375,-212.000000,-3080.000000
376,-212.000000,-3080.000000
377,-216.000000,-3080.000000
378,-212.000000,-3080.000000
379,-208.000000,-3080.000000
380,-208.000000,-3120.000000
381,-216.000000,-3080.000000
382,-212.000000,-3080.000000
383,-212.000000,-3120.000000
384,-208.000000,-3080.000000
385,-212.000000,-3080.000000
386,-212.000000,-3120.000000
387,-212.000000,-3080.000000
388,-212.000000,-3120.000000
389,-216.000000,-3080.000000
390,-212.000000,-3080.000000
391,-212.000000,-3080.000000
392,-212.000000,-3080.000000
393,-212.000000,-3080.000000
394,-212.000000,-3080.000000
395,-216.000000,-3080.000000
396,-208.000000,-3080.000000
397,-212.000000,-3080.000000
398,-212.000000,-3120.000000
399,-216.000000,-3080.000000
400,-216.000000,-3080.000000
401,-212.000000,-3080.000000
402,-216.000000,-3080.000000
403,-212.000000,-3080.000000
404,-212.000000,-3080.000000
405,-212.000000,-3080.000000
406,-212.000000,-3080.000000
407,-212.000000,-3080.000000
408,-212.000000,-3120.000000
409,-212.000000,-3080.000000
410,-212.000000,-3120.000000
411,-212.000000,-3080.000000
412,-208.000000,-3080.000000
413,-212.000000,-3080.000000
414,-212.000000,-3080.000000
415,-208.000000,-3080.000000
416,-212.000000,-3080.000000
417,-212.000000,-3080.000000
418,-216.000000,-3080.000000
419,-216.000000,-3080.000000
420,-212.000000,-3080.000000
421,-212.000000,-3080.000000
422,-208.000000,-3080.000000
423,-212.000000,-3080.000000
424,-212.000000,-3080.000000
425,-216.000000,-3080.000000
426,-216.000000,-3080.000000
427,-212.000000,-3080.000000
428,-212.000000,-3120.000000
429,-216.000000,-3120.000000
430,-208.000000,-3080.000000
431,-212.000000,-3080.000000
432,-212.000000,-3080.000000
433,-216.000000,-3080.000000
434,-212.000000,-3080.000000
435,-216.000000,-3080.000000
436,-216.000000,-3120.000000
437,-212.000000,-3080.000000
438,-212.000000,-3080.000000
439,-208.000000,-3080.000000
440,-220.000000,-3080.000000
441,-208.000000,-3080.000000
442,-216.000000,-3080.000000
443,-208.000000,-3080.000000
444,-212.000000,-3080.000000
445,-212.000000,-3080.000000
446,-212.000000,-3120.000000
447,-216.000000,-3120.000000
448,-208.000000,-3080.000000
449,-212.000000,-3120.000000
450,-208.000000,-3120.000000
451,-212.000000,-3080.000000
452,-212.000000,-3080.000000
453,-216.000000,-3120.000000
454,-212.000000,-3080.000000
455,-208.000000,-3080.000000
456,-216.000000,-3080.000000
457,-208.000000,-3080.000000
458,-208.000000,-3080.000000
459,-212.000000,-3080.000000
460,-208.000000,-3080.000000
461,-208.000000,-3080.000000
462,-216.000000,-3080.000000
463,-212.000000,-3080.000000
464,-208.000000,-3080.000000
465,-212.000000,-3080.000000
466,-212.000000,-3080.000000
467,-208.000000,-3080.000000
468,-212.000000,-3080.000000
469,-208.000000,-3080.000000
470,-212.000000,-3080.000000
471,-212.000000,-3080.000000
472,-212.000000,-3080.000000
473,-220.000000,-3080.000000
474,-212.000000,-3080.000000
475,-212.000000,-3120.000000
476,-212.000000,-3080.000000
477,-216.000000,-3080.000000
478,-208.000000,-3080.000000
479,-212.000000,-3080.000000
480,-212.000000,-3080.000000
481,-208.000000,-3080.000000
482,-212.000000,-3120.000000
483,-212.000000,-3120.000000
484,-212.000000,-3080.000000
485,-212.000000,-3080.000000
486,-212.000000,-3080.000000
487,-208.000000,-3080.000000
488,-212.000000,-3080.000000
489,-208.000000,-3080.000000
490,-208.000000,-3120.000000
491,-216.000000,-3080.000000
492,-208.000000,-3080.000000
493,-212.000000,-3080.000000
494,-208.000000,-3120.000000
495,-204.000000,-3080.000000
496,-216.000000,-3080.000000
497,-212.000000,-3080.000000
498,-212.000000,-3080.000000
499,-212.000000,-3080.000000
500,-212.000000,-3080.000000
501,-208.000000,-3080.000000
502,-208.000000,-3080.000000
503,-212.000000,-3080.000000
504,-212.000000,-3080.000000
505,-212.000000,-3120.000000
506,-208.000000,-3080.000000
507,-212.000000,-3080.000000
508,-216.000000,-3080.000000
509,-216.000000,-3080.000000
510,-212.000000,-3080.000000
511,-212.000000,-3080.000000
512,-208.000000,-3080.000000
513,-212.000000,-3080.000000
514,-212.000000,-3080.000000
515,-216.000000,-3080.000000
516,-212.000000,-3080.000000
517,-216.000000,-3080.000000
518,-212.000000,-3080.000000
519,-212.000000,-3120.000000
520,-212.000000,-3080.000000
521,-212.000000,-3080.000000
522,-216.000000,-3080.000000
523,-216.000000,-3080.000000
524,-212.000000,-3080.000000
525,-212.000000,-3080.000000
526,-152.000000,-3080.000000
527,-84.000000,-3080.000000
528,-20.000000,-3080.000000
529,36.000000,-3080.000000
530,84.000000,-3080.000000
531,120.000000,-3080.000000
532,144.000000,-3080.000000
533,156.000000,-3080.000000
534,164.000000,-3080.000000
535,168.000000,-3080.000000
536,164.000000,-3080.000000
537,160.000000,-3080.000000
538,84.000000,-3080.000000
539,32.000000,-3080.000000
540,-20.000000,-3080.000000
541,-56.000000,-3080.000000
542,-80.000000,-3080.000000
543,-116.000000,-3080.000000
544,-132.000000,-3120.000000
545,-148.000000,-3080.000000
546,-160.000000,-3080.000000
547,-172.000000,-3080.000000
548,-180.000000,-3080.000000
549,-184.000000,-3080.000000
550,-192.000000,-3080.000000
551,-192.000000,-3080.000000
552,-200.000000,-3080.000000
553,-204.000000,-3120.000000
554,-200.000000,-3080.000000
555,-204.000000,-3080.000000
556,-208.000000,-3080.000000
557,-212.000000,-3080.000000
558,-208.000000,-3080.000000
559,-208.000000,-3080.000000
560,-208.000000,-3080.000000
561,-212.000000,-3080.000000
562,-212.000000,-3080.000000
563,-208.000000,-3080.000000
564,-212.000000,-3080.000000
565,-216.000000,-3120.000000
566,-212.000000,-3080.000000
567,-212.000000,-3080.000000
568,-212.000000,-3080.000000
569,-212.000000,-3080.000000
570,-212.000000,-3080.000000
571,-208.000000,-3080.000000
572,-212.000000,-3080.000000
573,-212.000000,-3080.000000
574,-212.000000,-3080.000000
575,-212.000000,-3080.000000
576,-216.000000,-3120.000000
577,-212.000000,-3080.000000
578,-212.000000,-3080.000000
579,-212.000000,-3080.000000
580,-212.000000,-3080.000000
581,-208.000000,-3080.000000
582,-212.000000,-3080.000000
583,-216.000000,-3080.000000
584,-212.000000,-3120.000000
585,-212.000000,-3080.000000
586,-212.000000,-3080.000000
587,-212.000000,-3080.000000
588,-212.000000,-3080.000000
589,-208.000000,-3080.000000
590,-212.000000,-3080.000000
591,-208.000000,-3080.000000
592,-216.000000,-3080.000000
593,-208.000000,-3080.000000
594,-212.000000,-3080.000000
595,-212.000000,-3120.000000
596,-208.000000,-3080.000000
597,-212.000000,-3080.000000
598,-204.000000,-3080.000000
599,-220.000000,-3120.000000
600,-212.000000,-3080.000000
601,-212.000000,-3120.000000
602,-212.000000,-3080.000000
603,-216.000000,-3080.000000
604,-212.000000,-3080.000000
605,-212.000000,-3080.000000
606,-216.000000,-3080.000000
607,-216.000000,-3080.000000
608,-212.000000,-3080.000000
609,-212.000000,-3080.000000
610,-212.000000,-3080.000000
611,-208.000000,-3080.000000
612,-212.000000,-3080.000000
613,-216.000000,-3080.000000
614,-208.000000,-3080.000000
615,-216.000000,-3120.000000
616,-216.000000,-3080.000000
617,-208.000000,-3080.000000
618,-216.000000,-3080.000000
619,-212.000000,-3080.000000
620,-212.000000,-3080.000000
621,-208.000000,-3080.000000
622,-216.000000,-3080.000000
623,-216.000000,-3080.000000
624,-212.000000,-3080.000000
625,-208.000000,-3080.000000
626,-212.000000,-3080.000000
627,-216.000000,-3080.000000
628,-216.000000,-3080.000000
629,-216.000000,-3080.000000
630,-208.000000,-3080.000000
631,-212.000000,-3080.000000
632,-212.000000,-3080.000000
633,-212.000000,-3080.000000
634,-208.000000,-3080.000000
635,-212.000000,-3080.000000
636,-216.000000,-3080.000000
637,-216.000000,-3080.000000
638,-212.000000,-3080.000000
639,-208.000000,-3080.000000
640,-208.000000,-3080.000000
641,-212.000000,-3080.000000
642,-208.000000,-3080.000000
643,-212.000000,-3080.000000
644,-216.000000,-3080.000000
645,-208.000000,-3080.000000
646,-224.000000,-3080.000000
647,-208.000000,-3080.000000
648,-216.000000,-3080.000000
649,-212.000000,-3080.000000
650,-208.000000,-3080.000000
651,-208.000000,-3080.000000
652,-212.000000,-3120.000000
653,-208.000000,-3120.000000
654,-208.000000,-3080.000000
655,-208.000000,-3120.000000
656,-216.000000,-3080.000000
657,-208.000000,-3080.000000
658,-216.000000,-3120.000000
659,-212.000000,-3120.000000
660,-216.000000,-3080.000000
661,-216.000000,-3120.000000
662,-212.000000,-3080.000000
663,-212.000000,-3080.000000
664,-208.000000,-3120.000000
665,-212.000000,-3120.000000
666,-216.000000,-3080.000000
667,-212.000000,-3120.000000
668,-212.000000,-3080.000000
669,-212.000000,-3120.000000
670,-216.000000,-3080.000000
671,-212.000000,-3080.000000
672,-212.000000,-3080.000000
673,-208.000000,-3120.000000
674,-216.000000,-3080.000000
675,-208.000000,-3080.000000
676,-212.000000,-3080.000000
677,-208.000000,-3080.000000
678,-212.000000,-3080.000000
679,-212.000000,-3080.000000
680,-212.000000,-3080.000000
681,-212.000000,-3080.000000
682,-208.000000,-3080.000000
683,-212.000000,-3080.000000
684,-212.000000,-3120.000000
685,-212.000000,-3120.000000
