repport_data/power_measurements_V2/data_27_001.csv

Channel              :,CH1,CH2
Frequency            :,  ?,  ?
Period               :,  ?,  ?
PK-PK                :,372.0mV,3.400V
Probe attenuation    :,1X,1X
Voltage per ADC value:,0.250000mV,2.500000mV
Time interval        :,2000.00000uS,2000.00000uS

index,CH1_Voltage(mV),CH2_Voltage(mV)
1,304.000000,-3080.000000
2,304.000000,-3080.000000
3,308.000000,-3120.000000
4,308.000000,-3080.000000
5,308.000000,-3080.000000
6,308.000000,-3080.000000
7,308.000000,-3080.000000
8,308.000000,-3080.000000
9,308.000000,-3080.000000
10,308.000000,-3080.000000
11,308.000000,-3040.000000
12,308.000000,-3080.000000
13,308.000000,-3080.000000
14,308.000000,-3040.000000
15,308.000000,-3080.000000
16,308.000000,-3080.000000
17,308.000000,-3080.000000
18,308.000000,-3080.000000
19,308.000000,-3080.000000
20,308.000000,-3080.000000
21,308.000000,-3080.000000
22,308.000000,-3080.000000
23,308.000000,-3080.000000
24,304.000000,-3080.000000
25,308.000000,-3080.000000
26,308.000000,-3080.000000
27,308.000000,-3080.000000
28,308.000000,-3080.000000
29,312.000000,-3080.000000
30,308.000000,-3080.000000
31,308.000000,-3040.000000
32,308.000000,-3080.000000
33,344.000000,-3040.000000
34,352.000000,-3080.000000
35,348.000000,-3080.000000
36,348.000000,-3080.000000
37,352.000000,-3080.000000
38,352.000000,-3040.000000
39,352.000000,-3080.000000
40,348.000000,-3080.000000
41,348.000000,-3080.000000
42,344.000000,-3080.000000
43,352.000000,-3040.000000
44,348.000000,-3080.000000
45,352.000000,-3080.000000
46,348.000000,-3080.000000
47,352.000000,-3040.000000
48,348.000000,-3080.000000
49,352.000000,-3080.000000
50,352.000000,-3080.000000
51,352.000000,-3080.000000
52,352.000000,-3080.000000
53,348.000000,-3080.000000
54,352.000000,-3080.000000
55,352.000000,-3080.000000
56,352.000000,-3080.000000
57,352.000000,-3040.000000
58,356.000000,-3080.000000
59,352.000000,-3080.000000
60,352.000000,-3080.000000
61,352.000000,-3080.000000
62,352.000000,-3040.000000
63,352.000000,-3080.000000
64,352.000000,-3080.000000
65,352.000000,-3080.000000
66,352.000000,-3080.000000
67,352.000000,-3080.000000
68,348.000000,-3080.000000
69,352.000000,-3080.000000
70,352.000000,-3080.000000
71,352.000000,-3080.000000
72,356.000000,-3080.000000
73,352.000000,-3080.000000
74,352.000000,-3080.000000
75,352.000000,-3080.000000
76,348.000000,-3080.000000
77,348.000000,-3080.000000
78,352.000000,-3080.000000
79,352.000000,-3080.000000
80,352.000000,-3080.000000
81,352.000000,-3080.000000
82,348.000000,-3080.000000
83,352.000000,-3080.000000
84,348.000000,-3080.000000
85,352.000000,-3080.000000
86,348.000000,-3080.000000
87,352.000000,-3080.000000
88,352.000000,-3080.000000
89,352.000000,-3080.000000
90,352.000000,-3080.000000
91,352.000000,-3080.000000
92,356.000000,-3080.000000
93,352.000000,-3080.000000
94,352.000000,-3080.000000
95,348.000000,-3080.000000
96,356.000000,-3080.000000
97,352.000000,-3080.000000
98,352.000000,-3080.000000
99,348.000000,-3080.000000
100,352.000000,-3080.000000
101,352.000000,-3080.000000
102,352.000000,-3080.000000
103,352.000000,-3080.000000
104,352.000000,-3080.000000
105,352.000000,-3080.000000
106,352.000000,-3080.000000
107,356.000000,-3080.000000
108,352.000000,-3080.000000
109,356.000000,-3080.000000
110,352.000000,-3080.000000
111,352.000000,-3080.000000
112,352.000000,-3080.000000
113,348.000000,-3080.000000
114,352.000000,-3080.000000
115,348.000000,-3080.000000
116,352.000000,-3080.000000
117,352.000000,-3080.000000
118,352.000000,-3080.000000
119,352.000000,-3080.000000
120,352.000000,-3080.000000
121,348.000000,-3080.000000
122,360.000000,-3040.000000
123,352.000000,-3120.000000
124,352.000000,-3080.000000
125,348.000000,-3080.000000
126,352.000000,-3080.000000
127,356.000000,-3080.000000
128,348.000000,-3080.000000
129,352.000000,-3080.000000
130,356.000000,-3080.000000
131,352.000000,-3080.000000
132,348.000000,-3080.000000
133,320.000000,-3080.000000
134,308.000000,-3080.000000
135,308.000000,-3080.000000
136,308.000000,-3080.000000
137,308.000000,-3080.000000
138,308.000000,-3080.000000
139,308.000000,-3080.000000
140,312.000000,-3080.000000
141,308.000000,-3080.000000
142,308.000000,-3080.000000
143,308.000000,-3080.000000
144,308.000000,-3080.000000
145,308.000000,-3080.000000
146,308.000000,-3080.000000
147,308.000000,-3080.000000
148,308.000000,-3080.000000
149,304.000000,-3080.000000
150,308.000000,-3080.000000
151,308.000000,-3080.000000
152,308.000000,-3080.000000
153,312.000000,-3080.000000
154,308.000000,-3080.000000
155,312.000000,-3120.000000
156,308.000000,-3080.000000
157,308.000000,-3080.000000
158,308.000000,-3080.000000
159,308.000000,-3080.000000
160,312.000000,-3080.000000
161,308.000000,-3080.000000
162,312.000000,-3080.000000
163,308.000000,-3080.000000
164,308.000000,-3080.000000
165,308.000000,-3080.000000
166,308.000000,-3080.000000
167,308.000000,-3080.000000
168,304.000000,-3080.000000
169,308.000000,-3080.000000
170,308.000000,-3080.000000
171,308.000000,-3080.000000
172,308.000000,-3040.000000
173,308.000000,-3080.000000
174,304.000000,-3080.000000
175,308.000000,-3080.000000
176,304.000000,-3080.000000
177,308.000000,-3080.000000
178,308.000000,-3080.000000
179,308.000000,-3080.000000
180,308.000000,-3080.000000
181,304.000000,-3080.000000
182,304.000000,-3120.000000
183,304.000000,-3080.000000
184,304.000000,-3080.000000
185,308.000000,-3080.000000
186,308.000000,-3080.000000
187,304.000000,-3080.000000
188,304.000000,-3080.000000
189,304.000000,-3080.000000
190,308.000000,-3040.000000
191,304.000000,-3080.000000
192,304.000000,-3080.000000
193,308.000000,-3080.000000
194,308.000000,-3080.000000
195,308.000000,-3080.000000
196,304.000000,-3040.000000
197,308.000000,-3080.000000
198,308.000000,-3080.000000
199,308.000000,-3080.000000
200,308.000000,-3120.000000
201,308.000000,-3080.000000
202,304.000000,-3080.000000
203,308.000000,-3040.000000
204,304.000000,-3080.000000
205,308.000000,-3080.000000
206,308.000000,-3080.000000
207,300.000000,-3080.000000
208,308.000000,-3080.000000
209,308.000000,-3080.000000
210,308.000000,-3080.000000
211,308.000000,-3080.000000
212,308.000000,-3080.000000
213,304.000000,-3080.000000
214,308.000000,-3080.000000
215,308.000000,-3120.000000
216,308.000000,-3080.000000
217,312.000000,-3080.000000
218,308.000000,-3080.000000
219,308.000000,-3040.000000
220,308.000000,-3080.000000
221,308.000000,-3120.000000
222,308.000000,-3080.000000
223,312.000000,-3080.000000
224,308.000000,-3080.000000
225,304.000000,-3080.000000
226,304.000000,-3080.000000
227,304.000000,-3080.000000
228,308.000000,-3040.000000
229,308.000000,-3080.000000
230,308.000000,-3080.000000
231,308.000000,-3080.000000
232,312.000000,-3080.000000
233,324.000000,-3120.000000
234,348.000000,-3080.000000
235,348.000000,-3080.000000
236,352.000000,-3080.000000
237,356.000000,-3080.000000
238,352.000000,-3080.000000
239,352.000000,-3080.000000
240,352.000000,-3080.000000
241,352.000000,-3080.000000
242,348.000000,-3080.000000
243,348.000000,-3080.000000
244,348.000000,-3080.000000
245,352.000000,-3080.000000
246,352.000000,-3080.000000
247,352.000000,-3080.000000
248,352.000000,-3080.000000
249,352.000000,-3080.000000
250,352.000000,-3080.000000
251,352.000000,-3080.000000
252,352.000000,-3080.000000
253,352.000000,-3080.000000
254,352.000000,-3080.000000
255,352.000000,-3080.000000
256,352.000000,-3080.000000
257,352.000000,-3080.000000
258,352.000000,-3080.000000
259,348.000000,-3080.000000
260,352.000000,-3080.000000
261,348.000000,-3080.000000
262,352.000000,-3040.000000
263,352.000000,-3040.000000
264,348.000000,-3080.000000
265,352.000000,-3080.000000
266,352.000000,-3080.000000
267,352.000000,-3080.000000
268,352.000000,-3080.000000
269,352.000000,-3080.000000
270,352.000000,-3080.000000
271,348.000000,-3080.000000
272,356.000000,-3080.000000
273,352.000000,-3080.000000
274,352.000000,-3080.000000
275,348.000000,-3080.000000
276,352.000000,-3080.000000
277,348.000000,-3080.000000
278,356.000000,-3080.000000
279,352.000000,-3080.000000
280,352.000000,-3080.000000
281,348.000000,-3080.000000
282,352.000000,-3080.000000
283,352.000000,-3080.000000
284,352.000000,-3080.000000
285,352.000000,-3080.000000
286,352.000000,-3080.000000
287,352.000000,-3080.000000
288,352.000000,-3080.000000
289,352.000000,-3080.000000
290,348.000000,-3040.000000
291,352.000000,-3080.000000
292,352.000000,-3080.000000
293,352.000000,-3080.000000
294,352.000000,-3080.000000
295,352.000000,-3080.000000
296,348.000000,-3080.000000
297,352.000000,-3080.000000
298,352.000000,-3080.000000
299,348.000000,-3080.000000
300,352.000000,-3080.000000
301,352.000000,-3080.000000
302,352.000000,-3080.000000
303,348.000000,-3080.000000
304,348.000000,-3080.000000
305,348.000000,-3080.000000
306,352.000000,-3080.000000
307,352.000000,-3080.000000
308,352.000000,-3120.000000
309,352.000000,-3080.000000
310,352.000000,-3080.000000
311,352.000000,-3080.000000
312,348.000000,-3080.000000
313,352.000000,-3080.000000
314,352.000000,-3080.000000
315,352.000000,-3080.000000
316,352.000000,-3080.000000
317,352.000000,-3120.000000
318,352.000000,-3080.000000
319,352.000000,-3080.000000
320,352.000000,-3080.000000
321,352.000000,-3080.000000
322,352.000000,-3040.000000
323,352.000000,-3080.000000
324,352.000000,-3080.000000
325,348.000000,-3080.000000
326,352.000000,-3080.000000
327,352.000000,-3080.000000
328,352.000000,-3080.000000
329,352.000000,-3080.000000
330,352.000000,-3080.000000
331,352.000000,-3080.000000
332,348.000000,-3080.000000
333,352.000000,-3080.000000
334,308.000000,-3080.000000
335,312.000000,-3080.000000
336,308.000000,-3080.000000
337,304.000000,-3080.000000
338,308.000000,-3120.000000
339,308.000000,-3040.000000
340,312.000000,-3080.000000
341,308.000000,-3080.000000
342,308.000000,-3080.000000
343,304.000000,-3080.000000
344,308.000000,-3080.000000
345,308.000000,-3080.000000
346,308.000000,-3080.000000
347,308.000000,-3080.000000
348,308.000000,-3080.000000
349,312.000000,-3080.000000
350,308.000000,-3080.000000
351,312.000000,-3080.000000
352,296.000000,-3080.000000
353,308.000000,-3080.000000
354,304.000000,-3080.000000
355,308.000000,-3080.000000
356,308.000000,-3080.000000
357,304.000000,-3080.000000
358,308.000000,-3080.000000
359,308.000000,-3080.000000
360,308.000000,-3080.000000
361,304.000000,-3080.000000
362,316.000000,-3080.000000
363,308.000000,-3080.000000
364,308.000000,-3080.000000
365,312.000000,-3080.000000
366,308.000000,-3080.000000
367,308.000000,-3080.000000
368,308.000000,-3080.000000
369,308.000000,-3080.000000
370,308.000000,-3040.000000
371,312.000000,-3080.000000
372,308.000000,-3040.000000
373,308.000000,-3080.000000
374,308.000000,-3080.000000
375,308.000000,-3080.000000
376,308.000000,-3080.000000
377,308.000000,-3080.000000
378,308.000000,-3080.000000
379,308.000000,-3080.000000
380,312.000000,-3080.000000
381,308.000000,-3080.000000
382,308.000000,-3080.000000
383,308.000000,-3080.000000
384,308.000000,-3080.000000
385,308.000000,-3080.000000
386,312.000000,-3080.000000
387,308.000000,-3080.000000
388,308.000000,-3080.000000
389,308.000000,-3080.000000
390,308.000000,-3080.000000
391,304.000000,-3080.000000
392,308.000000,-3080.000000
393,308.000000,-3080.000000
394,304.000000,-3120.000000
395,308.000000,-3080.000000
396,308.000000,-3080.000000
397,308.000000,-3080.000000
398,308.000000,-3080.000000
399,308.000000,-3080.000000
400,304.000000,-3080.000000
401,308.000000,-3080.000000
402,304.000000,-3080.000000
403,312.000000,-3080.000000
404,308.000000,-3080.000000
405,308.000000,-3080.000000
406,308.000000,-3080.000000
407,312.000000,-3080.000000
408,308.000000,-3080.000000
409,312.000000,-3080.000000
410,312.000000,-3080.000000
411,312.000000,-3080.000000
412,312.000000,-3080.000000
413,308.000000,-3080.000000
414,308.000000,-3080.000000
415,312.000000,-3080.000000
416,308.000000,-3080.000000
417,304.000000,-3080.000000
418,312.000000,-3080.000000
419,308.000000,-3080.000000
420,308.000000,-3080.000000
421,308.000000,-3080.000000
422,308.000000,-3080.000000
423,308.000000,-3080.000000
424,308.000000,-3080.000000
425,308.000000,-3080.000000
426,308.000000,-3080.000000
427,312.000000,-3080.000000
428,308.000000,-3080.000000
429,312.000000,-3080.000000
430,308.000000,-3080.000000
431,308.000000,-3080.000000
432,304.000000,-3080.000000
433,308.000000,-3080.000000
434,340.000000,-3080.000000
435,352.000000,-3080.000000
436,352.000000,-3080.000000
437,348.000000,-3080.000000
438,352.000000,-3040.000000
439,356.000000,-3080.000000
440,352.000000,-3040.000000
441,352.000000,-3080.000000
442,352.000000,-3080.000000
443,352.000000,-3080.000000
444,348.000000,-3080.000000
445,352.000000,-3080.000000
446,352.000000,-3080.000000
447,352.000000,-3080.000000
448,352.000000,-3080.000000
449,352.000000,-3080.000000
450,356.000000,-3080.000000
451,356.000000,-3080.000000
452,348.000000,-3080.000000
453,352.000000,-3080.000000
454,348.000000,-3080.000000
455,352.000000,-3040.000000
456,352.000000,-3080.000000
457,356.000000,-3080.000000
458,352.000000,-3080.000000
459,352.000000,-3080.000000
460,352.000000,-3080.000000
461,352.000000,-3080.000000
462,352.000000,-3080.000000
463,352.000000,-3080.000000
464,352.000000,-3080.000000
465,348.000000,-3080.000000
466,352.000000,-3040.000000
467,348.000000,-3040.000000
468,356.000000,-3080.000000
469,352.000000,-3080.000000
470,352.000000,-3080.000000
471,352.000000,-3080.000000
472,348.000000,-3080.000000
473,352.000000,-3080.000000
474,352.000000,-3080.000000
475,352.000000,-3080.000000
476,352.000000,-3080.000000
477,356.000000,-3080.000000
478,352.000000,-3080.000000
479,352.000000,-3080.000000
480,356.000000,-3080.000000
481,352.000000,-3080.000000
482,352.000000,-3080.000000
483,348.000000,-3080.000000
484,348.000000,-3080.000000
485,352.000000,-3080.000000
486,352.000000,-3040.000000
487,352.000000,-3040.000000
488,352.000000,-3080.000000
489,356.000000,-3080.000000
490,352.000000,-3080.000000
491,352.000000,-3080.000000
492,348.000000,-3080.000000
493,356.000000,-3080.000000
494,352.000000,-3080.000000
495,352.000000,-3080.000000
496,352.000000,-3080.000000
497,352.000000,-3080.000000
498,352.000000,-3040.000000
499,352.000000,-3080.000000
500,352.000000,-3080.000000
501,352.000000,-3080.000000
502,352.000000,-3040.000000
503,352.000000,-3080.000000
504,356.000000,-3080.000000
505,352.000000,-3080.000000
506,352.000000,-3080.000000
507,352.000000,-3080.000000
508,352.000000,-3080.000000
509,356.000000,-3080.000000
510,352.000000,-3080.000000
511,352.000000,-3080.000000
512,352.000000,-3080.000000
513,352.000000,-3080.000000
514,352.000000,-3080.000000
515,352.000000,-3040.000000
516,352.000000,-3080.000000
517,352.000000,-3080.000000
518,348.000000,-3080.000000
519,352.000000,-3040.000000
520,356.000000,-3080.000000
521,356.000000,-3080.000000
522,352.000000,-3120.000000
523,348.000000,-3080.000000
524,356.000000,-3080.000000
525,348.000000,-3080.000000
526,352.000000,-3080.000000
527,352.000000,-3080.000000
528,352.000000,-3080.000000
529,352.000000,-3080.000000
530,352.000000,-3080.000000
531,356.000000,-3080.000000
532,352.000000,-3080.000000
533,352.000000,-3080.000000
534,328.000000,-3080.000000
535,312.000000,-3080.000000
536,308.000000,-3080.000000
537,304.000000,-3080.000000
538,308.000000,-3080.000000
539,308.000000,-3040.000000
540,308.000000,-3080.000000
541,308.000000,-3080.000000
542,312.000000,-3080.000000
543,308.000000,-3080.000000
544,308.000000,-3080.000000
545,308.000000,-3080.000000
546,304.000000,-3080.000000
547,304.000000,-3080.000000
548,312.000000,-3040.000000
549,312.000000,-3080.000000
550,312.000000,-3080.000000
551,308.000000,-3080.000000
552,304.000000,-3080.000000
553,304.000000,-3080.000000
554,308.000000,-3080.000000
555,304.000000,-3080.000000
556,308.000000,-3080.000000
557,308.000000,-3080.000000
558,304.000000,-3080.000000
559,308.000000,-3040.000000
560,308.000000,-3080.000000
561,308.000000,-3040.000000
562,304.000000,-3080.000000
563,304.000000,-3080.000000
564,308.000000,-3080.000000
565,304.000000,-3080.000000
566,308.000000,-3080.000000
567,304.000000,-3080.000000
568,308.000000,-3040.000000
569,308.000000,-3080.000000
570,312.000000,-3080.000000
571,304.000000,-3080.000000
572,308.000000,-3080.000000
573,308.000000,-3080.000000
574,304.000000,-3080.000000
575,308.000000,-3080.000000
576,304.000000,-3080.000000
577,312.000000,-3080.000000
578,304.000000,-3120.000000
579,308.000000,-3080.000000
580,308.000000,-3080.000000
581,308.000000,-3080.000000
582,308.000000,-3080.000000
583,304.000000,-3080.000000
584,304.000000,-3080.000000
585,308.000000,-3080.000000
586,308.000000,-3080.000000
587,304.000000,-3080.000000
588,308.000000,-3080.000000
589,308.000000,-3080.000000
590,308.000000,-3080.000000
591,308.000000,-3080.000000
592,312.000000,-3080.000000
593,304.000000,-3080.000000
594,304.000000,-3080.000000
595,308.000000,-3080.000000
596,304.000000,-3080.000000
597,312.000000,-3080.000000
598,308.000000,-3080.000000
599,308.000000,-3080.000000
600,304.000000,-3080.000000
601,308.000000,-3080.000000
602,304.000000,-3080.000000
603,308.000000,-3080.000000
604,308.000000,-3080.000000
605,308.000000,-3080.000000
606,304.000000,-3080.000000
607,308.000000,-3080.000000
608,308.000000,-3080.000000
609,308.000000,-3080.000000
610,308.000000,-3080.000000
611,308.000000,-3080.000000
612,308.000000,-3080.000000
613,308.000000,-3080.000000
614,304.000000,-3040.000000
615,308.000000,-3080.000000
616,308.000000,-3080.000000
617,308.000000,-3080.000000
618,304.000000,-3080.000000
619,312.000000,-3080.000000
620,308.000000,-3080.000000
621,308.000000,-3080.000000
622,308.000000,-3080.000000
623,308.000000,-3080.000000
624,308.000000,-3080.000000
625,312.000000,-3080.000000
626,312.000000,-3080.000000
627,304.000000,-3080.000000
628,308.000000,-3080.000000
629,308.000000,-3080.000000
630,308.000000,-3080.000000
631,304.000000,-3080.000000
632,308.000000,-3040.000000
633,308.000000,-3080.000000
634,316.000000,-3080.000000
635,348.000000,-3080.000000
636,352.000000,-3080.000000
637,352.000000,-3080.000000
638,348.000000,-3080.000000
639,356.000000,-3040.000000
640,356.000000,-3080.000000
641,352.000000,-3080.000000
642,348.000000,-3040.000000
643,352.000000,-3040.000000
644,352.000000,-3080.000000
645,352.000000,-3120.000000
646,348.000000,-3080.000000
647,356.000000,-3080.000000
648,356.000000,-3080.000000
649,348.000000,-3080.000000
650,352.000000,-3080.000000
651,356.000000,-3080.000000
652,356.000000,-3080.000000
653,352.000000,-3120.000000
654,352.000000,-3080.000000
655,352.000000,-3080.000000
656,352.000000,-3080.000000
657,352.000000,-3080.000000
658,352.000000,-3080.000000
659,352.000000,-3040.000000
660,356.000000,-3080.000000
661,356.000000,-3040.000000
662,348.000000,-3080.000000
663,352.000000,-3080.000000
664,352.000000,-3080.000000
665,352.000000,-3080.000000
666,352.000000,-3080.000000
667,348.000000,-3040.000000
668,352.000000,-3080.000000
669,352.000000,-3040.000000
670,352.000000,-3080.000000
671,352.000000,-3080.000000
672,348.000000,-3080.000000
673,352.000000,-3040.000000
674,348.000000,-3080.000000
675,352.000000,-3080.000000
676,352.000000,-3080.000000
677,352.000000,-3080.000000
678,352.000000,-3080.000000
679,352.000000,-3080.000000
680,352.000000,-3080.000000
681,348.000000,-3080.000000
682,352.000000,-3080.000000
683,352.000000,-3080.000000
684,352.000000,-3080.000000
685,352.000000,-3080.000000
686,352.000000,-3080.000000
687,356.000000,-3080.000000
688,356.000000,-3080.000000
689,352.000000,-3080.000000
690,352.000000,-3080.000000
691,348.000000,-3080.000000
692,352.000000,-3080.000000
693,348.000000,-3080.000000
694,352.000000,-3080.000000
695,352.000000,-3080.000000
696,352.000000,-3080.000000
697,352.000000,-3080.000000
698,352.000000,-3040.000000
699,352.000000,-3080.000000
700,352.000000,-3080.000000
701,352.000000,-3080.000000
702,352.000000,-3040.000000
703,352.000000,-3080.000000
704,352.000000,-3080.000000
705,352.000000,-3080.000000
706,352.000000,-3080.000000
707,352.000000,-3080.000000
