repport_data/power_measurements_V2/data_27_005.csv

Channel              :,CH1,CH2
Frequency            :,  ?,  ?
Period               :,  ?,  ?
PK-PK                :,480.0mV,80.00mV
Probe attenuation    :,1X,1X
Voltage per ADC value:,0.250000mV,2.500000mV
Time interval        :,400.00000uS,400.00000uS

index,CH1_Voltage(mV),CH2_Voltage(mV)
1,-216.000000,-3080.000000
2,-216.000000,-3080.000000
3,-220.000000,-3080.000000
4,-220.000000,-3080.000000
5,-220.000000,-3080.000000
6,-220.000000,-3080.000000
7,-220.000000,-3080.000000
8,-220.000000,-3080.000000
9,-224.000000,-3080.000000
10,-220.000000,-3080.000000
11,-216.000000,-3120.000000
12,-220.000000,-3080.000000
13,-216.000000,-3080.000000
14,-224.000000,-3080.000000
15,-216.000000,-3080.000000
16,-220.000000,-3080.000000
17,-224.000000,-3080.000000
18,-220.000000,-3080.000000
19,-220.000000,-3080.000000
20,-224.000000,-3120.000000
21,-220.000000,-3120.000000
22,-220.000000,-3080.000000
23,-196.000000,-3080.000000
24,-20.000000,-3080.000000
25,-12.000000,-3080.000000
26,-88.000000,-3080.000000
27,-140.000000,-3080.000000
28,-164.000000,-3080.000000
29,-188.000000,-3120.000000
30,-200.000000,-3080.000000
31,-208.000000,-3080.000000
32,-212.000000,-3080.000000
33,-220.000000,-3080.000000
34,-216.000000,-3080.000000
35,-216.000000,-3080.000000
36,-220.000000,-3120.000000
37,-216.000000,-3080.000000
38,-216.000000,-3080.000000
39,-220.000000,-3080.000000
40,-220.000000,-3080.000000
41,-220.000000,-3080.000000
42,-220.000000,-3080.000000
43,-224.000000,-3120.000000
44,-220.000000,-3120.000000
45,-216.000000,-3080.000000
46,-220.000000,-3120.000000
47,-220.000000,-3080.000000
48,-220.000000,-3080.000000
49,-224.000000,-3080.000000
50,-220.000000,-3080.000000
51,-224.000000,-3120.000000
52,-216.000000,-3080.000000
53,-220.000000,-3080.000000
54,-220.000000,-3080.000000
55,-220.000000,-3080.000000
56,-220.000000,-3080.000000
57,-220.000000,-3080.000000
58,-220.000000,-3120.000000
59,-216.000000,-3120.000000
60,-216.000000,-3120.000000
61,-220.000000,-3080.000000
62,-80.000000,-3120.000000
63,32.000000,-3120.000000
64,-60.000000,-3080.000000
65,-120.000000,-3120.000000
66,-156.000000,-3080.000000
67,-180.000000,-3080.000000
68,-196.000000,-3120.000000
69,-204.000000,-3080.000000
70,-212.000000,-3080.000000
71,-212.000000,-3080.000000
72,-216.000000,-3080.000000
73,-220.000000,-3120.000000
74,-220.000000,-3080.000000
75,-224.000000,-3080.000000
76,-224.000000,-3120.000000
77,-220.000000,-3080.000000
78,-220.000000,-3080.000000
79,-220.000000,-3080.000000
80,-224.000000,-3080.000000
81,-216.000000,-3080.000000
82,-216.000000,-3080.000000
83,-224.000000,-3080.000000
84,-224.000000,-3080.000000
85,-224.000000,-3080.000000
86,-224.000000,-3080.000000
87,-220.000000,-3080.000000
88,-220.000000,-3080.000000
89,-216.000000,-3080.000000
90,-224.000000,-3080.000000
91,-224.000000,-3080.000000
92,-224.000000,-3080.000000
93,-220.000000,-3080.000000
94,-224.000000,-3080.000000
95,-224.000000,-3080.000000
96,-220.000000,-3080.000000
97,-220.000000,-3080.000000
98,-224.000000,-3080.000000
99,-220.000000,-3080.000000
100,-148.000000,-3120.000000
101,0.000000,-3080.000000
102,-28.000000,-3080.000000
103,-104.000000,-3080.000000
104,-144.000000,-3080.000000
105,-176.000000,-3120.000000
106,-192.000000,-3080.000000
107,-204.000000,-3120.000000
108,-212.000000,-3080.000000
109,-212.000000,-3080.000000
110,-220.000000,-3080.000000
111,-216.000000,-3080.000000
112,-220.000000,-3080.000000
113,-220.000000,-3080.000000
114,-228.000000,-3080.000000
115,-224.000000,-3080.000000
116,-224.000000,-3080.000000
117,-220.000000,-3080.000000
118,-220.000000,-3080.000000
119,-220.000000,-3080.000000
120,-220.000000,-3080.000000
121,-224.000000,-3080.000000
122,-220.000000,-3080.000000
123,-224.000000,-3080.000000
124,-224.000000,-3080.000000
125,-224.000000,-3080.000000
126,-220.000000,-3080.000000
127,-224.000000,-3080.000000
128,-220.000000,-3080.000000
129,-220.000000,-3080.000000
130,-224.000000,-3080.000000
131,-220.000000,-3080.000000
132,-220.000000,-3080.000000
133,-220.000000,-3080.000000
134,-224.000000,-3080.000000
135,-224.000000,-3120.000000
136,-228.000000,-3080.000000
137,-224.000000,-3080.000000
138,-224.000000,-3080.000000
139,-44.000000,-3120.000000
140,8.000000,-3080.000000
141,-76.000000,-3080.000000
142,-128.000000,-3080.000000
143,-164.000000,-3080.000000
144,-180.000000,-3080.000000
145,-196.000000,-3080.000000
146,-204.000000,-3080.000000
147,-212.000000,-3080.000000
148,-216.000000,-3080.000000
149,-220.000000,-3080.000000
150,-216.000000,-3120.000000
151,-220.000000,-3080.000000
152,-216.000000,-3080.000000
153,-220.000000,-3080.000000
154,-220.000000,-3080.000000
155,-220.000000,-3080.000000
156,-224.000000,-3080.000000
157,-220.000000,-3080.000000
158,-224.000000,-3080.000000
159,-220.000000,-3080.000000
160,-224.000000,-3080.000000
161,-220.000000,-3080.000000
162,-220.000000,-3080.000000
163,-220.000000,-3080.000000
164,-220.000000,-3040.000000
165,-220.000000,-3040.000000
166,-224.000000,-3080.000000
167,-220.000000,-3080.000000
168,-220.000000,-3080.000000
169,-224.000000,-3080.000000
170,-224.000000,-3080.000000
171,-224.000000,-3080.000000
172,-220.000000,-3080.000000
173,-220.000000,-3120.000000
174,-220.000000,-3120.000000
175,-220.000000,-3080.000000
176,-220.000000,-3080.000000
177,-116.000000,-3080.000000
178,-160.000000,-3120.000000
179,-184.000000,-3080.000000
180,-192.000000,-3120.000000
181,-208.000000,-3080.000000
182,-212.000000,-3080.000000
183,-212.000000,-3080.000000
184,-216.000000,-3080.000000
185,-216.000000,-3080.000000
186,-216.000000,-3080.000000
187,-200.000000,-3080.000000
188,-204.000000,-3080.000000
189,-212.000000,-3080.000000
190,-212.000000,-3080.000000
191,-216.000000,-3080.000000
192,-220.000000,-3080.000000
193,-220.000000,-3080.000000
194,-216.000000,-3080.000000
195,-220.000000,-3080.000000
196,-220.000000,-3080.000000
197,-220.000000,-3080.000000
198,-224.000000,-3080.000000
199,-216.000000,-3080.000000
200,-220.000000,-3080.000000
201,-136.000000,-3080.000000
202,-16.000000,-3120.000000
203,48.000000,-3080.000000
204,88.000000,-3080.000000
205,116.000000,-3080.000000
206,132.000000,-3080.000000
207,144.000000,-3080.000000
208,148.000000,-3080.000000
209,152.000000,-3040.000000
210,156.000000,-3080.000000
211,156.000000,-3080.000000
212,156.000000,-3080.000000
213,156.000000,-3080.000000
214,156.000000,-3080.000000
215,160.000000,-3080.000000
216,156.000000,-3080.000000
217,160.000000,-3080.000000
218,160.000000,-3080.000000
219,160.000000,-3080.000000
220,156.000000,-3080.000000
221,156.000000,-3080.000000
222,160.000000,-3080.000000
223,160.000000,-3080.000000
224,160.000000,-3080.000000
225,160.000000,-3080.000000
226,160.000000,-3080.000000
227,164.000000,-3080.000000
228,156.000000,-3080.000000
229,156.000000,-3080.000000
230,160.000000,-3080.000000
231,160.000000,-3080.000000
232,160.000000,-3080.000000
233,156.000000,-3080.000000
234,160.000000,-3080.000000
235,164.000000,-3080.000000
236,160.000000,-3080.000000
237,104.000000,-3120.000000
238,-4.000000,-3080.000000
239,-84.000000,-3120.000000
240,-128.000000,-3080.000000
241,-160.000000,-3080.000000
242,-176.000000,-3080.000000
243,-184.000000,-3080.000000
244,-196.000000,-3080.000000
245,-204.000000,-3080.000000
246,-204.000000,-3080.000000
247,-208.000000,-3080.000000
248,-208.000000,-3080.000000
249,-212.000000,-3080.000000
250,-212.000000,-3080.000000
251,-208.000000,-3080.000000
252,-212.000000,-3080.000000
253,-212.000000,-3120.000000
254,-212.000000,-3080.000000
255,-208.000000,-3080.000000
256,-212.000000,-3080.000000
257,-208.000000,-3080.000000
258,-212.000000,-3080.000000
259,-208.000000,-3120.000000
260,-212.000000,-3080.000000
261,-212.000000,-3080.000000
262,-208.000000,-3080.000000
263,-208.000000,-3120.000000
264,-208.000000,-3080.000000
265,-212.000000,-3080.000000
266,-208.000000,-3080.000000
267,-212.000000,-3120.000000
268,-212.000000,-3080.000000
269,-216.000000,-3080.000000
270,-212.000000,-3080.000000
271,-212.000000,-3080.000000
272,-212.000000,-3080.000000
273,-212.000000,-3080.000000
274,-212.000000,-3120.000000
275,-212.000000,-3080.000000
276,-212.000000,-3120.000000
277,-212.000000,-3080.000000
278,-212.000000,-3120.000000
279,-212.000000,-3080.000000
280,-212.000000,-3080.000000
281,-208.000000,-3080.000000
282,-212.000000,-3080.000000
283,-216.000000,-3080.000000
284,-216.000000,-3080.000000
285,-208.000000,-3080.000000
286,-212.000000,-3080.000000
287,-212.000000,-3080.000000
288,-208.000000,-3080.000000
289,-208.000000,-3080.000000
290,-208.000000,-3080.000000
291,-212.000000,-3080.000000
292,-208.000000,-3080.000000
293,-208.000000,-3080.000000
294,-216.000000,-3080.000000
295,-212.000000,-3120.000000
296,-216.000000,-3040.000000
297,-212.000000,-3080.000000
298,-212.000000,-3080.000000
299,-212.000000,-3080.000000
300,-212.000000,-3080.000000
301,-212.000000,-3120.000000
302,-212.000000,-3080.000000
303,-212.000000,-3080.000000
304,-212.000000,-3080.000000
305,-212.000000,-3080.000000
306,-212.000000,-3080.000000
307,-212.000000,-3080.000000
308,-212.000000,-3080.000000
309,-212.000000,-3080.000000
310,-212.000000,-3080.000000
311,-212.000000,-3080.000000
312,-208.000000,-3080.000000
313,-212.000000,-3080.000000
314,-212.000000,-3080.000000
315,-212.000000,-3080.000000
316,-212.000000,-3080.000000
317,-212.000000,-3080.000000
318,-212.000000,-3080.000000
319,-212.000000,-3080.000000
320,-208.000000,-3080.000000
321,-208.000000,-3080.000000
322,-208.000000,-3080.000000
323,-212.000000,-3080.000000
324,-212.000000,-3080.000000
325,-216.000000,-3080.000000
326,-212.000000,-3080.000000
327,-212.000000,-3080.000000
328,-212.000000,-3080.000000
329,-212.000000,-3080.000000
330,-212.000000,-3080.000000
331,-208.000000,-3080.000000
332,-212.000000,-3080.000000
333,-216.000000,-3080.000000
334,-212.000000,-3120.000000
335,-216.000000,-3080.000000
336,-220.000000,-3080.000000
337,-212.000000,-3080.000000
338,-212.000000,-3080.000000
339,-216.000000,-3080.000000
340,-212.000000,-3040.000000
341,-212.000000,-3080.000000
342,-212.000000,-3120.000000
343,-208.000000,-3080.000000
344,-212.000000,-3080.000000
345,-208.000000,-3080.000000
346,-208.000000,-3080.000000
347,-212.000000,-3120.000000
348,-212.000000,-3080.000000
349,-212.000000,-3080.000000
350,-208.000000,-3080.000000
351,-212.000000,-3080.000000
352,-212.000000,-3080.000000
353,-212.000000,-3080.000000
354,-216.000000,-3080.000000
355,-216.000000,-3080.000000
356,-212.000000,-3080.000000
357,-212.000000,-3080.000000
358,-216.000000,-3080.000000
359,-216.000000,-3080.000000
360,-212.000000,-3080.000000
361,-212.000000,-3080.000000
362,-196.000000,-3080.000000
363,-60.000000,-3080.000000
364,44.000000,-3080.000000
365,132.000000,-3080.000000
366,152.000000,-3080.000000
367,168.000000,-3080.000000
368,120.000000,-3080.000000
369,-4.000000,-3080.000000
370,-72.000000,-3080.000000
371,-128.000000,-3080.000000
372,-160.000000,-3080.000000
373,-176.000000,-3080.000000
374,-188.000000,-3080.000000
375,-196.000000,-3080.000000
376,-204.000000,-3080.000000
377,-204.000000,-3080.000000
378,-208.000000,-3080.000000
379,-208.000000,-3080.000000
380,-212.000000,-3080.000000
381,-204.000000,-3080.000000
382,-208.000000,-3080.000000
383,-212.000000,-3080.000000
384,-212.000000,-3080.000000
385,-212.000000,-3080.000000
386,-212.000000,-3080.000000
387,-216.000000,-3080.000000
388,-212.000000,-3080.000000
389,-212.000000,-3080.000000
390,-212.000000,-3080.000000
391,-212.000000,-3080.000000
392,-212.000000,-3080.000000
393,-212.000000,-3080.000000
394,-212.000000,-3080.000000
395,-212.000000,-3080.000000
396,-212.000000,-3080.000000
397,-212.000000,-3080.000000
398,-212.000000,-3080.000000
399,-212.000000,-3080.000000
400,-212.000000,-3080.000000
401,-216.000000,-3080.000000
402,-208.000000,-3080.000000
403,-212.000000,-3080.000000
404,-212.000000,-3080.000000
405,-212.000000,-3080.000000
406,-208.000000,-3080.000000
407,-212.000000,-3080.000000
408,-212.000000,-3080.000000
409,-212.000000,-3080.000000
410,-212.000000,-3080.000000
411,-212.000000,-3080.000000
412,-212.000000,-3080.000000
413,-216.000000,-3120.000000
414,-212.000000,-3080.000000
415,-208.000000,-3080.000000
416,-212.000000,-3080.000000
417,-212.000000,-3080.000000
418,-212.000000,-3080.000000
419,-212.000000,-3080.000000
420,-216.000000,-3080.000000
421,-212.000000,-3080.000000
422,-208.000000,-3080.000000
423,-212.000000,-3080.000000
424,-212.000000,-3080.000000
425,-212.000000,-3080.000000
426,-212.000000,-3080.000000
427,-212.000000,-3080.000000
428,-212.000000,-3080.000000
429,-212.000000,-3080.000000
430,-216.000000,-3080.000000
431,-208.000000,-3080.000000
432,-212.000000,-3080.000000
433,-216.000000,-3080.000000
434,-212.000000,-3080.000000
435,-212.000000,-3080.000000
436,-208.000000,-3080.000000
437,-216.000000,-3080.000000
438,-212.000000,-3080.000000
439,-216.000000,-3080.000000
440,-208.000000,-3080.000000
441,-212.000000,-3080.000000
442,-208.000000,-3080.000000
443,-216.000000,-3080.000000
444,-208.000000,-3080.000000
445,-212.000000,-3080.000000
446,-212.000000,-3080.000000
447,-208.000000,-3080.000000
448,-208.000000,-3080.000000
449,-216.000000,-3080.000000
450,-208.000000,-3080.000000
451,-208.000000,-3080.000000
452,-212.000000,-3080.000000
453,-212.000000,-3080.000000
454,-212.000000,-3080.000000
455,-208.000000,-3080.000000
456,-212.000000,-3080.000000
457,-208.000000,-3080.000000
458,-212.000000,-3080.000000
459,-212.000000,-3120.000000
460,-208.000000,-3080.000000
461,-212.000000,-3080.000000
462,-212.000000,-3080.000000
463,-204.000000,-3120.000000
464,-208.000000,-3080.000000
465,-212.000000,-3120.000000
466,-208.000000,-3080.000000
467,-212.000000,-3080.000000
468,-212.000000,-3080.000000
469,-212.000000,-3080.000000
470,-208.000000,-3080.000000
471,-212.000000,-3080.000000
472,-216.000000,-3080.000000
473,-212.000000,-3080.000000
474,-212.000000,-3080.000000
475,-208.000000,-3080.000000
476,-212.000000,-3080.000000
477,-212.000000,-3080.000000
478,-212.000000,-3080.000000
479,-212.000000,-3080.000000
480,-216.000000,-3120.000000
481,-208.000000,-3080.000000
482,-212.000000,-3080.000000
483,-208.000000,-3080.000000
484,-216.000000,-3080.000000
485,-208.000000,-3080.000000
486,-208.000000,-3080.000000
487,-208.000000,-3080.000000
488,-100.000000,-3080.000000
489,20.000000,-3080.000000
490,120.000000,-3080.000000
491,152.000000,-3080.000000
492,172.000000,-3080.000000
493,160.000000,-3080.000000
494,40.000000,-3080.000000
495,-48.000000,-3080.000000
496,-104.000000,-3080.000000
497,-144.000000,-3080.000000
498,-164.000000,-3080.000000
499,-188.000000,-3080.000000
500,-196.000000,-3080.000000
501,-196.000000,-3080.000000
502,-204.000000,-3080.000000
503,-208.000000,-3080.000000
504,-212.000000,-3080.000000
505,-208.000000,-3080.000000
506,-212.000000,-3080.000000
507,-208.000000,-3080.000000
508,-212.000000,-3080.000000
509,-208.000000,-3080.000000
510,-212.000000,-3120.000000
511,-208.000000,-3080.000000
512,-208.000000,-3080.000000
513,-208.000000,-3080.000000
514,-208.000000,-3080.000000
515,-212.000000,-3080.000000
516,-212.000000,-3080.000000
517,-208.000000,-3080.000000
518,-216.000000,-3080.000000
519,-212.000000,-3080.000000
520,-212.000000,-3080.000000
521,-208.000000,-3080.000000
522,-212.000000,-3080.000000
523,-212.000000,-3080.000000
524,-212.000000,-3080.000000
525,-208.000000,-3080.000000
526,-212.000000,-3080.000000
527,-212.000000,-3080.000000
528,-212.000000,-3080.000000
529,-212.000000,-3080.000000
530,-212.000000,-3080.000000
531,-216.000000,-3080.000000
532,-212.000000,-3120.000000
533,-212.000000,-3080.000000
534,-212.000000,-3120.000000
535,-212.000000,-3080.000000
536,-216.000000,-3120.000000
537,-208.000000,-3080.000000
538,-212.000000,-3080.000000
539,-216.000000,-3080.000000
540,-208.000000,-3080.000000
541,-216.000000,-3080.000000
542,-208.000000,-3080.000000
543,-216.000000,-3080.000000
544,-212.000000,-3080.000000
545,-212.000000,-3080.000000
546,-208.000000,-3080.000000
547,-212.000000,-3120.000000
548,-212.000000,-3080.000000
549,-208.000000,-3080.000000
550,-212.000000,-3080.000000
551,-216.000000,-3080.000000
552,-212.000000,-3080.000000
553,-212.000000,-3080.000000
554,-212.000000,-3080.000000
555,-208.000000,-3120.000000
556,-212.000000,-3080.000000
557,-208.000000,-3080.000000
558,-212.000000,-3080.000000
559,-212.000000,-3080.000000
560,-208.000000,-3080.000000
561,-216.000000,-3080.000000
562,-208.000000,-3080.000000
563,-212.000000,-3120.000000
564,-212.000000,-3120.000000
565,-216.000000,-3080.000000
566,-212.000000,-3040.000000
567,-212.000000,-3080.000000
568,-216.000000,-3080.000000
569,-216.000000,-3080.000000
570,-212.000000,-3080.000000
571,-216.000000,-3120.000000
572,-212.000000,-3080.000000
573,-212.000000,-3080.000000
574,-212.000000,-3080.000000
575,-208.000000,-3080.000000
576,-216.000000,-3080.000000
577,-212.000000,-3080.000000
578,-216.000000,-3080.000000
579,-212.000000,-3080.000000
580,-212.000000,-3080.000000
581,-208.000000,-3080.000000
582,-216.000000,-3080.000000
583,-212.000000,-3080.000000
584,-212.000000,-3080.000000
585,-216.000000,-3120.000000
586,-212.000000,-3080.000000
587,-216.000000,-3080.000000
588,-212.000000,-3080.000000
589,-216.000000,-3080.000000
590,-212.000000,-3080.000000
591,-220.000000,-3080.000000
592,-208.000000,-3080.000000
593,-208.000000,-3080.000000
594,-208.000000,-3080.000000
595,-212.000000,-3080.000000
596,-208.000000,-3080.000000
597,-208.000000,-3080.000000
598,-212.000000,-3120.000000
599,-212.000000,-3080.000000
600,-216.000000,-3080.000000
601,-208.000000,-3080.000000
602,-212.000000,-3080.000000
603,-212.000000,-3080.000000
604,-208.000000,-3080.000000
605,-212.000000,-3080.000000
606,-212.000000,-3080.000000
607,-216.000000,-3080.000000
608,-216.000000,-3120.000000
609,-204.000000,-3080.000000
610,-212.000000,-3080.000000
611,-212.000000,-3080.000000
612,-212.000000,-3080.000000
613,-160.000000,-3080.000000
614,-20.000000,-3080.000000
615,80.000000,-3120.000000
616,144.000000,-3080.000000
617,164.000000,-3080.000000
618,168.000000,-3080.000000
619,84.000000,-3080.000000
620,-16.000000,-3080.000000
621,-88.000000,-3080.000000
622,-136.000000,-3080.000000
623,-160.000000,-3080.000000
624,-180.000000,-3080.000000
625,-188.000000,-3080.000000
626,-196.000000,-3080.000000
627,-204.000000,-3080.000000
628,-204.000000,-3080.000000
629,-208.000000,-3120.000000
630,-208.000000,-3080.000000
631,-212.000000,-3080.000000
632,-212.000000,-3080.000000
633,-208.000000,-3080.000000
634,-208.000000,-3080.000000
635,-212.000000,-3120.000000
636,-212.000000,-3120.000000
637,-208.000000,-3120.000000
638,-208.000000,-3080.000000
639,-208.000000,-3120.000000
640,-208.000000,-3080.000000
641,-208.000000,-3080.000000
642,-208.000000,-3120.000000
643,-212.000000,-3120.000000
644,-212.000000,-3080.000000
645,-212.000000,-3080.000000
646,-208.000000,-3080.000000
647,-212.000000,-3080.000000
648,-212.000000,-3080.000000
649,-212.000000,-3080.000000
650,-208.000000,-3080.000000
651,-212.000000,-3080.000000
652,-212.000000,-3080.000000
653,-212.000000,-3080.000000
654,-212.000000,-3080.000000
655,-212.000000,-3080.000000
656,-212.000000,-3080.000000
657,-212.000000,-3080.000000
658,-216.000000,-3080.000000
659,-212.000000,-3080.000000
660,-204.000000,-3080.000000
661,-212.000000,-3080.000000
662,-208.000000,-3080.000000
663,-212.000000,-3080.000000
664,-208.000000,-3080.000000
665,-212.000000,-3080.000000
666,-212.000000,-3080.000000
667,-212.000000,-3080.000000
668,-208.000000,-3080.000000
669,-212.000000,-3080.000000
670,-212.000000,-3080.000000
671,-208.000000,-3120.000000
672,-212.000000,-3080.000000
673,-208.000000,-3120.000000
674,-212.000000,-3080.000000
675,-212.000000,-3080.000000
676,-212.000000,-3080.000000
677,-212.000000,-3080.000000
678,-212.000000,-3120.000000
679,-208.000000,-3080.000000
680,-212.000000,-3080.000000
681,-208.000000,-3120.000000
682,-212.000000,-3080.000000
683,-212.000000,-3120.000000
684,-212.000000,-3120.000000
685,-212.000000,-3080.000000
686,-208.000000,-3080.000000
