repport_data/power_measurements_V2/data_27_007.csv

Channel              :,CH1,CH2
Frequency            :,  ?,  ?
Period               :,  ?,  ?
PK-PK                :,456.0mV,80.00mV
Probe attenuation    :,1X,1X
Voltage per ADC value:,0.250000mV,2.500000mV
Time interval        :,2000.00000uS,2000.00000uS

index,CH1_Voltage(mV),CH2_Voltage(mV)
1,-184.000000,-3080.000000
2,-184.000000,-3080.000000
3,-180.000000,-3080.000000
4,-180.000000,-3080.000000
5,-184.000000,-3080.000000
6,-180.000000,-3080.000000
7,-180.000000,-3120.000000
8,-176.000000,-3080.000000
9,-180.000000,-3080.000000
10,-180.000000,-3080.000000
11,-176.000000,-3080.000000
12,-180.000000,-3080.000000
13,-180.000000,-3080.000000
14,-172.000000,-3080.000000
15,-176.000000,-3080.000000
16,-180.000000,-3080.000000
17,180.000000,-3080.000000
18,-68.000000,-3080.000000
19,-168.000000,-3040.000000
20,-172.000000,-3120.000000
21,-180.000000,-3080.000000
22,-180.000000,-3080.000000
23,-184.000000,-3120.000000
24,-180.000000,-3080.000000
25,-180.000000,-3120.000000
26,-184.000000,-3080.000000
27,-180.000000,-3080.000000
28,-176.000000,-3080.000000
29,-176.000000,-3080.000000
30,-180.000000,-3080.000000
31,-180.000000,-3080.000000
32,-176.000000,-3080.000000
33,-180.000000,-3080.000000
34,-176.000000,-3080.000000
35,-176.000000,-3080.000000
36,-180.000000,-3080.000000
37,-176.000000,-3080.000000
38,-180.000000,-3080.000000
39,-180.000000,-3080.000000
40,-184.000000,-3080.000000
41,-180.000000,-3080.000000
42,156.000000,-3080.000000
43,-40.000000,-3080.000000
44,-164.000000,-3080.000000
45,-180.000000,-3040.000000
46,-184.000000,-3080.000000
47,-176.000000,-3080.000000
48,-176.000000,-3080.000000
49,-180.000000,-3080.000000
50,-184.000000,-3080.000000
51,-180.000000,-3080.000000
52,-180.000000,-3080.000000
53,-180.000000,-3080.000000
54,-180.000000,-3080.000000
55,-180.000000,-3080.000000
56,-184.000000,-3080.000000
57,-180.000000,-3080.000000
58,-180.000000,-3080.000000
59,-180.000000,-3080.000000
60,-180.000000,-3080.000000
61,-172.000000,-3080.000000
62,-180.000000,-3080.000000
63,-172.000000,-3080.000000
64,-176.000000,-3080.000000
65,-180.000000,-3080.000000
66,-180.000000,-3080.000000
67,128.000000,-3080.000000
68,-8.000000,-3080.000000
69,-160.000000,-3080.000000
70,-176.000000,-3080.000000
71,-176.000000,-3080.000000
72,-176.000000,-3080.000000
73,-176.000000,-3080.000000
74,-180.000000,-3080.000000
75,-176.000000,-3080.000000
76,-176.000000,-3080.000000
77,-180.000000,-3080.000000
78,-180.000000,-3080.000000
79,-180.000000,-3080.000000
80,-176.000000,-3080.000000
81,-180.000000,-3080.000000
82,-176.000000,-3080.000000
83,-176.000000,-3080.000000
84,-180.000000,-3080.000000
85,-180.000000,-3080.000000
86,-184.000000,-3080.000000
87,-180.000000,-3080.000000
88,-180.000000,-3080.000000
89,-176.000000,-3080.000000
90,-176.000000,-3080.000000
91,-184.000000,-3080.000000
92,80.000000,-3040.000000
93,28.000000,-3080.000000
94,-152.000000,-3080.000000
95,-172.000000,-3080.000000
96,-180.000000,-3080.000000
97,-180.000000,-3080.000000
98,-180.000000,-3080.000000
99,-180.000000,-3080.000000
100,-176.000000,-3080.000000
101,-180.000000,-3080.000000
102,-180.000000,-3080.000000
103,-180.000000,-3080.000000
104,-184.000000,-3040.000000
105,-184.000000,-3080.000000
106,-180.000000,-3080.000000
107,-180.000000,-3080.000000
108,-176.000000,-3080.000000
109,-176.000000,-3080.000000
110,-180.000000,-3080.000000
111,-180.000000,-3080.000000
112,-172.000000,-3080.000000
113,-180.000000,-3080.000000
114,-184.000000,-3080.000000
115,-180.000000,-3080.000000
116,-180.000000,-3080.000000
117,52.000000,-3080.000000
118,68.000000,-3080.000000
119,-152.000000,-3080.000000
120,-172.000000,-3080.000000
121,-176.000000,-3080.000000
122,-180.000000,-3080.000000
123,-180.000000,-3080.000000
124,-176.000000,-3080.000000
125,-180.000000,-3080.000000
126,-180.000000,-3080.000000
127,-184.000000,-3080.000000
128,-184.000000,-3080.000000
129,-180.000000,-3080.000000
130,-180.000000,-3080.000000
131,-180.000000,-3080.000000
132,-176.000000,-3080.000000
133,-176.000000,-3080.000000
134,-176.000000,-3080.000000
135,-180.000000,-3080.000000
136,-180.000000,-3080.000000
137,-180.000000,-3120.000000
138,-180.000000,-3040.000000
139,-176.000000,-3120.000000
140,-172.000000,-3080.000000
141,-180.000000,-3080.000000
142,-4.000000,-3120.000000
143,128.000000,-3080.000000
144,-144.000000,-3080.000000
145,-180.000000,-3080.000000
146,-180.000000,-3080.000000
147,-180.000000,-3120.000000
148,-180.000000,-3080.000000
149,-180.000000,-3080.000000
150,-176.000000,-3080.000000
151,-180.000000,-3080.000000
152,-180.000000,-3080.000000
153,-180.000000,-3080.000000
154,-176.000000,-3080.000000
155,-180.000000,-3080.000000
156,-180.000000,-3080.000000
157,-184.000000,-3080.000000
158,-168.000000,-3080.000000
159,-180.000000,-3080.000000
160,-180.000000,-3080.000000
161,-176.000000,-3080.000000
162,-176.000000,-3120.000000
163,-172.000000,-3080.000000
164,-180.000000,-3080.000000
165,-180.000000,-3080.000000
166,-180.000000,-3080.000000
167,-56.000000,-3120.000000
168,184.000000,-3080.000000
169,-140.000000,-3120.000000
170,-168.000000,-3080.000000
171,-176.000000,-3040.000000
172,-176.000000,-3080.000000
173,-180.000000,-3080.000000
174,-180.000000,-3080.000000
175,-176.000000,-3080.000000
176,-180.000000,-3080.000000
177,-184.000000,-3080.000000
178,-180.000000,-3080.000000
179,-180.000000,-3080.000000
180,-180.000000,-3120.000000
181,-176.000000,-3080.000000
182,-180.000000,-3120.000000
183,-180.000000,-3080.000000
184,-180.000000,-3080.000000
185,-176.000000,-3080.000000
186,-180.000000,-3080.000000
187,-176.000000,-3120.000000
188,-176.000000,-3120.000000
189,-176.000000,-3080.000000
190,-180.000000,-3080.000000
191,-176.000000,-3080.000000
192,-112.000000,-3080.000000
193,192.000000,-3080.000000
194,-132.000000,-3080.000000
195,-172.000000,-3080.000000
196,-180.000000,-3080.000000
197,-172.000000,-3080.000000
198,-176.000000,-3080.000000
199,-180.000000,-3120.000000
200,-184.000000,-3080.000000
201,-176.000000,-3080.000000
202,-180.000000,-3040.000000
203,-180.000000,-3040.000000
204,-176.000000,-3080.000000
205,-184.000000,-3080.000000
206,-180.000000,-3080.000000
207,-180.000000,-3080.000000
208,-180.000000,-3080.000000
209,-180.000000,-3080.000000
210,-172.000000,-3080.000000
211,-176.000000,-3080.000000
212,-180.000000,-3080.000000
213,-180.000000,-3080.000000
214,-168.000000,-3080.000000
215,-180.000000,-3080.000000
216,-180.000000,-3080.000000
217,-176.000000,-3080.000000
218,200.000000,-3080.000000
219,-120.000000,-3080.000000
220,-168.000000,-3080.000000
221,-180.000000,-3080.000000
222,-184.000000,-3080.000000
223,-172.000000,-3080.000000
224,-180.000000,-3080.000000
225,-184.000000,-3080.000000
226,-184.000000,-3080.000000
227,-180.000000,-3080.000000
228,-176.000000,-3080.000000
229,-176.000000,-3080.000000
230,-176.000000,-3080.000000
231,-176.000000,-3080.000000
232,-180.000000,-3080.000000
233,-184.000000,-3080.000000
234,-176.000000,-3080.000000
235,-180.000000,-3120.000000
236,-180.000000,-3080.000000
237,-180.000000,-3080.000000
238,-184.000000,-3080.000000
239,-180.000000,-3080.000000
240,-180.000000,-3120.000000
241,-176.000000,-3080.000000
242,-176.000000,-3080.000000
243,192.000000,-3080.000000
244,-108.000000,-3120.000000
245,-172.000000,-3080.000000
246,-184.000000,-3080.000000
247,-176.000000,-3080.000000
248,-180.000000,-3080.000000
249,-180.000000,-3080.000000
250,-180.000000,-3080.000000
251,-184.000000,-3080.000000
252,-180.000000,-3120.000000
253,-180.000000,-3080.000000
254,-180.000000,-3120.000000
255,-180.000000,-3080.000000
256,-176.000000,-3080.000000
257,-180.000000,-3120.000000
258,-180.000000,-3080.000000
259,-180.000000,-3080.000000
260,-180.000000,-3080.000000
261,-180.000000,-3080.000000
262,-176.000000,-3080.000000
263,-172.000000,-3080.000000
264,-180.000000,-3080.000000
265,-176.000000,-3080.000000
266,-180.000000,-3120.000000
267,-184.000000,-3080.000000
268,188.000000,-3080.000000
269,-92.000000,-3080.000000
270,-172.000000,-3080.000000
271,-180.000000,-3080.000000
272,-180.000000,-3080.000000
273,-176.000000,-3080.000000
274,-180.000000,-3080.000000
275,-180.000000,-3080.000000
276,-176.000000,-3080.000000
277,-180.000000,-3080.000000
278,-176.000000,-3080.000000
279,-184.000000,-3080.000000
280,-176.000000,-3080.000000
281,-180.000000,-3080.000000
282,-180.000000,-3080.000000
283,-176.000000,-3080.000000
284,-184.000000,-3080.000000
285,-180.000000,-3080.000000
286,-176.000000,-3080.000000
287,-180.000000,-3080.000000
288,-184.000000,-3080.000000
289,-180.000000,-3080.000000
290,-184.000000,-3120.000000
291,-180.000000,-3080.000000
292,-176.000000,-3040.000000
293,176.000000,-3080.000000
294,-72.000000,-3080.000000
295,-164.000000,-3080.000000
296,-180.000000,-3080.000000
297,-180.000000,-3080.000000
298,-180.000000,-3080.000000
299,-172.000000,-3080.000000
300,-180.000000,-3080.000000
301,-180.000000,-3040.000000
302,-184.000000,-3080.000000
303,-184.000000,-3080.000000
304,-184.000000,-3080.000000
305,-184.000000,-3080.000000
306,-184.000000,-3080.000000
307,-176.000000,-3080.000000
308,-180.000000,-3080.000000
309,-176.000000,-3080.000000
310,-176.000000,-3080.000000
311,-180.000000,-3080.000000
312,-180.000000,-3080.000000
313,-180.000000,-3080.000000
314,-184.000000,-3080.000000
315,-184.000000,-3080.000000
316,-184.000000,-3080.000000
317,-176.000000,-3080.000000
318,172.000000,-3080.000000
319,-56.000000,-3080.000000
320,-168.000000,-3080.000000
321,-176.000000,-3080.000000
322,-184.000000,-3080.000000
323,-180.000000,-3080.000000
324,-180.000000,-3080.000000
325,-180.000000,-3120.000000
326,-180.000000,-3080.000000
327,-184.000000,-3080.000000
328,-180.000000,-3080.000000
329,-180.000000,-3080.000000
330,-180.000000,-3080.000000
331,-180.000000,-3120.000000
332,-180.000000,-3080.000000
333,-176.000000,-3080.000000
334,-184.000000,-3080.000000
335,-180.000000,-3080.000000
336,-180.000000,-3080.000000
337,-184.000000,-3080.000000
338,-180.000000,-3080.000000
339,-180.000000,-3080.000000
340,-176.000000,-3080.000000
341,-180.000000,-3080.000000
342,-176.000000,-3080.000000
343,148.000000,-3080.000000
344,204.000000,-3080.000000
345,244.000000,-3040.000000
346,260.000000,-3080.000000
347,256.000000,-3080.000000
348,256.000000,-3080.000000
349,256.000000,-3080.000000
350,256.000000,-3080.000000
351,256.000000,-3080.000000
352,256.000000,-3080.000000
353,252.000000,-3080.000000
354,256.000000,-3080.000000
355,252.000000,-3040.000000
356,256.000000,-3120.000000
357,248.000000,-3080.000000
358,260.000000,-3080.000000
359,260.000000,-3080.000000
360,252.000000,-3040.000000
361,252.000000,-3080.000000
362,252.000000,-3080.000000
363,248.000000,-3080.000000
364,164.000000,-3080.000000
365,164.000000,-3080.000000
366,168.000000,-3080.000000
367,168.000000,-3080.000000
368,160.000000,-3080.000000
369,152.000000,-3080.000000
370,164.000000,-3080.000000
371,168.000000,-3080.000000
372,164.000000,-3080.000000
373,164.000000,-3080.000000
374,164.000000,-3080.000000
375,164.000000,-3080.000000
376,160.000000,-3040.000000
377,152.000000,-3080.000000
378,156.000000,-3080.000000
379,156.000000,-3080.000000
380,164.000000,-3080.000000
381,164.000000,-3120.000000
382,164.000000,-3080.000000
383,164.000000,-3080.000000
384,164.000000,-3080.000000
385,160.000000,-3080.000000
386,152.000000,-3120.000000
387,160.000000,-3080.000000
388,160.000000,-3080.000000
389,160.000000,-3080.000000
390,164.000000,-3080.000000
391,172.000000,-3080.000000
392,168.000000,-3080.000000
393,160.000000,-3080.000000
394,160.000000,-3080.000000
395,156.000000,-3120.000000
396,160.000000,-3080.000000
397,160.000000,-3080.000000
398,164.000000,-3080.000000
399,168.000000,-3080.000000
400,164.000000,-3080.000000
401,168.000000,-3080.000000
402,160.000000,-3080.000000
403,156.000000,-3080.000000
404,160.000000,-3040.000000
405,156.000000,-3080.000000
406,164.000000,-3080.000000
407,168.000000,-3080.000000
408,160.000000,-3080.000000
409,164.000000,-3080.000000
410,184.000000,-3120.000000
411,180.000000,-3120.000000
412,180.000000,-3040.000000
413,176.000000,-3080.000000
414,176.000000,-3080.000000
415,176.000000,-3080.000000
416,180.000000,-3080.000000
417,-68.000000,-3080.000000
418,-168.000000,-3080.000000
419,-188.000000,-3080.000000
420,-180.000000,-3080.000000
421,-180.000000,-3080.000000
422,-180.000000,-3080.000000
423,-180.000000,-3080.000000
424,-180.000000,-3080.000000
425,-184.000000,-3080.000000
426,-180.000000,-3080.000000
427,-184.000000,-3080.000000
428,-184.000000,-3080.000000
429,-184.000000,-3080.000000
430,-176.000000,-3080.000000
431,-180.000000,-3080.000000
432,-180.000000,-3080.000000
433,-176.000000,-3080.000000
434,-180.000000,-3080.000000
435,-184.000000,-3080.000000
436,-180.000000,-3080.000000
437,-180.000000,-3080.000000
438,-180.000000,-3080.000000
439,-180.000000,-3080.000000
440,-180.000000,-3080.000000
441,-180.000000,-3120.000000
442,96.000000,-3120.000000
443,8.000000,-3080.000000
444,-160.000000,-3120.000000
445,-176.000000,-3080.000000
446,-176.000000,-3080.000000
447,-180.000000,-3080.000000
448,-184.000000,-3080.000000
449,-176.000000,-3080.000000
450,-176.000000,-3080.000000
451,-180.000000,-3080.000000
452,-184.000000,-3080.000000
453,-176.000000,-3080.000000
454,-180.000000,-3080.000000
455,-180.000000,-3080.000000
456,-180.000000,-3080.000000
457,-180.000000,-3080.000000
458,-188.000000,-3080.000000
459,-180.000000,-3080.000000
460,-176.000000,-3080.000000
461,-180.000000,-3080.000000
462,-176.000000,-3080.000000
463,-180.000000,-3080.000000
464,-180.000000,-3080.000000
465,-180.000000,-3120.000000
466,-180.000000,-3080.000000
467,64.000000,-3080.000000
468,52.000000,-3080.000000
469,-156.000000,-3120.000000
470,-172.000000,-3080.000000
471,-180.000000,-3080.000000
472,-180.000000,-3080.000000
473,-180.000000,-3080.000000
474,-184.000000,-3080.000000
475,-176.000000,-3080.000000
476,-176.000000,-3080.000000
477,-180.000000,-3080.000000
478,-184.000000,-3080.000000
479,-184.000000,-3080.000000
480,-180.000000,-3080.000000
481,-184.000000,-3080.000000
482,-180.000000,-3080.000000
483,-172.000000,-3080.000000
484,-180.000000,-3120.000000
485,-180.000000,-3080.000000
486,-180.000000,-3080.000000
487,-180.000000,-3080.000000
488,-180.000000,-3080.000000
489,-180.000000,-3080.000000
490,-176.000000,-3080.000000
491,-184.000000,-3080.000000
492,24.000000,-3080.000000
493,96.000000,-3080.000000
494,-152.000000,-3080.000000
495,-172.000000,-3080.000000
496,-180.000000,-3080.000000
497,-180.000000,-3120.000000
498,-180.000000,-3080.000000
499,-180.000000,-3080.000000
500,-176.000000,-3080.000000
501,-180.000000,-3040.000000
502,-180.000000,-3080.000000
503,-184.000000,-3080.000000
504,-180.000000,-3080.000000
505,-180.000000,-3080.000000
506,-176.000000,-3120.000000
507,-184.000000,-3080.000000
508,-180.000000,-3040.000000
509,-176.000000,-3080.000000
510,-180.000000,-3120.000000
511,-176.000000,-3080.000000
512,-176.000000,-3080.000000
513,-184.000000,-3080.000000
514,-180.000000,-3080.000000
515,-180.000000,-3080.000000
516,-180.000000,-3080.000000
517,-28.000000,-3080.000000
518,160.000000,-3080.000000
519,-144.000000,-3080.000000
520,-180.000000,-3080.000000
521,-176.000000,-3080.000000
522,-184.000000,-3080.000000
523,-180.000000,-3080.000000
524,-184.000000,-3080.000000
525,-180.000000,-3080.000000
526,-180.000000,-3080.000000
527,-180.000000,-3080.000000
528,-184.000000,-3080.000000
529,-180.000000,-3080.000000
530,-184.000000,-3120.000000
531,-176.000000,-3080.000000
532,-180.000000,-3120.000000
533,-176.000000,-3080.000000
534,-180.000000,-3080.000000
535,-176.000000,-3080.000000
536,-180.000000,-3080.000000
537,-180.000000,-3080.000000
538,-180.000000,-3080.000000
539,-180.000000,-3080.000000
540,-180.000000,-3080.000000
541,-180.000000,-3080.000000
542,-84.000000,-3080.000000
543,192.000000,-3080.000000
544,-140.000000,-3080.000000
545,-176.000000,-3080.000000
546,-180.000000,-3080.000000
547,-180.000000,-3080.000000
548,-180.000000,-3080.000000
549,-180.000000,-3080.000000
550,-180.000000,-3080.000000
551,-176.000000,-3080.000000
552,-176.000000,-3080.000000
553,-180.000000,-3080.000000
554,-180.000000,-3080.000000
555,-180.000000,-3080.000000
556,-176.000000,-3080.000000
557,-180.000000,-3080.000000
558,-176.000000,-3080.000000
559,-176.000000,-3080.000000
560,-180.000000,-3080.000000
561,-176.000000,-3080.000000
562,-180.000000,-3080.000000
563,-180.000000,-3120.000000
564,-176.000000,-3080.000000
565,-180.000000,-3080.000000
566,-180.000000,-3080.000000
567,-148.000000,-3080.000000
568,200.000000,-3080.000000
569,-124.000000,-3080.000000
570,-176.000000,-3080.000000
571,-176.000000,-3080.000000
572,-176.000000,-3080.000000
573,-176.000000,-3080.000000
574,-176.000000,-3120.000000
575,-180.000000,-3120.000000
576,-184.000000,-3080.000000
577,-180.000000,-3080.000000
578,-176.000000,-3080.000000
579,-176.000000,-3080.000000
580,-180.000000,-3080.000000
581,-180.000000,-3080.000000
582,-176.000000,-3080.000000
583,-184.000000,-3080.000000
584,-180.000000,-3080.000000
585,-180.000000,-3080.000000
586,-176.000000,-3080.000000
587,-184.000000,-3080.000000
588,-176.000000,-3080.000000
589,-176.000000,-3080.000000
590,-180.000000,-3080.000000
591,-180.000000,-3080.000000
592,-176.000000,-3080.000000
593,196.000000,-3120.000000
594,-116.000000,-3080.000000
595,-172.000000,-3040.000000
596,-180.000000,-3080.000000
597,-180.000000,-3080.000000
598,-180.000000,-3120.000000
599,-176.000000,-3120.000000
600,-180.000000,-3080.000000
601,-180.000000,-3080.000000
602,-176.000000,-3080.000000
603,-180.000000,-3080.000000
604,-180.000000,-3080.000000
605,-184.000000,-3080.000000
606,-180.000000,-3080.000000
607,-184.000000,-3080.000000
608,-176.000000,-3080.000000
609,-176.000000,-3080.000000
610,-184.000000,-3080.000000
611,-176.000000,-3080.000000
612,-176.000000,-3080.000000
613,-176.000000,-3080.000000
614,-180.000000,-3080.000000
615,-184.000000,-3080.000000
616,-176.000000,-3080.000000
617,-184.000000,-3080.000000
618,192.000000,-3080.000000
619,-104.000000,-3080.000000
620,-168.000000,-3080.000000
621,-180.000000,-3080.000000
622,-176.000000,-3080.000000
623,-180.000000,-3080.000000
624,-176.000000,-3080.000000
625,-184.000000,-3080.000000
626,-180.000000,-3080.000000
627,-176.000000,-3080.000000
628,-176.000000,-3080.000000
629,-180.000000,-3080.000000
630,-180.000000,-3120.000000
631,-180.000000,-3080.000000
632,-184.000000,-3080.000000
633,-184.000000,-3080.000000
634,-180.000000,-3080.000000
635,-180.000000,-3080.000000
636,-180.000000,-3080.000000
637,-180.000000,-3080.000000
638,-168.000000,-3080.000000
639,-180.000000,-3080.000000
640,-176.000000,-3080.000000
641,-176.000000,-3080.000000
642,-180.000000,-3080.000000
643,184.000000,-3080.000000
644,-88.000000,-3080.000000
645,-168.000000,-3080.000000
646,-176.000000,-3080.000000
647,-176.000000,-3080.000000
648,-172.000000,-3080.000000
649,-184.000000,-3080.000000
650,-180.000000,-3080.000000
651,-180.000000,-3080.000000
652,-180.000000,-3080.000000
653,-184.000000,-3080.000000
654,-180.000000,-3080.000000
655,-180.000000,-3120.000000
656,-180.000000,-3080.000000
657,-176.000000,-3080.000000
658,-180.000000,-3080.000000
659,-180.000000,-3080.000000
660,-180.000000,-3080.000000
661,-184.000000,-3080.000000
662,-180.000000,-3080.000000
663,-180.000000,-3080.000000
664,-180.000000,-3080.000000
665,-180.000000,-3080.000000
666,-184.000000,-3080.000000
667,-176.000000,-3080.000000
668,172.000000,-3080.000000
669,-64.000000,-3080.000000
670,-168.000000,-3080.000000
671,-180.000000,-3080.000000
672,-184.000000,-3080.000000
673,-176.000000,-3080.000000
674,-176.000000,-3080.000000
675,-180.000000,-3080.000000
676,-184.000000,-3080.000000
677,-180.000000,-3080.000000
678,-176.000000,-3080.000000
679,-180.000000,-3080.000000
680,-176.000000,-3120.000000
681,-180.000000,-3080.000000
682,-180.000000,-3080.000000
683,-176.000000,-3080.000000
684,-180.000000,-3080.000000
685,-184.000000,-3080.000000
686,-188.000000,-3080.000000
687,-180.000000,-3080.000000
