repport_data/power_measurements_V3/data_power_30/data_30_007.csv

Channel              :,CH1,CH2
Frequency            :,  ?,  ?
Period               :,  ?,  ?
PK-PK                :,476.0mV,120.0mV
Probe attenuation    :,1X,1X
Voltage per ADC value:,0.250000mV,2.500000mV
Time interval        :,400.00000uS,400.00000uS

index,CH1_Voltage(mV),CH2_Voltage(mV)
1,176.000000,-3120.000000
2,176.000000,-3120.000000
3,196.000000,-3120.000000
4,196.000000,-3120.000000
5,116.000000,-3080.000000
6,4.000000,-3120.000000
7,-68.000000,-3080.000000
8,-112.000000,-3120.000000
9,-144.000000,-3120.000000
10,-164.000000,-3120.000000
11,-176.000000,-3080.000000
12,-184.000000,-3120.000000
13,-188.000000,-3080.000000
14,-192.000000,-3080.000000
15,-196.000000,-3120.000000
16,-196.000000,-3120.000000
17,-196.000000,-3080.000000
18,-196.000000,-3120.000000
19,-200.000000,-3120.000000
20,-196.000000,-3120.000000
21,-196.000000,-3080.000000
22,-196.000000,-3080.000000
23,-200.000000,-3120.000000
24,-200.000000,-3120.000000
25,-200.000000,-3120.000000
26,-200.000000,-3120.000000
27,-200.000000,-3120.000000
28,-200.000000,-3080.000000
29,-200.000000,-3120.000000
30,-200.000000,-3080.000000
31,-200.000000,-3120.000000
32,-200.000000,-3120.000000
33,-200.000000,-3120.000000
34,-200.000000,-3120.000000
35,-200.000000,-3120.000000
36,-200.000000,-3120.000000
37,-200.000000,-3120.000000
38,-200.000000,-3120.000000
39,-196.000000,-3120.000000
40,-200.000000,-3120.000000
41,-204.000000,-3080.000000
42,-200.000000,-3120.000000
43,-200.000000,-3080.000000
44,-200.000000,-3080.000000
45,-200.000000,-3120.000000
46,-200.000000,-3120.000000
47,-200.000000,-3120.000000
48,-200.000000,-3120.000000
49,-200.000000,-3120.000000
50,-200.000000,-3080.000000
51,-200.000000,-3120.000000
52,-200.000000,-3120.000000
53,-200.000000,-3120.000000
54,-200.000000,-3080.000000
55,-200.000000,-3120.000000
56,-204.000000,-3120.000000
57,-200.000000,-3120.000000
58,-200.000000,-3080.000000
59,-200.000000,-3080.000000
60,-200.000000,-3120.000000
61,-200.000000,-3120.000000
62,-200.000000,-3080.000000
63,-200.000000,-3080.000000
64,-200.000000,-3120.000000
65,-200.000000,-3120.000000
66,-200.000000,-3080.000000
67,-200.000000,-3080.000000
68,-200.000000,-3080.000000
69,-200.000000,-3080.000000
70,-200.000000,-3080.000000
71,-200.000000,-3080.000000
72,-200.000000,-3080.000000
73,-200.000000,-3120.000000
74,-200.000000,-3080.000000
75,-200.000000,-3120.000000
76,-200.000000,-3120.000000
77,-200.000000,-3120.000000
78,-200.000000,-3120.000000
79,-200.000000,-3120.000000
80,-200.000000,-3080.000000
81,-200.000000,-3120.000000
82,-200.000000,-3120.000000
83,-200.000000,-3080.000000
84,-200.000000,-3120.000000
85,-204.000000,-3080.000000
86,-200.000000,-3080.000000
87,-204.000000,-3080.000000
88,-200.000000,-3120.000000
89,-200.000000,-3120.000000
90,-200.000000,-3120.000000
91,-200.000000,-3080.000000
92,-200.000000,-3080.000000
93,-200.000000,-3120.000000
94,-200.000000,-3120.000000
95,-196.000000,-3120.000000
96,-200.000000,-3120.000000
97,-200.000000,-3120.000000
98,-200.000000,-3080.000000
99,-200.000000,-3120.000000
100,-200.000000,-3080.000000
101,-200.000000,-3120.000000
102,-200.000000,-3120.000000
103,-200.000000,-3080.000000
104,-200.000000,-3080.000000
105,-200.000000,-3120.000000
106,-200.000000,-3120.000000
107,-200.000000,-3120.000000
108,-200.000000,-3120.000000
109,-200.000000,-3120.000000
110,-200.000000,-3120.000000
111,-200.000000,-3080.000000
112,-200.000000,-3120.000000
113,-196.000000,-3120.000000
114,-200.000000,-3120.000000
115,-200.000000,-3080.000000
116,-200.000000,-3080.000000
117,-200.000000,-3080.000000
118,-204.000000,-3080.000000
119,-200.000000,-3120.000000
120,-204.000000,-3120.000000
121,-200.000000,-3120.000000
122,-200.000000,-3120.000000
123,-200.000000,-3120.000000
124,-200.000000,-3120.000000
125,-56.000000,-3080.000000
126,64.000000,-3080.000000
127,160.000000,-3120.000000
128,188.000000,-3120.000000
129,204.000000,-3080.000000
130,172.000000,-3120.000000
131,36.000000,-3120.000000
132,-44.000000,-3120.000000
133,-100.000000,-3120.000000
134,-136.000000,-3120.000000
135,-156.000000,-3080.000000
136,-172.000000,-3080.000000
137,-180.000000,-3120.000000
138,-188.000000,-3120.000000
139,-192.000000,-3120.000000
140,-192.000000,-3080.000000
141,-196.000000,-3120.000000
142,-196.000000,-3080.000000
143,-200.000000,-3120.000000
144,-200.000000,-3120.000000
145,-200.000000,-3080.000000
146,-200.000000,-3120.000000
147,-200.000000,-3080.000000
148,-200.000000,-3080.000000
149,-200.000000,-3120.000000
150,-200.000000,-3120.000000
151,-200.000000,-3120.000000
152,-200.000000,-3080.000000
153,-196.000000,-3120.000000
154,-200.000000,-3040.000000
155,-196.000000,-3080.000000
156,-200.000000,-3080.000000
157,-196.000000,-3120.000000
158,-200.000000,-3120.000000
159,-200.000000,-3120.000000
160,-204.000000,-3120.000000
161,-200.000000,-3120.000000
162,-200.000000,-3080.000000
163,-200.000000,-3120.000000
164,-204.000000,-3080.000000
165,-200.000000,-3080.000000
166,-200.000000,-3120.000000
167,-200.000000,-3080.000000
168,-200.000000,-3120.000000
169,-200.000000,-3080.000000
170,-200.000000,-3080.000000
171,-200.000000,-3080.000000
172,-200.000000,-3080.000000
173,-200.000000,-3120.000000
174,-200.000000,-3120.000000
175,-200.000000,-3080.000000
176,-200.000000,-3080.000000
177,-200.000000,-3080.000000
178,-200.000000,-3120.000000
179,-200.000000,-3120.000000
180,-200.000000,-3120.000000
181,-200.000000,-3080.000000
182,-200.000000,-3080.000000
183,-200.000000,-3120.000000
184,-200.000000,-3120.000000
185,-200.000000,-3080.000000
186,-196.000000,-3080.000000
187,-200.000000,-3120.000000
188,-196.000000,-3080.000000
189,-200.000000,-3120.000000
190,-200.000000,-3080.000000
191,-200.000000,-3080.000000
192,-200.000000,-3120.000000
193,-200.000000,-3120.000000
194,-200.000000,-3120.000000
195,-196.000000,-3120.000000
196,-200.000000,-3080.000000
197,-200.000000,-3120.000000
198,-200.000000,-3120.000000
199,-200.000000,-3080.000000
200,-200.000000,-3120.000000
201,-200.000000,-3080.000000
202,-200.000000,-3120.000000
203,-200.000000,-3080.000000
204,-200.000000,-3120.000000
205,-204.000000,-3120.000000
206,-200.000000,-3120.000000
207,-196.000000,-3080.000000
208,-200.000000,-3120.000000
209,-200.000000,-3080.000000
210,-200.000000,-3120.000000
211,-200.000000,-3120.000000
212,-200.000000,-3120.000000
213,-200.000000,-3080.000000
214,-200.000000,-3120.000000
215,-200.000000,-3120.000000
216,-200.000000,-3120.000000
217,-200.000000,-3120.000000
218,-200.000000,-3120.000000
219,-200.000000,-3120.000000
220,-196.000000,-3080.000000
221,-200.000000,-3080.000000
222,-196.000000,-3120.000000
223,-200.000000,-3120.000000
224,-200.000000,-3120.000000
225,-200.000000,-3120.000000
226,-200.000000,-3120.000000
227,-196.000000,-3080.000000
228,-200.000000,-3080.000000
229,-200.000000,-3120.000000
230,-200.000000,-3080.000000
231,-200.000000,-3120.000000
232,-200.000000,-3120.000000
233,-200.000000,-3120.000000
234,-200.000000,-3120.000000
235,-200.000000,-3120.000000
236,-200.000000,-3120.000000
237,-200.000000,-3120.000000
238,-200.000000,-3080.000000
239,-196.000000,-3080.000000
240,-200.000000,-3080.000000
241,-200.000000,-3120.000000
242,-200.000000,-3120.000000
243,-196.000000,-3120.000000
244,-200.000000,-3120.000000
245,-200.000000,-3120.000000
246,-200.000000,-3120.000000
247,-200.000000,-3120.000000
248,-200.000000,-3120.000000
249,-200.000000,-3120.000000
250,-100.000000,-3120.000000
251,28.000000,-3120.000000
252,128.000000,-3120.000000
253,184.000000,-3080.000000
254,196.000000,-3120.000000
255,192.000000,-3080.000000
256,80.000000,-3120.000000
257,-16.000000,-3120.000000
258,-80.000000,-3120.000000
259,-120.000000,-3120.000000
260,-148.000000,-3120.000000
261,-168.000000,-3080.000000
262,-180.000000,-3080.000000
263,-188.000000,-3120.000000
264,-192.000000,-3080.000000
265,-196.000000,-3120.000000
266,-196.000000,-3080.000000
267,-196.000000,-3120.000000
268,-196.000000,-3120.000000
269,-200.000000,-3120.000000
270,-200.000000,-3120.000000
271,-200.000000,-3120.000000
272,-196.000000,-3080.000000
273,-200.000000,-3080.000000
274,-200.000000,-3120.000000
275,-200.000000,-3120.000000
276,-200.000000,-3120.000000
277,-200.000000,-3120.000000
278,-200.000000,-3120.000000
279,-200.000000,-3080.000000
280,-200.000000,-3120.000000
281,-200.000000,-3120.000000
282,-204.000000,-3120.000000
283,-200.000000,-3080.000000
284,-200.000000,-3120.000000
285,-200.000000,-3080.000000
286,-200.000000,-3120.000000
287,-200.000000,-3120.000000
288,-200.000000,-3080.000000
289,-200.000000,-3080.000000
290,-200.000000,-3120.000000
291,-200.000000,-3120.000000
292,-200.000000,-3120.000000
293,-200.000000,-3120.000000
294,-200.000000,-3080.000000
295,-200.000000,-3120.000000
296,-200.000000,-3120.000000
297,-200.000000,-3120.000000
298,-200.000000,-3120.000000
299,-200.000000,-3120.000000
300,-200.000000,-3120.000000
301,-200.000000,-3120.000000
302,-200.000000,-3120.000000
303,-200.000000,-3120.000000
304,-200.000000,-3120.000000
305,-200.000000,-3120.000000
306,-200.000000,-3080.000000
307,-200.000000,-3120.000000
308,-200.000000,-3120.000000
309,-200.000000,-3120.000000
310,-200.000000,-3120.000000
311,-200.000000,-3120.000000
312,-200.000000,-3120.000000
313,-200.000000,-3080.000000
314,-200.000000,-3080.000000
315,-200.000000,-3080.000000
316,-200.000000,-3120.000000
317,-200.000000,-3120.000000
318,-200.000000,-3120.000000
319,-200.000000,-3120.000000
320,-200.000000,-3120.000000
321,-204.000000,-3120.000000
322,-200.000000,-3120.000000
323,-200.000000,-3080.000000
324,-200.000000,-3120.000000
325,-200.000000,-3120.000000
326,-200.000000,-3120.000000
327,-200.000000,-3080.000000
328,-200.000000,-3080.000000
329,-200.000000,-3120.000000
330,-200.000000,-3080.000000
331,-200.000000,-3120.000000
332,-200.000000,-3120.000000
333,-196.000000,-3120.000000
334,-200.000000,-3120.000000
335,-200.000000,-3080.000000
336,-200.000000,-3080.000000
337,-200.000000,-3120.000000
338,-200.000000,-3120.000000
339,-200.000000,-3120.000000
340,-200.000000,-3080.000000
341,-200.000000,-3120.000000
342,-200.000000,-3080.000000
343,-200.000000,-3120.000000
344,-200.000000,-3120.000000
345,-200.000000,-3080.000000
346,-200.000000,-3080.000000
347,-200.000000,-3080.000000
348,-200.000000,-3120.000000
349,-200.000000,-3120.000000
350,-200.000000,-3120.000000
351,-200.000000,-3120.000000
352,-196.000000,-3080.000000
353,-196.000000,-3120.000000
354,-200.000000,-3120.000000
355,-200.000000,-3080.000000
356,-200.000000,-3080.000000
357,-200.000000,-3120.000000
358,-200.000000,-3120.000000
359,-200.000000,-3080.000000
360,-200.000000,-3080.000000
361,-200.000000,-3120.000000
362,-200.000000,-3080.000000
363,-196.000000,-3080.000000
364,-200.000000,-3120.000000
365,-200.000000,-3120.000000
366,-200.000000,-3120.000000
367,-200.000000,-3080.000000
368,-200.000000,-3120.000000
369,-200.000000,-3120.000000
370,-196.000000,-3120.000000
371,-200.000000,-3120.000000
372,-200.000000,-3120.000000
373,-200.000000,-3120.000000
374,-200.000000,-3080.000000
375,-164.000000,-3080.000000
376,-24.000000,-3120.000000
377,88.000000,-3120.000000
378,168.000000,-3120.000000
379,192.000000,-3120.000000
380,200.000000,-3080.000000
381,136.000000,-3080.000000
382,16.000000,-3080.000000
383,-60.000000,-3120.000000
384,-108.000000,-3120.000000
385,-136.000000,-3080.000000
386,-160.000000,-3080.000000
387,-172.000000,-3120.000000
388,-184.000000,-3120.000000
389,-188.000000,-3080.000000
390,-192.000000,-3120.000000
391,-196.000000,-3120.000000
392,-196.000000,-3120.000000
393,-200.000000,-3120.000000
394,-200.000000,-3120.000000
395,-200.000000,-3080.000000
396,-200.000000,-3080.000000
397,-200.000000,-3120.000000
398,-200.000000,-3120.000000
399,-204.000000,-3120.000000
400,-200.000000,-3120.000000
401,-200.000000,-3080.000000
402,-200.000000,-3120.000000
403,-200.000000,-3080.000000
404,-200.000000,-3120.000000
405,-196.000000,-3080.000000
406,-200.000000,-3080.000000
407,-200.000000,-3120.000000
408,-204.000000,-3120.000000
409,-200.000000,-3120.000000
410,-200.000000,-3120.000000
411,-200.000000,-3120.000000
412,-204.000000,-3120.000000
413,-200.000000,-3120.000000
414,-200.000000,-3080.000000
415,-200.000000,-3080.000000
416,-200.000000,-3120.000000
417,-200.000000,-3080.000000
418,-200.000000,-3080.000000
419,-200.000000,-3120.000000
420,-200.000000,-3120.000000
421,-200.000000,-3120.000000
422,-200.000000,-3080.000000
423,-200.000000,-3120.000000
424,-200.000000,-3080.000000
425,-200.000000,-3120.000000
426,-204.000000,-3080.000000
427,-200.000000,-3080.000000
428,-200.000000,-3120.000000
429,-200.000000,-3120.000000
430,-200.000000,-3080.000000
431,-204.000000,-3080.000000
432,-200.000000,-3120.000000
433,-204.000000,-3120.000000
434,-200.000000,-3120.000000
435,-200.000000,-3120.000000
436,-200.000000,-3080.000000
437,-200.000000,-3120.000000
438,-200.000000,-3120.000000
439,-200.000000,-3080.000000
440,-200.000000,-3120.000000
441,-200.000000,-3120.000000
442,-204.000000,-3080.000000
443,-200.000000,-3120.000000
444,-200.000000,-3080.000000
445,-200.000000,-3120.000000
446,-200.000000,-3080.000000
447,-204.000000,-3080.000000
448,-204.000000,-3080.000000
449,-200.000000,-3120.000000
450,-200.000000,-3120.000000
451,-200.000000,-3120.000000
452,-200.000000,-3120.000000
453,-200.000000,-3120.000000
454,-200.000000,-3080.000000
455,-200.000000,-3120.000000
456,-200.000000,-3080.000000
457,-200.000000,-3120.000000
458,-200.000000,-3120.000000
459,-200.000000,-3080.000000
460,-200.000000,-3120.000000
461,-200.000000,-3120.000000
462,-200.000000,-3120.000000
463,-200.000000,-3080.000000
464,-200.000000,-3080.000000
465,-200.000000,-3080.000000
466,-200.000000,-3080.000000
467,-200.000000,-3080.000000
468,-200.000000,-3080.000000
469,-200.000000,-3120.000000
470,-200.000000,-3120.000000
471,-200.000000,-3080.000000
472,-200.000000,-3120.000000
473,-200.000000,-3080.000000
474,-200.000000,-3120.000000
475,-200.000000,-3120.000000
476,-200.000000,-3120.000000
477,-200.000000,-3120.000000
478,-200.000000,-3120.000000
479,-200.000000,-3120.000000
480,-200.000000,-3120.000000
481,-200.000000,-3120.000000
482,-200.000000,-3120.000000
483,-200.000000,-3120.000000
484,-196.000000,-3120.000000
485,-196.000000,-3080.000000
486,-200.000000,-3080.000000
487,-200.000000,-3080.000000
488,-200.000000,-3080.000000
489,-196.000000,-3120.000000
490,-200.000000,-3080.000000
491,-200.000000,-3120.000000
492,-200.000000,-3080.000000
493,-200.000000,-3120.000000
494,-196.000000,-3120.000000
495,-200.000000,-3080.000000
496,-200.000000,-3080.000000
497,-196.000000,-3120.000000
498,-200.000000,-3080.000000
499,-200.000000,-3080.000000
500,-200.000000,-3120.000000
501,-72.000000,-3120.000000
502,48.000000,-3080.000000
503,140.000000,-3120.000000
504,180.000000,-3120.000000
505,196.000000,-3120.000000
506,184.000000,-3120.000000
507,184.000000,-3080.000000
508,212.000000,-3120.000000
509,228.000000,-3120.000000
510,236.000000,-3080.000000
511,244.000000,-3080.000000
512,248.000000,-3120.000000
513,252.000000,-3120.000000
514,252.000000,-3120.000000
515,252.000000,-3120.000000
516,252.000000,-3120.000000
517,252.000000,-3080.000000
518,256.000000,-3080.000000
519,256.000000,-3080.000000
520,260.000000,-3120.000000
521,252.000000,-3080.000000
522,252.000000,-3120.000000
523,256.000000,-3080.000000
524,256.000000,-3080.000000
525,256.000000,-3080.000000
526,256.000000,-3080.000000
527,256.000000,-3120.000000
528,256.000000,-3080.000000
529,256.000000,-3080.000000
530,256.000000,-3120.000000
531,256.000000,-3120.000000
532,252.000000,-3120.000000
533,256.000000,-3080.000000
534,256.000000,-3080.000000
535,256.000000,-3120.000000
536,256.000000,-3080.000000
537,256.000000,-3120.000000
538,256.000000,-3120.000000
539,256.000000,-3080.000000
540,256.000000,-3120.000000
541,256.000000,-3120.000000
542,256.000000,-3080.000000
543,256.000000,-3120.000000
544,256.000000,-3120.000000
545,256.000000,-3120.000000
546,256.000000,-3080.000000
547,256.000000,-3080.000000
548,256.000000,-3120.000000
549,252.000000,-3080.000000
550,252.000000,-3080.000000
551,252.000000,-3120.000000
552,256.000000,-3080.000000
553,252.000000,-3120.000000
554,256.000000,-3120.000000
555,256.000000,-3120.000000
556,252.000000,-3120.000000
557,256.000000,-3120.000000
558,256.000000,-3120.000000
559,256.000000,-3080.000000
560,256.000000,-3120.000000
561,256.000000,-3120.000000
562,252.000000,-3120.000000
563,252.000000,-3120.000000
564,256.000000,-3120.000000
565,256.000000,-3120.000000
566,252.000000,-3120.000000
567,252.000000,-3080.000000
568,252.000000,-3080.000000
569,252.000000,-3120.000000
570,256.000000,-3120.000000
571,256.000000,-3120.000000
572,252.000000,-3080.000000
573,256.000000,-3120.000000
574,252.000000,-3120.000000
575,256.000000,-3120.000000
576,252.000000,-3080.000000
577,256.000000,-3080.000000
578,256.000000,-3120.000000
579,252.000000,-3120.000000
580,252.000000,-3080.000000
581,252.000000,-3080.000000
582,252.000000,-3120.000000
583,252.000000,-3120.000000
584,252.000000,-3120.000000
585,256.000000,-3120.000000
586,252.000000,-3080.000000
587,256.000000,-3120.000000
588,256.000000,-3120.000000
589,252.000000,-3120.000000
590,256.000000,-3120.000000
591,252.000000,-3080.000000
592,252.000000,-3120.000000
593,252.000000,-3120.000000
594,248.000000,-3120.000000
595,256.000000,-3120.000000
596,256.000000,-3120.000000
597,256.000000,-3120.000000
598,252.000000,-3120.000000
599,252.000000,-3120.000000
600,256.000000,-3120.000000
601,252.000000,-3120.000000
602,256.000000,-3120.000000
603,216.000000,-3120.000000
604,188.000000,-3120.000000
605,228.000000,-3120.000000
606,252.000000,-3080.000000
607,152.000000,-3120.000000
608,28.000000,-3120.000000
609,-56.000000,-3120.000000
610,-108.000000,-3120.000000
611,-144.000000,-3120.000000
612,-168.000000,-3080.000000
613,-184.000000,-3080.000000
614,-192.000000,-3120.000000
615,-196.000000,-3080.000000
616,-204.000000,-3080.000000
617,-204.000000,-3080.000000
618,-208.000000,-3120.000000
619,-208.000000,-3080.000000
620,-208.000000,-3120.000000
621,-212.000000,-3080.000000
622,-212.000000,-3120.000000
623,-208.000000,-3120.000000
624,-212.000000,-3120.000000
625,-208.000000,-3080.000000
626,-212.000000,-3080.000000
627,-212.000000,-3120.000000
628,-212.000000,-3080.000000
629,-212.000000,-3120.000000
630,-212.000000,-3120.000000
631,-212.000000,-3120.000000
632,-212.000000,-3080.000000
633,-212.000000,-3080.000000
634,-212.000000,-3080.000000
635,-212.000000,-3120.000000
636,-208.000000,-3080.000000
637,-212.000000,-3120.000000
638,-208.000000,-3080.000000
639,-212.000000,-3120.000000
640,-212.000000,-3080.000000
641,-212.000000,-3080.000000
642,-212.000000,-3120.000000
643,-212.000000,-3120.000000
644,-212.000000,-3080.000000
645,-212.000000,-3120.000000
646,-212.000000,-3120.000000
647,-192.000000,-3080.000000
648,-12.000000,-3080.000000
649,8.000000,-3120.000000
650,-72.000000,-3080.000000
651,-124.000000,-3120.000000
652,-156.000000,-3120.000000
653,-172.000000,-3120.000000
654,-188.000000,-3080.000000
655,-196.000000,-3120.000000
656,-200.000000,-3120.000000
657,-200.000000,-3080.000000
658,-204.000000,-3120.000000
659,-208.000000,-3120.000000
660,-212.000000,-3120.000000
661,-212.000000,-3120.000000
662,-208.000000,-3120.000000
663,-212.000000,-3120.000000
664,-212.000000,-3120.000000
665,-212.000000,-3080.000000
666,-208.000000,-3080.000000
667,-212.000000,-3120.000000
668,-212.000000,-3120.000000
669,-208.000000,-3120.000000
670,-212.000000,-3120.000000
671,-212.000000,-3120.000000
672,-212.000000,-3120.000000
673,-212.000000,-3120.000000
674,-208.000000,-3120.000000
675,-208.000000,-3120.000000
676,-212.000000,-3080.000000
677,-208.000000,-3120.000000
678,-208.000000,-3120.000000
679,-212.000000,-3120.000000
680,-208.000000,-3080.000000
681,-212.000000,-3120.000000
682,-208.000000,-3120.000000
683,-208.000000,-3080.000000
684,-212.000000,-3080.000000
685,-208.000000,-3120.000000
686,-72.000000,-3120.000000
687,52.000000,-3120.000000
688,-44.000000,-3120.000000
