repport_data/power_measurements_V3/data_power_30/data_30_009.csv

Channel              :,CH1,CH2
Frequency            :,  ?,  ?
Period               :,  ?,  ?
PK-PK                :,472.0mV,80.00mV
Probe attenuation    :,1X,1X
Voltage per ADC value:,0.250000mV,2.500000mV
Time interval        :,400.00000uS,400.00000uS

index,CH1_Voltage(mV),CH2_Voltage(mV)
1,-200.000000,-3120.000000
2,-200.000000,-3120.000000
3,-200.000000,-3120.000000
4,-204.000000,-3120.000000
5,-200.000000,-3080.000000
6,-200.000000,-3120.000000
7,-200.000000,-3080.000000
8,-200.000000,-3080.000000
9,-200.000000,-3120.000000
10,-200.000000,-3120.000000
11,-200.000000,-3120.000000
12,-200.000000,-3120.000000
13,-200.000000,-3120.000000
14,-200.000000,-3080.000000
15,-200.000000,-3080.000000
16,-200.000000,-3120.000000
17,-200.000000,-3080.000000
18,-200.000000,-3120.000000
19,-200.000000,-3080.000000
20,-164.000000,-3120.000000
21,-28.000000,-3120.000000
22,84.000000,-3080.000000
23,168.000000,-3120.000000
24,192.000000,-3120.000000
25,196.000000,-3120.000000
26,136.000000,-3120.000000
27,16.000000,-3120.000000
28,-56.000000,-3120.000000
29,-108.000000,-3080.000000
30,-136.000000,-3080.000000
31,-160.000000,-3080.000000
32,-176.000000,-3120.000000
33,-184.000000,-3120.000000
34,-188.000000,-3120.000000
35,-192.000000,-3080.000000
36,-196.000000,-3080.000000
37,-196.000000,-3120.000000
38,-200.000000,-3120.000000
39,-200.000000,-3080.000000
40,-196.000000,-3120.000000
41,-200.000000,-3120.000000
42,-200.000000,-3120.000000
43,-200.000000,-3080.000000
44,-200.000000,-3120.000000
45,-200.000000,-3120.000000
46,-204.000000,-3080.000000
47,-200.000000,-3080.000000
48,-196.000000,-3120.000000
49,-196.000000,-3120.000000
50,-200.000000,-3120.000000
51,-200.000000,-3120.000000
52,-200.000000,-3120.000000
53,-200.000000,-3120.000000
54,-200.000000,-3080.000000
55,-200.000000,-3080.000000
56,-200.000000,-3080.000000
57,-200.000000,-3080.000000
58,-200.000000,-3080.000000
59,-200.000000,-3120.000000
60,-200.000000,-3080.000000
61,-204.000000,-3080.000000
62,-200.000000,-3120.000000
63,-200.000000,-3120.000000
64,-200.000000,-3120.000000
65,-200.000000,-3120.000000
66,-204.000000,-3120.000000
67,-200.000000,-3120.000000
68,-200.000000,-3120.000000
69,-200.000000,-3120.000000
70,-200.000000,-3120.000000
71,-200.000000,-3120.000000
72,-196.000000,-3120.000000
73,-200.000000,-3120.000000
74,-200.000000,-3080.000000
75,-200.000000,-3080.000000
76,-204.000000,-3120.000000
77,-196.000000,-3080.000000
78,-200.000000,-3120.000000
79,-200.000000,-3080.000000
80,-204.000000,-3080.000000
81,-204.000000,-3080.000000
82,-200.000000,-3120.000000
83,-200.000000,-3080.000000
84,-200.000000,-3120.000000
85,-200.000000,-3080.000000
86,-200.000000,-3080.000000
87,-200.000000,-3120.000000
88,-200.000000,-3120.000000
89,-200.000000,-3120.000000
90,-200.000000,-3080.000000
91,-200.000000,-3120.000000
92,-196.000000,-3080.000000
93,-200.000000,-3080.000000
94,-200.000000,-3120.000000
95,-200.000000,-3120.000000
96,-200.000000,-3120.000000
97,-204.000000,-3120.000000
98,-200.000000,-3120.000000
99,-200.000000,-3120.000000
100,-204.000000,-3080.000000
101,-200.000000,-3120.000000
102,-200.000000,-3080.000000
103,-200.000000,-3120.000000
104,-200.000000,-3080.000000
105,-200.000000,-3120.000000
106,-200.000000,-3080.000000
107,-200.000000,-3120.000000
108,-200.000000,-3080.000000
109,-200.000000,-3080.000000
110,-200.000000,-3080.000000
111,-196.000000,-3120.000000
112,-200.000000,-3120.000000
113,-200.000000,-3080.000000
114,-204.000000,-3120.000000
115,-196.000000,-3080.000000
116,-196.000000,-3080.000000
117,-200.000000,-3080.000000
118,-200.000000,-3080.000000
119,-200.000000,-3080.000000
120,-200.000000,-3080.000000
121,-200.000000,-3080.000000
122,-200.000000,-3120.000000
123,-200.000000,-3120.000000
124,-200.000000,-3080.000000
125,-200.000000,-3080.000000
126,-200.000000,-3120.000000
127,-200.000000,-3080.000000
128,-196.000000,-3120.000000
129,-204.000000,-3120.000000
130,-200.000000,-3080.000000
131,-200.000000,-3080.000000
132,-200.000000,-3080.000000
133,-196.000000,-3080.000000
134,-200.000000,-3080.000000
135,-200.000000,-3120.000000
136,-200.000000,-3120.000000
137,-200.000000,-3120.000000
138,-200.000000,-3080.000000
139,-204.000000,-3120.000000
140,-200.000000,-3080.000000
141,-200.000000,-3120.000000
142,-200.000000,-3120.000000
143,-200.000000,-3120.000000
144,-200.000000,-3120.000000
145,-200.000000,-3120.000000
146,-68.000000,-3120.000000
147,52.000000,-3120.000000
148,140.000000,-3120.000000
149,180.000000,-3080.000000
150,192.000000,-3120.000000
151,184.000000,-3080.000000
152,188.000000,-3120.000000
153,212.000000,-3080.000000
154,232.000000,-3080.000000
155,240.000000,-3120.000000
156,248.000000,-3080.000000
157,252.000000,-3080.000000
158,256.000000,-3120.000000
159,256.000000,-3120.000000
160,260.000000,-3080.000000
161,260.000000,-3080.000000
162,260.000000,-3080.000000
163,260.000000,-3080.000000
164,264.000000,-3080.000000
165,264.000000,-3080.000000
166,264.000000,-3080.000000
167,260.000000,-3080.000000
168,264.000000,-3080.000000
169,264.000000,-3080.000000
170,264.000000,-3120.000000
171,264.000000,-3080.000000
172,264.000000,-3120.000000
173,260.000000,-3120.000000
174,260.000000,-3120.000000
175,260.000000,-3120.000000
176,260.000000,-3080.000000
177,264.000000,-3120.000000
178,264.000000,-3120.000000
179,260.000000,-3120.000000
180,264.000000,-3080.000000
181,264.000000,-3080.000000
182,260.000000,-3080.000000
183,260.000000,-3080.000000
184,260.000000,-3120.000000
185,260.000000,-3120.000000
186,260.000000,-3120.000000
187,260.000000,-3120.000000
188,260.000000,-3080.000000
189,260.000000,-3120.000000
190,260.000000,-3120.000000
191,260.000000,-3080.000000
192,260.000000,-3120.000000
193,260.000000,-3120.000000
194,260.000000,-3120.000000
195,260.000000,-3120.000000
196,260.000000,-3120.000000
197,256.000000,-3120.000000
198,264.000000,-3120.000000
199,260.000000,-3120.000000
200,260.000000,-3120.000000
201,264.000000,-3120.000000
202,260.000000,-3080.000000
203,260.000000,-3120.000000
204,260.000000,-3080.000000
205,264.000000,-3080.000000
206,260.000000,-3080.000000
207,260.000000,-3080.000000
208,264.000000,-3120.000000
209,260.000000,-3080.000000
210,260.000000,-3080.000000
211,260.000000,-3120.000000
212,260.000000,-3080.000000
213,260.000000,-3080.000000
214,264.000000,-3080.000000
215,260.000000,-3080.000000
216,264.000000,-3120.000000
217,260.000000,-3080.000000
218,260.000000,-3120.000000
219,260.000000,-3080.000000
220,260.000000,-3120.000000
221,260.000000,-3080.000000
222,260.000000,-3080.000000
223,260.000000,-3120.000000
224,256.000000,-3080.000000
225,260.000000,-3080.000000
226,260.000000,-3080.000000
227,260.000000,-3080.000000
228,260.000000,-3120.000000
229,260.000000,-3120.000000
230,260.000000,-3080.000000
231,260.000000,-3120.000000
232,260.000000,-3120.000000
233,260.000000,-3120.000000
234,260.000000,-3080.000000
235,260.000000,-3120.000000
236,260.000000,-3120.000000
237,260.000000,-3120.000000
238,260.000000,-3080.000000
239,264.000000,-3080.000000
240,260.000000,-3120.000000
241,256.000000,-3120.000000
242,260.000000,-3080.000000
243,260.000000,-3080.000000
244,256.000000,-3120.000000
245,256.000000,-3080.000000
246,264.000000,-3120.000000
247,260.000000,-3120.000000
248,260.000000,-3080.000000
249,224.000000,-3080.000000
250,76.000000,-3080.000000
251,-20.000000,-3120.000000
252,-84.000000,-3080.000000
253,-124.000000,-3080.000000
254,-148.000000,-3120.000000
255,-168.000000,-3080.000000
256,-184.000000,-3080.000000
257,-188.000000,-3080.000000
258,-192.000000,-3080.000000
259,-196.000000,-3080.000000
260,-196.000000,-3080.000000
261,-200.000000,-3120.000000
262,-200.000000,-3080.000000
263,-200.000000,-3120.000000
264,-204.000000,-3120.000000
265,-200.000000,-3080.000000
266,-200.000000,-3120.000000
267,-200.000000,-3120.000000
268,-204.000000,-3080.000000
269,-204.000000,-3120.000000
270,-204.000000,-3080.000000
271,-204.000000,-3120.000000
272,-204.000000,-3120.000000
273,-200.000000,-3080.000000
274,-204.000000,-3120.000000
275,-200.000000,-3080.000000
276,-200.000000,-3120.000000
277,-204.000000,-3080.000000
278,-200.000000,-3120.000000
279,-200.000000,-3120.000000
280,-200.000000,-3080.000000
281,-204.000000,-3120.000000
282,-200.000000,-3080.000000
283,-200.000000,-3080.000000
284,-204.000000,-3080.000000
285,-200.000000,-3120.000000
286,-200.000000,-3080.000000
287,-204.000000,-3080.000000
288,-200.000000,-3120.000000
289,-200.000000,-3080.000000
290,-204.000000,-3080.000000
291,-204.000000,-3120.000000
292,-204.000000,-3120.000000
293,-200.000000,-3120.000000
294,-204.000000,-3080.000000
295,-204.000000,-3080.000000
296,-200.000000,-3120.000000
297,-204.000000,-3120.000000
298,-200.000000,-3080.000000
299,-204.000000,-3120.000000
300,-204.000000,-3080.000000
301,-204.000000,-3120.000000
302,-200.000000,-3080.000000
303,-204.000000,-3080.000000
304,-204.000000,-3080.000000
305,-200.000000,-3080.000000
306,-200.000000,-3080.000000
307,-200.000000,-3080.000000
308,-200.000000,-3080.000000
309,-204.000000,-3080.000000
310,-204.000000,-3120.000000
311,-204.000000,-3120.000000
312,-200.000000,-3120.000000
313,-200.000000,-3120.000000
314,-200.000000,-3080.000000
315,-200.000000,-3120.000000
316,-200.000000,-3120.000000
317,-200.000000,-3120.000000
318,-196.000000,-3120.000000
319,-200.000000,-3080.000000
320,-204.000000,-3120.000000
321,-200.000000,-3080.000000
322,-200.000000,-3120.000000
323,-200.000000,-3120.000000
324,-204.000000,-3080.000000
325,-200.000000,-3120.000000
326,-204.000000,-3080.000000
327,-200.000000,-3120.000000
328,-200.000000,-3120.000000
329,-200.000000,-3120.000000
330,-204.000000,-3080.000000
331,-204.000000,-3120.000000
332,-200.000000,-3080.000000
333,-204.000000,-3120.000000
334,-200.000000,-3120.000000
335,-204.000000,-3080.000000
336,-200.000000,-3120.000000
337,-204.000000,-3120.000000
338,-200.000000,-3080.000000
339,-200.000000,-3080.000000
340,-200.000000,-3080.000000
341,-200.000000,-3120.000000
342,-200.000000,-3120.000000
343,-200.000000,-3080.000000
344,-200.000000,-3080.000000
345,-200.000000,-3120.000000
346,-204.000000,-3080.000000
347,-200.000000,-3120.000000
348,-200.000000,-3120.000000
349,-196.000000,-3080.000000
350,-200.000000,-3080.000000
351,-200.000000,-3120.000000
352,-204.000000,-3120.000000
353,-200.000000,-3120.000000
354,-200.000000,-3120.000000
355,-200.000000,-3080.000000
356,-200.000000,-3080.000000
357,-200.000000,-3120.000000
358,-200.000000,-3080.000000
359,-200.000000,-3080.000000
360,-200.000000,-3080.000000
361,-204.000000,-3120.000000
362,-204.000000,-3080.000000
363,-200.000000,-3120.000000
364,-204.000000,-3120.000000
365,-200.000000,-3080.000000
366,-204.000000,-3120.000000
367,-204.000000,-3120.000000
368,-200.000000,-3080.000000
369,-200.000000,-3120.000000
370,-200.000000,-3120.000000
371,-200.000000,-3120.000000
372,-204.000000,-3080.000000
373,-200.000000,-3080.000000
374,-192.000000,-3080.000000
375,-44.000000,-3120.000000
376,64.000000,-3120.000000
377,156.000000,-3080.000000
378,184.000000,-3120.000000
379,200.000000,-3120.000000
380,156.000000,-3120.000000
381,28.000000,-3120.000000
382,-52.000000,-3120.000000
383,-104.000000,-3120.000000
384,-136.000000,-3120.000000
385,-160.000000,-3120.000000
386,-176.000000,-3080.000000
387,-184.000000,-3120.000000
388,-188.000000,-3120.000000
389,-192.000000,-3080.000000
390,-196.000000,-3120.000000
391,-196.000000,-3080.000000
392,-200.000000,-3080.000000
393,-200.000000,-3080.000000
394,-200.000000,-3080.000000
395,-200.000000,-3080.000000
396,-200.000000,-3080.000000
397,-200.000000,-3080.000000
398,-200.000000,-3120.000000
399,-200.000000,-3080.000000
400,-204.000000,-3120.000000
401,-204.000000,-3120.000000
402,-200.000000,-3080.000000
403,-200.000000,-3080.000000
404,-200.000000,-3080.000000
405,-200.000000,-3120.000000
406,-200.000000,-3080.000000
407,-200.000000,-3120.000000
408,-204.000000,-3080.000000
409,-200.000000,-3120.000000
410,-200.000000,-3120.000000
411,-200.000000,-3120.000000
412,-200.000000,-3120.000000
413,-200.000000,-3080.000000
414,-200.000000,-3120.000000
415,-200.000000,-3120.000000
416,-200.000000,-3080.000000
417,-200.000000,-3120.000000
418,-200.000000,-3120.000000
419,-200.000000,-3080.000000
420,-204.000000,-3120.000000
421,-200.000000,-3080.000000
422,-200.000000,-3120.000000
423,-200.000000,-3120.000000
424,-204.000000,-3120.000000
425,-200.000000,-3120.000000
426,-200.000000,-3120.000000
427,-200.000000,-3120.000000
428,-204.000000,-3080.000000
429,-200.000000,-3080.000000
430,-200.000000,-3120.000000
431,-200.000000,-3120.000000
432,-200.000000,-3080.000000
433,-204.000000,-3120.000000
434,-200.000000,-3080.000000
435,-200.000000,-3080.000000
436,-200.000000,-3080.000000
437,-200.000000,-3120.000000
438,-204.000000,-3080.000000
439,-200.000000,-3120.000000
440,-200.000000,-3080.000000
441,-200.000000,-3120.000000
442,-200.000000,-3120.000000
443,-204.000000,-3120.000000
444,-200.000000,-3080.000000
445,-200.000000,-3120.000000
446,-204.000000,-3080.000000
447,-200.000000,-3080.000000
448,-200.000000,-3120.000000
449,-200.000000,-3120.000000
450,-200.000000,-3080.000000
451,-200.000000,-3080.000000
452,-200.000000,-3120.000000
453,-200.000000,-3120.000000
454,-200.000000,-3120.000000
455,-200.000000,-3120.000000
456,-200.000000,-3120.000000
457,-200.000000,-3080.000000
458,-200.000000,-3120.000000
459,-200.000000,-3120.000000
460,-200.000000,-3120.000000
461,-204.000000,-3120.000000
462,-200.000000,-3120.000000
463,-200.000000,-3120.000000
464,-200.000000,-3120.000000
465,-200.000000,-3120.000000
466,-200.000000,-3120.000000
467,-200.000000,-3120.000000
468,-200.000000,-3120.000000
469,-200.000000,-3120.000000
470,-200.000000,-3080.000000
471,-200.000000,-3080.000000
472,-200.000000,-3120.000000
473,-200.000000,-3120.000000
474,-200.000000,-3080.000000
475,-204.000000,-3080.000000
476,-200.000000,-3080.000000
477,-200.000000,-3120.000000
478,-200.000000,-3080.000000
479,-200.000000,-3080.000000
480,-200.000000,-3080.000000
481,-200.000000,-3120.000000
482,-200.000000,-3120.000000
483,-200.000000,-3120.000000
484,-200.000000,-3120.000000
485,-200.000000,-3080.000000
486,-200.000000,-3080.000000
487,-200.000000,-3080.000000
488,-200.000000,-3080.000000
489,-200.000000,-3080.000000
490,-200.000000,-3080.000000
491,-200.000000,-3120.000000
492,-200.000000,-3120.000000
493,-200.000000,-3080.000000
494,-200.000000,-3120.000000
495,-200.000000,-3120.000000
496,-200.000000,-3120.000000
497,-200.000000,-3120.000000
498,-200.000000,-3120.000000
499,-200.000000,-3080.000000
500,-96.000000,-3120.000000
501,32.000000,-3120.000000
502,132.000000,-3080.000000
503,184.000000,-3120.000000
504,196.000000,-3080.000000
505,188.000000,-3080.000000
506,72.000000,-3120.000000
507,-20.000000,-3080.000000
508,-84.000000,-3120.000000
509,-124.000000,-3120.000000
510,-152.000000,-3080.000000
511,-168.000000,-3120.000000
512,-180.000000,-3120.000000
513,-184.000000,-3080.000000
514,-192.000000,-3080.000000
515,-196.000000,-3080.000000
516,-192.000000,-3120.000000
517,-200.000000,-3120.000000
518,-196.000000,-3080.000000
519,-196.000000,-3120.000000
520,-200.000000,-3120.000000
521,-200.000000,-3080.000000
522,-200.000000,-3120.000000
523,-200.000000,-3080.000000
524,-200.000000,-3120.000000
525,-200.000000,-3120.000000
526,-200.000000,-3120.000000
527,-196.000000,-3120.000000
528,-200.000000,-3080.000000
529,-200.000000,-3120.000000
530,-204.000000,-3080.000000
531,-200.000000,-3080.000000
532,-200.000000,-3120.000000
533,-200.000000,-3120.000000
534,-200.000000,-3120.000000
535,-200.000000,-3080.000000
536,-200.000000,-3120.000000
537,-200.000000,-3080.000000
538,-200.000000,-3080.000000
539,-200.000000,-3080.000000
540,-200.000000,-3080.000000
541,-196.000000,-3080.000000
542,-204.000000,-3120.000000
543,-200.000000,-3120.000000
544,-200.000000,-3120.000000
545,-200.000000,-3120.000000
546,-200.000000,-3120.000000
547,-200.000000,-3080.000000
548,-200.000000,-3080.000000
549,-204.000000,-3080.000000
550,-204.000000,-3080.000000
551,-200.000000,-3120.000000
552,-200.000000,-3080.000000
553,-200.000000,-3080.000000
554,-200.000000,-3080.000000
555,-200.000000,-3120.000000
556,-200.000000,-3080.000000
557,-204.000000,-3080.000000
558,-204.000000,-3120.000000
559,-204.000000,-3080.000000
560,-200.000000,-3120.000000
561,-200.000000,-3080.000000
562,-200.000000,-3080.000000
563,-200.000000,-3080.000000
564,-200.000000,-3080.000000
565,-200.000000,-3120.000000
566,-200.000000,-3080.000000
567,-200.000000,-3120.000000
568,-200.000000,-3120.000000
569,-200.000000,-3120.000000
570,-196.000000,-3120.000000
571,-200.000000,-3120.000000
572,-200.000000,-3120.000000
573,-200.000000,-3120.000000
574,-204.000000,-3080.000000
575,-200.000000,-3120.000000
576,-200.000000,-3120.000000
577,-200.000000,-3120.000000
578,-200.000000,-3120.000000
579,-200.000000,-3120.000000
580,-200.000000,-3120.000000
581,-200.000000,-3080.000000
582,-200.000000,-3080.000000
583,-200.000000,-3080.000000
584,-200.000000,-3080.000000
585,-200.000000,-3120.000000
586,-200.000000,-3080.000000
587,-200.000000,-3120.000000
588,-200.000000,-3120.000000
589,-200.000000,-3080.000000
590,-200.000000,-3120.000000
591,-200.000000,-3080.000000
592,-200.000000,-3080.000000
593,-200.000000,-3080.000000
594,-200.000000,-3080.000000
595,-200.000000,-3120.000000
596,-200.000000,-3120.000000
597,-200.000000,-3080.000000
598,-200.000000,-3120.000000
599,-200.000000,-3080.000000
600,-200.000000,-3120.000000
601,-200.000000,-3120.000000
602,-200.000000,-3120.000000
603,-204.000000,-3120.000000
604,-200.000000,-3120.000000
605,-204.000000,-3120.000000
606,-200.000000,-3120.000000
607,-204.000000,-3080.000000
608,-200.000000,-3080.000000
609,-200.000000,-3120.000000
610,-200.000000,-3120.000000
611,-200.000000,-3080.000000
612,-200.000000,-3080.000000
613,-200.000000,-3120.000000
614,-200.000000,-3080.000000
615,-200.000000,-3080.000000
616,-200.000000,-3120.000000
617,-200.000000,-3080.000000
618,-200.000000,-3080.000000
619,-204.000000,-3120.000000
620,-200.000000,-3120.000000
621,-200.000000,-3120.000000
622,-200.000000,-3120.000000
623,-204.000000,-3080.000000
624,-200.000000,-3120.000000
625,-156.000000,-3080.000000
626,-24.000000,-3080.000000
627,92.000000,-3080.000000
628,168.000000,-3080.000000
629,192.000000,-3120.000000
630,200.000000,-3080.000000
631,128.000000,-3120.000000
632,12.000000,-3120.000000
633,-56.000000,-3080.000000
634,-112.000000,-3120.000000
635,-144.000000,-3080.000000
636,-160.000000,-3080.000000
637,-180.000000,-3120.000000
638,-184.000000,-3120.000000
639,-192.000000,-3120.000000
640,-192.000000,-3080.000000
641,-196.000000,-3120.000000
642,-196.000000,-3080.000000
643,-196.000000,-3120.000000
644,-200.000000,-3120.000000
645,-200.000000,-3120.000000
646,-200.000000,-3120.000000
647,-196.000000,-3120.000000
648,-204.000000,-3080.000000
649,-200.000000,-3120.000000
650,-200.000000,-3120.000000
651,-196.000000,-3120.000000
652,-200.000000,-3120.000000
653,-200.000000,-3120.000000
654,-200.000000,-3120.000000
655,-204.000000,-3120.000000
656,-204.000000,-3120.000000
657,-200.000000,-3120.000000
658,-200.000000,-3120.000000
659,-200.000000,-3120.000000
660,-200.000000,-3080.000000
661,-204.000000,-3120.000000
662,-200.000000,-3120.000000
663,-200.000000,-3120.000000
664,-196.000000,-3120.000000
665,-200.000000,-3120.000000
666,-200.000000,-3120.000000
667,-200.000000,-3120.000000
668,-200.000000,-3120.000000
669,-204.000000,-3120.000000
670,-200.000000,-3120.000000
671,-200.000000,-3080.000000
672,-204.000000,-3120.000000
673,-200.000000,-3120.000000
674,-200.000000,-3120.000000
675,-200.000000,-3120.000000
676,-200.000000,-3120.000000
677,-200.000000,-3120.000000
678,-204.000000,-3080.000000
679,-200.000000,-3120.000000
680,-200.000000,-3080.000000
681,-200.000000,-3120.000000
682,-200.000000,-3080.000000
683,-200.000000,-3120.000000
684,-196.000000,-3080.000000
685,-200.000000,-3120.000000
686,-200.000000,-3080.000000
687,-200.000000,-3120.000000
688,-204.000000,-3120.000000
