repport_data/power_measurements_V3/data_power_30/data_30_016.csv

Channel              :,CH1,CH2
Frequency            :,  ?,  ?
Period               :,  ?,  ?
PK-PK                :,464.0mV,80.00mV
Probe attenuation    :,1X,1X
Voltage per ADC value:,0.250000mV,2.500000mV
Time interval        :,400.00000uS,400.00000uS

index,CH1_Voltage(mV),CH2_Voltage(mV)
1,-196.000000,-3120.000000
2,-196.000000,-3120.000000
3,-200.000000,-3120.000000
4,-200.000000,-3120.000000
5,-200.000000,-3120.000000
6,-196.000000,-3120.000000
7,-200.000000,-3120.000000
8,-196.000000,-3120.000000
9,-196.000000,-3080.000000
10,-196.000000,-3080.000000
11,-200.000000,-3080.000000
12,-200.000000,-3080.000000
13,-200.000000,-3120.000000
14,-200.000000,-3120.000000
15,-200.000000,-3120.000000
16,-200.000000,-3120.000000
17,-200.000000,-3120.000000
18,-200.000000,-3120.000000
19,-196.000000,-3120.000000
20,-196.000000,-3120.000000
21,-200.000000,-3120.000000
22,-200.000000,-3080.000000
23,-200.000000,-3120.000000
24,-200.000000,-3120.000000
25,-196.000000,-3120.000000
26,-200.000000,-3120.000000
27,-200.000000,-3080.000000
28,-200.000000,-3080.000000
29,-200.000000,-3120.000000
30,-200.000000,-3120.000000
31,-200.000000,-3120.000000
32,-200.000000,-3120.000000
33,-196.000000,-3120.000000
34,-200.000000,-3120.000000
35,-200.000000,-3080.000000
36,-200.000000,-3120.000000
37,-200.000000,-3120.000000
38,-200.000000,-3080.000000
39,-200.000000,-3120.000000
40,-200.000000,-3120.000000
41,-200.000000,-3080.000000
42,-200.000000,-3120.000000
43,-200.000000,-3080.000000
44,-200.000000,-3080.000000
45,-200.000000,-3120.000000
46,-200.000000,-3120.000000
47,-200.000000,-3120.000000
48,-196.000000,-3120.000000
49,-200.000000,-3120.000000
50,-200.000000,-3080.000000
51,-196.000000,-3120.000000
52,-200.000000,-3080.000000
53,-204.000000,-3080.000000
54,-196.000000,-3120.000000
55,-204.000000,-3120.000000
56,-200.000000,-3120.000000
57,-200.000000,-3120.000000
58,-204.000000,-3120.000000
59,-200.000000,-3120.000000
60,-200.000000,-3120.000000
61,-196.000000,-3120.000000
62,-200.000000,-3080.000000
63,-200.000000,-3120.000000
64,-200.000000,-3120.000000
65,-200.000000,-3080.000000
66,-200.000000,-3120.000000
67,-200.000000,-3080.000000
68,-196.000000,-3120.000000
69,-204.000000,-3080.000000
70,-200.000000,-3120.000000
71,-200.000000,-3080.000000
72,-200.000000,-3120.000000
73,-200.000000,-3120.000000
74,-200.000000,-3120.000000
75,-200.000000,-3080.000000
76,-200.000000,-3080.000000
77,-200.000000,-3120.000000
78,-200.000000,-3120.000000
79,-204.000000,-3120.000000
80,-200.000000,-3120.000000
81,-200.000000,-3120.000000
82,-204.000000,-3120.000000
83,-200.000000,-3120.000000
84,-200.000000,-3080.000000
85,-196.000000,-3120.000000
86,-200.000000,-3120.000000
87,-200.000000,-3120.000000
88,-200.000000,-3080.000000
89,-200.000000,-3120.000000
90,-200.000000,-3120.000000
91,-200.000000,-3120.000000
92,-200.000000,-3120.000000
93,-200.000000,-3080.000000
94,-200.000000,-3120.000000
95,-200.000000,-3120.000000
96,-200.000000,-3120.000000
97,-200.000000,-3120.000000
98,-200.000000,-3120.000000
99,-196.000000,-3120.000000
100,-200.000000,-3120.000000
101,-200.000000,-3120.000000
102,-200.000000,-3120.000000
103,-196.000000,-3120.000000
104,-200.000000,-3120.000000
105,-200.000000,-3120.000000
106,-200.000000,-3120.000000
107,-92.000000,-3120.000000
108,36.000000,-3080.000000
109,136.000000,-3120.000000
110,180.000000,-3120.000000
111,196.000000,-3120.000000
112,60.000000,-3120.000000
113,-32.000000,-3120.000000
114,-92.000000,-3120.000000
115,-128.000000,-3080.000000
116,-152.000000,-3120.000000
117,-168.000000,-3080.000000
118,-180.000000,-3120.000000
119,-184.000000,-3080.000000
120,-192.000000,-3080.000000
121,-196.000000,-3120.000000
122,-196.000000,-3120.000000
123,-196.000000,-3080.000000
124,-196.000000,-3080.000000
125,-200.000000,-3120.000000
126,-196.000000,-3120.000000
127,-200.000000,-3120.000000
128,-200.000000,-3120.000000
129,-200.000000,-3120.000000
130,-196.000000,-3120.000000
131,-200.000000,-3080.000000
132,-196.000000,-3120.000000
133,-200.000000,-3080.000000
134,-200.000000,-3080.000000
135,-200.000000,-3120.000000
136,-200.000000,-3120.000000
137,-196.000000,-3120.000000
138,-200.000000,-3120.000000
139,-204.000000,-3120.000000
140,-200.000000,-3120.000000
141,-200.000000,-3120.000000
142,-200.000000,-3120.000000
143,-200.000000,-3080.000000
144,-200.000000,-3120.000000
145,-204.000000,-3120.000000
146,-200.000000,-3120.000000
147,-200.000000,-3120.000000
148,-200.000000,-3120.000000
149,-200.000000,-3080.000000
150,-200.000000,-3120.000000
151,-200.000000,-3120.000000
152,-200.000000,-3120.000000
153,-200.000000,-3120.000000
154,-200.000000,-3080.000000
155,-200.000000,-3120.000000
156,-200.000000,-3120.000000
157,-200.000000,-3120.000000
158,-200.000000,-3120.000000
159,-200.000000,-3120.000000
160,-200.000000,-3120.000000
161,-200.000000,-3120.000000
162,-200.000000,-3120.000000
163,-200.000000,-3120.000000
164,-200.000000,-3120.000000
165,-200.000000,-3120.000000
166,-200.000000,-3080.000000
167,-200.000000,-3120.000000
168,-200.000000,-3080.000000
169,-200.000000,-3080.000000
170,-200.000000,-3120.000000
171,-196.000000,-3080.000000
172,-200.000000,-3120.000000
173,-200.000000,-3120.000000
174,-200.000000,-3120.000000
175,-200.000000,-3120.000000
176,-200.000000,-3120.000000
177,-196.000000,-3120.000000
178,-196.000000,-3080.000000
179,-200.000000,-3120.000000
180,-200.000000,-3080.000000
181,-200.000000,-3080.000000
182,-200.000000,-3080.000000
183,-196.000000,-3080.000000
184,-200.000000,-3120.000000
185,-200.000000,-3080.000000
186,-200.000000,-3080.000000
187,-196.000000,-3120.000000
188,-200.000000,-3120.000000
189,-200.000000,-3120.000000
190,-200.000000,-3120.000000
191,-200.000000,-3120.000000
192,-200.000000,-3120.000000
193,-200.000000,-3120.000000
194,-200.000000,-3120.000000
195,-200.000000,-3080.000000
196,-200.000000,-3120.000000
197,-196.000000,-3080.000000
198,-200.000000,-3080.000000
199,-200.000000,-3120.000000
200,-200.000000,-3120.000000
201,-196.000000,-3120.000000
202,-200.000000,-3120.000000
203,-200.000000,-3120.000000
204,-200.000000,-3120.000000
205,-200.000000,-3120.000000
206,-200.000000,-3120.000000
207,-200.000000,-3080.000000
208,-200.000000,-3120.000000
209,-200.000000,-3080.000000
210,-200.000000,-3120.000000
211,-200.000000,-3080.000000
212,-200.000000,-3120.000000
213,-196.000000,-3120.000000
214,-200.000000,-3120.000000
215,-200.000000,-3120.000000
216,-196.000000,-3120.000000
217,-200.000000,-3120.000000
218,-200.000000,-3120.000000
219,-200.000000,-3120.000000
220,-196.000000,-3080.000000
221,-200.000000,-3120.000000
222,-200.000000,-3120.000000
223,-196.000000,-3120.000000
224,-200.000000,-3080.000000
225,-200.000000,-3120.000000
226,-196.000000,-3080.000000
227,-196.000000,-3120.000000
228,-200.000000,-3080.000000
229,-196.000000,-3120.000000
230,-200.000000,-3120.000000
231,-200.000000,-3120.000000
232,-164.000000,-3120.000000
233,-24.000000,-3120.000000
234,88.000000,-3120.000000
235,168.000000,-3120.000000
236,188.000000,-3120.000000
237,124.000000,-3080.000000
238,12.000000,-3080.000000
239,-64.000000,-3120.000000
240,-112.000000,-3120.000000
241,-140.000000,-3120.000000
242,-164.000000,-3080.000000
243,-176.000000,-3080.000000
244,-180.000000,-3120.000000
245,-188.000000,-3120.000000
246,-188.000000,-3120.000000
247,-192.000000,-3120.000000
248,-200.000000,-3120.000000
249,-196.000000,-3120.000000
250,-196.000000,-3120.000000
251,-196.000000,-3120.000000
252,-200.000000,-3120.000000
253,-196.000000,-3120.000000
254,-200.000000,-3120.000000
255,-200.000000,-3080.000000
256,-196.000000,-3120.000000
257,-200.000000,-3120.000000
258,-196.000000,-3080.000000
259,-200.000000,-3120.000000
260,-200.000000,-3120.000000
261,-200.000000,-3120.000000
262,-200.000000,-3120.000000
263,-200.000000,-3120.000000
264,-200.000000,-3080.000000
265,-200.000000,-3120.000000
266,-200.000000,-3120.000000
267,-200.000000,-3120.000000
268,-200.000000,-3120.000000
269,-200.000000,-3120.000000
270,-200.000000,-3080.000000
271,-200.000000,-3120.000000
272,-200.000000,-3120.000000
273,-200.000000,-3120.000000
274,-200.000000,-3120.000000
275,-196.000000,-3080.000000
276,-196.000000,-3080.000000
277,-200.000000,-3120.000000
278,-200.000000,-3080.000000
279,-200.000000,-3120.000000
280,-200.000000,-3120.000000
281,-204.000000,-3120.000000
282,-200.000000,-3120.000000
283,-196.000000,-3120.000000
284,-200.000000,-3120.000000
285,-200.000000,-3080.000000
286,-200.000000,-3120.000000
287,-204.000000,-3120.000000
288,-196.000000,-3080.000000
289,-200.000000,-3080.000000
290,-200.000000,-3120.000000
291,-200.000000,-3120.000000
292,-204.000000,-3120.000000
293,-200.000000,-3120.000000
294,-200.000000,-3080.000000
295,-200.000000,-3080.000000
296,-200.000000,-3080.000000
297,-200.000000,-3120.000000
298,-200.000000,-3120.000000
299,-200.000000,-3120.000000
300,-200.000000,-3120.000000
301,-196.000000,-3120.000000
302,-200.000000,-3080.000000
303,-196.000000,-3120.000000
304,-200.000000,-3120.000000
305,-196.000000,-3120.000000
306,-200.000000,-3080.000000
307,-200.000000,-3080.000000
308,-200.000000,-3120.000000
309,-196.000000,-3080.000000
310,-200.000000,-3120.000000
311,-200.000000,-3120.000000
312,-200.000000,-3120.000000
313,-200.000000,-3120.000000
314,-196.000000,-3120.000000
315,-200.000000,-3080.000000
316,-200.000000,-3120.000000
317,-200.000000,-3120.000000
318,-200.000000,-3120.000000
319,-200.000000,-3080.000000
320,-196.000000,-3120.000000
321,-200.000000,-3120.000000
322,-200.000000,-3120.000000
323,-200.000000,-3120.000000
324,-200.000000,-3120.000000
325,-200.000000,-3120.000000
326,-200.000000,-3120.000000
327,-200.000000,-3080.000000
328,-200.000000,-3120.000000
329,-200.000000,-3120.000000
330,-200.000000,-3120.000000
331,-200.000000,-3080.000000
332,-200.000000,-3080.000000
333,-200.000000,-3120.000000
334,-200.000000,-3080.000000
335,-200.000000,-3120.000000
336,-200.000000,-3080.000000
337,-200.000000,-3080.000000
338,-200.000000,-3120.000000
339,-204.000000,-3120.000000
340,-200.000000,-3080.000000
341,-200.000000,-3120.000000
342,-200.000000,-3120.000000
343,-196.000000,-3120.000000
344,-196.000000,-3120.000000
345,-204.000000,-3120.000000
346,-196.000000,-3120.000000
347,-200.000000,-3080.000000
348,-200.000000,-3120.000000
349,-200.000000,-3120.000000
350,-200.000000,-3120.000000
351,-200.000000,-3120.000000
352,-200.000000,-3120.000000
353,-200.000000,-3120.000000
354,-200.000000,-3120.000000
355,-200.000000,-3120.000000
356,-196.000000,-3120.000000
357,-200.000000,-3080.000000
358,-84.000000,-3120.000000
359,44.000000,-3120.000000
360,140.000000,-3120.000000
361,184.000000,-3120.000000
362,196.000000,-3120.000000
363,52.000000,-3080.000000
364,-36.000000,-3120.000000
365,-96.000000,-3080.000000
366,-128.000000,-3080.000000
367,-156.000000,-3120.000000
368,-168.000000,-3080.000000
369,-184.000000,-3120.000000
370,-184.000000,-3120.000000
371,-188.000000,-3120.000000
372,-192.000000,-3120.000000
373,-196.000000,-3120.000000
374,-196.000000,-3120.000000
375,-200.000000,-3120.000000
376,-196.000000,-3080.000000
377,-200.000000,-3080.000000
378,-196.000000,-3120.000000
379,-200.000000,-3080.000000
380,-200.000000,-3120.000000
381,-200.000000,-3080.000000
382,-196.000000,-3120.000000
383,-200.000000,-3120.000000
384,-200.000000,-3080.000000
385,-200.000000,-3120.000000
386,-200.000000,-3120.000000
387,-200.000000,-3120.000000
388,-200.000000,-3120.000000
389,-196.000000,-3120.000000
390,-204.000000,-3120.000000
391,-200.000000,-3120.000000
392,-200.000000,-3080.000000
393,-200.000000,-3120.000000
394,-200.000000,-3120.000000
395,-200.000000,-3120.000000
396,-200.000000,-3080.000000
397,-200.000000,-3120.000000
398,-196.000000,-3120.000000
399,-200.000000,-3120.000000
400,-196.000000,-3080.000000
401,-196.000000,-3120.000000
402,-200.000000,-3120.000000
403,-200.000000,-3080.000000
404,-200.000000,-3080.000000
405,-200.000000,-3120.000000
406,-200.000000,-3080.000000
407,-196.000000,-3120.000000
408,-200.000000,-3120.000000
409,-200.000000,-3120.000000
410,-200.000000,-3080.000000
411,-200.000000,-3120.000000
412,-200.000000,-3120.000000
413,-200.000000,-3120.000000
414,-200.000000,-3120.000000
415,-204.000000,-3120.000000
416,-200.000000,-3080.000000
417,-200.000000,-3120.000000
418,-196.000000,-3120.000000
419,-200.000000,-3120.000000
420,-200.000000,-3080.000000
421,-200.000000,-3120.000000
422,-196.000000,-3120.000000
423,-200.000000,-3120.000000
424,-200.000000,-3080.000000
425,-200.000000,-3120.000000
426,-196.000000,-3120.000000
427,-200.000000,-3120.000000
428,-200.000000,-3120.000000
429,-200.000000,-3120.000000
430,-200.000000,-3120.000000
431,-200.000000,-3120.000000
432,-200.000000,-3080.000000
433,-200.000000,-3120.000000
434,-196.000000,-3080.000000
435,-200.000000,-3120.000000
436,-200.000000,-3120.000000
437,-200.000000,-3120.000000
438,-196.000000,-3120.000000
439,-200.000000,-3120.000000
440,-200.000000,-3080.000000
441,-200.000000,-3120.000000
442,-200.000000,-3120.000000
443,-200.000000,-3120.000000
444,-200.000000,-3120.000000
445,-200.000000,-3120.000000
446,-200.000000,-3120.000000
447,-200.000000,-3080.000000
448,-196.000000,-3120.000000
449,-200.000000,-3120.000000
450,-200.000000,-3080.000000
451,-196.000000,-3120.000000
452,-200.000000,-3080.000000
453,-196.000000,-3120.000000
454,-200.000000,-3120.000000
455,-196.000000,-3080.000000
456,-200.000000,-3080.000000
457,-196.000000,-3120.000000
458,-200.000000,-3080.000000
459,-200.000000,-3120.000000
460,-200.000000,-3080.000000
461,-196.000000,-3120.000000
462,-200.000000,-3120.000000
463,-196.000000,-3120.000000
464,-196.000000,-3080.000000
465,-200.000000,-3120.000000
466,-196.000000,-3120.000000
467,-200.000000,-3120.000000
468,-196.000000,-3080.000000
469,-196.000000,-3120.000000
470,-200.000000,-3120.000000
471,-200.000000,-3120.000000
472,-200.000000,-3080.000000
473,-200.000000,-3120.000000
474,-200.000000,-3120.000000
475,-200.000000,-3080.000000
476,-196.000000,-3080.000000
477,-200.000000,-3080.000000
478,-200.000000,-3120.000000
479,-200.000000,-3120.000000
480,-196.000000,-3120.000000
481,-200.000000,-3120.000000
482,-200.000000,-3080.000000
483,-144.000000,-3120.000000
484,-12.000000,-3120.000000
485,100.000000,-3080.000000
486,172.000000,-3120.000000
487,192.000000,-3120.000000
488,108.000000,-3120.000000
489,0.000000,-3120.000000
490,-68.000000,-3120.000000
491,-116.000000,-3080.000000
492,-144.000000,-3120.000000
493,-164.000000,-3120.000000
494,-180.000000,-3080.000000
495,-188.000000,-3120.000000
496,-188.000000,-3120.000000
497,-192.000000,-3120.000000
498,-196.000000,-3120.000000
499,-196.000000,-3080.000000
500,-196.000000,-3080.000000
501,-196.000000,-3080.000000
502,-196.000000,-3080.000000
503,-196.000000,-3080.000000
504,-200.000000,-3120.000000
505,-200.000000,-3120.000000
506,-200.000000,-3120.000000
507,-200.000000,-3120.000000
508,-200.000000,-3080.000000
509,-200.000000,-3120.000000
510,-200.000000,-3080.000000
511,-200.000000,-3120.000000
512,-200.000000,-3080.000000
513,-200.000000,-3120.000000
514,-196.000000,-3120.000000
515,-200.000000,-3120.000000
516,-196.000000,-3120.000000
517,-200.000000,-3120.000000
518,-200.000000,-3120.000000
519,-200.000000,-3120.000000
520,-196.000000,-3120.000000
521,-200.000000,-3120.000000
522,-200.000000,-3120.000000
523,-196.000000,-3120.000000
524,-196.000000,-3080.000000
525,-200.000000,-3080.000000
526,-200.000000,-3120.000000
527,-196.000000,-3120.000000
528,-200.000000,-3080.000000
529,-200.000000,-3120.000000
530,-200.000000,-3120.000000
531,-200.000000,-3120.000000
532,-200.000000,-3080.000000
533,-200.000000,-3080.000000
534,-200.000000,-3120.000000
535,-196.000000,-3120.000000
536,-200.000000,-3080.000000
537,-200.000000,-3120.000000
538,-196.000000,-3120.000000
539,-200.000000,-3120.000000
540,-200.000000,-3120.000000
541,-204.000000,-3120.000000
542,-204.000000,-3120.000000
543,-200.000000,-3120.000000
544,-200.000000,-3120.000000
545,-196.000000,-3080.000000
546,-200.000000,-3120.000000
547,-200.000000,-3120.000000
548,-200.000000,-3120.000000
549,-200.000000,-3080.000000
550,-196.000000,-3120.000000
551,-200.000000,-3120.000000
552,-200.000000,-3120.000000
553,-200.000000,-3080.000000
554,-196.000000,-3120.000000
555,-200.000000,-3120.000000
556,-196.000000,-3120.000000
557,-200.000000,-3080.000000
558,-196.000000,-3120.000000
559,-200.000000,-3120.000000
560,-200.000000,-3120.000000
561,-200.000000,-3080.000000
562,-200.000000,-3120.000000
563,-200.000000,-3120.000000
564,-200.000000,-3120.000000
565,-200.000000,-3120.000000
566,-200.000000,-3080.000000
567,-200.000000,-3120.000000
568,-196.000000,-3080.000000
569,-200.000000,-3120.000000
570,-200.000000,-3120.000000
571,-200.000000,-3080.000000
572,-200.000000,-3120.000000
573,-200.000000,-3120.000000
574,-196.000000,-3120.000000
575,-200.000000,-3120.000000
576,-196.000000,-3120.000000
577,-200.000000,-3120.000000
578,-200.000000,-3120.000000
579,-196.000000,-3120.000000
580,-200.000000,-3080.000000
581,-200.000000,-3120.000000
582,-204.000000,-3080.000000
583,-200.000000,-3120.000000
584,-200.000000,-3120.000000
585,-196.000000,-3120.000000
586,-200.000000,-3120.000000
587,-200.000000,-3120.000000
588,-200.000000,-3080.000000
589,-200.000000,-3080.000000
590,-196.000000,-3120.000000
591,-200.000000,-3120.000000
592,-200.000000,-3120.000000
593,-196.000000,-3120.000000
594,-200.000000,-3120.000000
595,-200.000000,-3120.000000
596,-200.000000,-3080.000000
597,-200.000000,-3080.000000
598,-200.000000,-3120.000000
599,-200.000000,-3120.000000
600,-196.000000,-3080.000000
601,-200.000000,-3080.000000
602,-200.000000,-3080.000000
603,-200.000000,-3080.000000
604,-196.000000,-3120.000000
605,-204.000000,-3080.000000
606,-200.000000,-3080.000000
607,-200.000000,-3120.000000
608,-196.000000,-3120.000000
609,-68.000000,-3120.000000
610,52.000000,-3120.000000
611,144.000000,-3120.000000
612,180.000000,-3120.000000
613,176.000000,-3120.000000
614,40.000000,-3080.000000
615,-44.000000,-3120.000000
616,-96.000000,-3120.000000
617,-136.000000,-3120.000000
618,-156.000000,-3120.000000
619,-172.000000,-3120.000000
620,-180.000000,-3120.000000
621,-188.000000,-3120.000000
622,-192.000000,-3080.000000
623,-192.000000,-3120.000000
624,-192.000000,-3080.000000
625,-196.000000,-3080.000000
626,-200.000000,-3120.000000
627,-200.000000,-3120.000000
628,-200.000000,-3080.000000
629,-200.000000,-3080.000000
630,-196.000000,-3080.000000
631,-200.000000,-3080.000000
632,-204.000000,-3120.000000
633,-196.000000,-3080.000000
634,-200.000000,-3120.000000
635,-200.000000,-3120.000000
636,-200.000000,-3120.000000
637,-200.000000,-3120.000000
638,-196.000000,-3120.000000
639,-200.000000,-3120.000000
640,-196.000000,-3120.000000
641,-200.000000,-3080.000000
642,-200.000000,-3080.000000
643,-200.000000,-3120.000000
644,-200.000000,-3120.000000
645,-200.000000,-3120.000000
646,-196.000000,-3120.000000
647,-200.000000,-3120.000000
648,-200.000000,-3120.000000
649,-200.000000,-3120.000000
650,-200.000000,-3120.000000
651,-200.000000,-3080.000000
652,-200.000000,-3120.000000
653,-200.000000,-3080.000000
654,-200.000000,-3120.000000
655,-200.000000,-3120.000000
656,-200.000000,-3120.000000
657,-200.000000,-3080.000000
658,-200.000000,-3120.000000
659,-200.000000,-3120.000000
660,-200.000000,-3120.000000
661,-196.000000,-3120.000000
662,-200.000000,-3120.000000
663,-200.000000,-3080.000000
664,-200.000000,-3080.000000
665,-200.000000,-3120.000000
666,-196.000000,-3080.000000
667,-200.000000,-3120.000000
668,-200.000000,-3080.000000
669,-200.000000,-3120.000000
670,-200.000000,-3080.000000
671,-200.000000,-3080.000000
672,-200.000000,-3120.000000
673,-196.000000,-3120.000000
674,-200.000000,-3120.000000
675,-200.000000,-3120.000000
676,-200.000000,-3080.000000
677,-200.000000,-3120.000000
678,-200.000000,-3120.000000
679,-196.000000,-3080.000000
680,-196.000000,-3080.000000
681,-200.000000,-3120.000000
682,-200.000000,-3120.000000
683,-200.000000,-3120.000000
684,-200.000000,-3080.000000
