repport_data/power_measurements_V3/data_power_30/data_30_015.csv

Channel              :,CH1,CH2
Frequency            :,  ?,  ?
Period               :,  ?,  ?
PK-PK                :,464.0mV,80.00mV
Probe attenuation    :,1X,1X
Voltage per ADC value:,0.250000mV,2.500000mV
Time interval        :,400.00000uS,400.00000uS

index,CH1_Voltage(mV),CH2_Voltage(mV)
1,-200.000000,-3080.000000
2,-200.000000,-3080.000000
3,-204.000000,-3080.000000
4,-200.000000,-3080.000000
5,-196.000000,-3080.000000
6,-200.000000,-3080.000000
7,-200.000000,-3080.000000
8,-200.000000,-3080.000000
9,-200.000000,-3080.000000
10,-200.000000,-3080.000000
11,-200.000000,-3080.000000
12,-200.000000,-3080.000000
13,-200.000000,-3080.000000
14,-200.000000,-3080.000000
15,-200.000000,-3080.000000
16,-200.000000,-3080.000000
17,-196.000000,-3080.000000
18,-200.000000,-3080.000000
19,-200.000000,-3080.000000
20,-200.000000,-3080.000000
21,-200.000000,-3080.000000
22,-200.000000,-3120.000000
23,-200.000000,-3080.000000
24,-200.000000,-3080.000000
25,-200.000000,-3080.000000
26,-200.000000,-3080.000000
27,-200.000000,-3080.000000
28,-200.000000,-3080.000000
29,-200.000000,-3080.000000
30,-200.000000,-3080.000000
31,-200.000000,-3080.000000
32,-200.000000,-3080.000000
33,-204.000000,-3080.000000
34,-200.000000,-3080.000000
35,-200.000000,-3080.000000
36,-196.000000,-3080.000000
37,-200.000000,-3080.000000
38,-200.000000,-3080.000000
39,-200.000000,-3080.000000
40,-200.000000,-3080.000000
41,-200.000000,-3080.000000
42,-204.000000,-3080.000000
43,-200.000000,-3040.000000
44,-200.000000,-3080.000000
45,-200.000000,-3080.000000
46,-200.000000,-3080.000000
47,-200.000000,-3080.000000
48,-196.000000,-3080.000000
49,-200.000000,-3080.000000
50,-200.000000,-3080.000000
51,-200.000000,-3080.000000
52,-196.000000,-3080.000000
53,-200.000000,-3080.000000
54,-200.000000,-3080.000000
55,-200.000000,-3080.000000
56,-200.000000,-3080.000000
57,-200.000000,-3040.000000
58,-200.000000,-3080.000000
59,-200.000000,-3080.000000
60,-200.000000,-3080.000000
61,-200.000000,-3080.000000
62,-200.000000,-3080.000000
63,-200.000000,-3040.000000
64,-200.000000,-3080.000000
65,-200.000000,-3080.000000
66,-200.000000,-3080.000000
67,-200.000000,-3080.000000
68,-200.000000,-3120.000000
69,-200.000000,-3080.000000
70,-200.000000,-3080.000000
71,-200.000000,-3080.000000
72,-200.000000,-3080.000000
73,-200.000000,-3080.000000
74,-200.000000,-3080.000000
75,-200.000000,-3080.000000
76,-200.000000,-3040.000000
77,-200.000000,-3080.000000
78,-196.000000,-3080.000000
79,-200.000000,-3080.000000
80,-200.000000,-3080.000000
81,-140.000000,-3080.000000
82,-8.000000,-3120.000000
83,104.000000,-3080.000000
84,176.000000,-3080.000000
85,196.000000,-3080.000000
86,212.000000,-3080.000000
87,100.000000,-3080.000000
88,-8.000000,-3080.000000
89,-76.000000,-3080.000000
90,-116.000000,-3080.000000
91,-148.000000,-3080.000000
92,-164.000000,-3080.000000
93,-176.000000,-3080.000000
94,-184.000000,-3080.000000
95,-188.000000,-3080.000000
96,-192.000000,-3080.000000
97,-192.000000,-3080.000000
98,-196.000000,-3080.000000
99,-196.000000,-3080.000000
100,-200.000000,-3080.000000
101,-200.000000,-3080.000000
102,-200.000000,-3080.000000
103,-200.000000,-3080.000000
104,-200.000000,-3120.000000
105,-200.000000,-3080.000000
106,-200.000000,-3080.000000
107,-204.000000,-3080.000000
108,-200.000000,-3080.000000
109,-200.000000,-3080.000000
110,-200.000000,-3080.000000
111,-200.000000,-3080.000000
112,-200.000000,-3080.000000
113,-200.000000,-3120.000000
114,-204.000000,-3080.000000
115,-196.000000,-3080.000000
116,-200.000000,-3040.000000
117,-200.000000,-3080.000000
118,-200.000000,-3080.000000
119,-200.000000,-3080.000000
120,-200.000000,-3080.000000
121,-196.000000,-3080.000000
122,-200.000000,-3080.000000
123,-200.000000,-3080.000000
124,-200.000000,-3080.000000
125,-200.000000,-3080.000000
126,-200.000000,-3080.000000
127,-200.000000,-3080.000000
128,-200.000000,-3080.000000
129,-200.000000,-3080.000000
130,-200.000000,-3080.000000
131,-200.000000,-3080.000000
132,-200.000000,-3080.000000
133,-200.000000,-3080.000000
134,-200.000000,-3080.000000
135,-200.000000,-3080.000000
136,-200.000000,-3080.000000
137,-200.000000,-3080.000000
138,-200.000000,-3080.000000
139,-196.000000,-3080.000000
140,-204.000000,-3080.000000
141,-200.000000,-3080.000000
142,-200.000000,-3080.000000
143,-196.000000,-3080.000000
144,-200.000000,-3080.000000
145,-200.000000,-3080.000000
146,-196.000000,-3080.000000
147,-200.000000,-3080.000000
148,-200.000000,-3080.000000
149,-200.000000,-3080.000000
150,-200.000000,-3080.000000
151,-204.000000,-3080.000000
152,-196.000000,-3080.000000
153,-200.000000,-3080.000000
154,-196.000000,-3080.000000
155,-200.000000,-3080.000000
156,-200.000000,-3080.000000
157,-200.000000,-3080.000000
158,-200.000000,-3080.000000
159,-200.000000,-3080.000000
160,-196.000000,-3080.000000
161,-204.000000,-3080.000000
162,-200.000000,-3080.000000
163,-200.000000,-3080.000000
164,-200.000000,-3080.000000
165,-200.000000,-3080.000000
166,-200.000000,-3080.000000
167,-196.000000,-3080.000000
168,-196.000000,-3080.000000
169,-200.000000,-3080.000000
170,-200.000000,-3080.000000
171,-200.000000,-3080.000000
172,-200.000000,-3080.000000
173,-204.000000,-3080.000000
174,-200.000000,-3080.000000
175,-200.000000,-3080.000000
176,-200.000000,-3080.000000
177,-200.000000,-3080.000000
178,-200.000000,-3080.000000
179,-200.000000,-3080.000000
180,-200.000000,-3080.000000
181,-200.000000,-3080.000000
182,-200.000000,-3080.000000
183,-200.000000,-3080.000000
184,-200.000000,-3080.000000
185,-200.000000,-3080.000000
186,-200.000000,-3080.000000
187,-200.000000,-3080.000000
188,-200.000000,-3080.000000
189,-200.000000,-3080.000000
190,-196.000000,-3080.000000
191,-200.000000,-3080.000000
192,-200.000000,-3080.000000
193,-200.000000,-3080.000000
194,-200.000000,-3120.000000
195,-200.000000,-3080.000000
196,-200.000000,-3080.000000
197,-200.000000,-3080.000000
198,-200.000000,-3080.000000
199,-200.000000,-3080.000000
200,-200.000000,-3080.000000
201,-200.000000,-3080.000000
202,-200.000000,-3080.000000
203,-200.000000,-3080.000000
204,-200.000000,-3080.000000
205,-200.000000,-3080.000000
206,-200.000000,-3080.000000
207,-48.000000,-3080.000000
208,68.000000,-3040.000000
209,156.000000,-3080.000000
210,184.000000,-3080.000000
211,208.000000,-3080.000000
212,152.000000,-3080.000000
213,28.000000,-3080.000000
214,-52.000000,-3080.000000
215,-104.000000,-3080.000000
216,-140.000000,-3080.000000
217,-160.000000,-3080.000000
218,-172.000000,-3080.000000
219,-184.000000,-3080.000000
220,-188.000000,-3080.000000
221,-192.000000,-3080.000000
222,-192.000000,-3080.000000
223,-196.000000,-3080.000000
224,-196.000000,-3080.000000
225,-196.000000,-3080.000000
226,-200.000000,-3040.000000
227,-200.000000,-3080.000000
228,-196.000000,-3080.000000
229,-200.000000,-3080.000000
230,-200.000000,-3080.000000
231,-200.000000,-3040.000000
232,-200.000000,-3080.000000
233,-200.000000,-3080.000000
234,-200.000000,-3080.000000
235,-200.000000,-3080.000000
236,-204.000000,-3080.000000
237,-200.000000,-3080.000000
238,-200.000000,-3080.000000
239,-200.000000,-3080.000000
240,-200.000000,-3080.000000
241,-200.000000,-3080.000000
242,-196.000000,-3080.000000
243,-200.000000,-3080.000000
244,-200.000000,-3080.000000
245,-200.000000,-3080.000000
246,-200.000000,-3080.000000
247,-196.000000,-3080.000000
248,-200.000000,-3080.000000
249,-200.000000,-3080.000000
250,-200.000000,-3080.000000
251,-200.000000,-3080.000000
252,-196.000000,-3080.000000
253,-200.000000,-3080.000000
254,-200.000000,-3120.000000
255,-196.000000,-3080.000000
256,-200.000000,-3080.000000
257,-200.000000,-3080.000000
258,-200.000000,-3080.000000
259,-200.000000,-3080.000000
260,-200.000000,-3080.000000
261,-200.000000,-3080.000000
262,-200.000000,-3080.000000
263,-200.000000,-3120.000000
264,-200.000000,-3080.000000
265,-200.000000,-3040.000000
266,-200.000000,-3080.000000
267,-196.000000,-3080.000000
268,-200.000000,-3080.000000
269,-200.000000,-3080.000000
270,-200.000000,-3080.000000
271,-200.000000,-3080.000000
272,-200.000000,-3080.000000
273,-204.000000,-3080.000000
274,-200.000000,-3120.000000
275,-200.000000,-3080.000000
276,-200.000000,-3080.000000
277,-200.000000,-3080.000000
278,-204.000000,-3080.000000
279,-200.000000,-3080.000000
280,-200.000000,-3080.000000
281,-200.000000,-3080.000000
282,-200.000000,-3080.000000
283,-196.000000,-3080.000000
284,-200.000000,-3080.000000
285,-196.000000,-3080.000000
286,-200.000000,-3040.000000
287,-196.000000,-3080.000000
288,-200.000000,-3080.000000
289,-200.000000,-3080.000000
290,-200.000000,-3080.000000
291,-200.000000,-3080.000000
292,-200.000000,-3080.000000
293,-200.000000,-3080.000000
294,-200.000000,-3080.000000
295,-200.000000,-3080.000000
296,-200.000000,-3080.000000
297,-200.000000,-3080.000000
298,-200.000000,-3080.000000
299,-200.000000,-3080.000000
300,-200.000000,-3080.000000
301,-200.000000,-3120.000000
302,-196.000000,-3080.000000
303,-200.000000,-3080.000000
304,-200.000000,-3080.000000
305,-196.000000,-3080.000000
306,-196.000000,-3080.000000
307,-200.000000,-3080.000000
308,-200.000000,-3080.000000
309,-200.000000,-3080.000000
310,-200.000000,-3040.000000
311,-200.000000,-3080.000000
312,-200.000000,-3080.000000
313,-200.000000,-3080.000000
314,-200.000000,-3080.000000
315,-200.000000,-3080.000000
316,-200.000000,-3080.000000
317,-200.000000,-3080.000000
318,-200.000000,-3120.000000
319,-200.000000,-3080.000000
320,-200.000000,-3080.000000
321,-200.000000,-3080.000000
322,-196.000000,-3080.000000
323,-200.000000,-3080.000000
324,-200.000000,-3080.000000
325,-200.000000,-3080.000000
326,-200.000000,-3080.000000
327,-200.000000,-3080.000000
328,-196.000000,-3080.000000
329,-200.000000,-3080.000000
330,-200.000000,-3080.000000
331,-200.000000,-3080.000000
332,-100.000000,-3080.000000
333,28.000000,-3120.000000
334,128.000000,-3080.000000
335,180.000000,-3080.000000
336,200.000000,-3080.000000
337,216.000000,-3120.000000
338,64.000000,-3120.000000
339,-28.000000,-3080.000000
340,-88.000000,-3080.000000
341,-128.000000,-3080.000000
342,-152.000000,-3080.000000
343,-168.000000,-3080.000000
344,-180.000000,-3120.000000
345,-184.000000,-3080.000000
346,-192.000000,-3080.000000
347,-192.000000,-3080.000000
348,-196.000000,-3080.000000
349,-196.000000,-3080.000000
350,-196.000000,-3080.000000
351,-200.000000,-3080.000000
352,-200.000000,-3080.000000
353,-196.000000,-3080.000000
354,-200.000000,-3080.000000
355,-200.000000,-3080.000000
356,-200.000000,-3080.000000
357,-200.000000,-3080.000000
358,-200.000000,-3080.000000
359,-200.000000,-3080.000000
360,-200.000000,-3080.000000
361,-196.000000,-3080.000000
362,-200.000000,-3080.000000
363,-200.000000,-3080.000000
364,-200.000000,-3120.000000
365,-200.000000,-3080.000000
366,-204.000000,-3080.000000
367,-200.000000,-3080.000000
368,-196.000000,-3120.000000
369,-200.000000,-3080.000000
370,-200.000000,-3080.000000
371,-200.000000,-3080.000000
372,-200.000000,-3080.000000
373,-200.000000,-3080.000000
374,-200.000000,-3080.000000
375,-200.000000,-3080.000000
376,-200.000000,-3080.000000
377,-200.000000,-3080.000000
378,-200.000000,-3080.000000
379,-200.000000,-3080.000000
380,-200.000000,-3080.000000
381,-200.000000,-3080.000000
382,-200.000000,-3080.000000
383,-200.000000,-3080.000000
384,-200.000000,-3120.000000
385,-200.000000,-3080.000000
386,-200.000000,-3080.000000
387,-196.000000,-3080.000000
388,-200.000000,-3120.000000
389,-200.000000,-3080.000000
390,-200.000000,-3080.000000
391,-200.000000,-3080.000000
392,-200.000000,-3080.000000
393,-200.000000,-3040.000000
394,-200.000000,-3080.000000
395,-200.000000,-3040.000000
396,-200.000000,-3080.000000
397,-196.000000,-3080.000000
398,-200.000000,-3080.000000
399,-200.000000,-3080.000000
400,-200.000000,-3080.000000
401,-200.000000,-3120.000000
402,-200.000000,-3080.000000
403,-200.000000,-3080.000000
404,-196.000000,-3080.000000
405,-200.000000,-3080.000000
406,-200.000000,-3080.000000
407,-196.000000,-3080.000000
408,-200.000000,-3080.000000
409,-200.000000,-3120.000000
410,-196.000000,-3080.000000
411,-200.000000,-3080.000000
412,-196.000000,-3080.000000
413,-200.000000,-3080.000000
414,-200.000000,-3080.000000
415,-200.000000,-3080.000000
416,-200.000000,-3080.000000
417,-200.000000,-3080.000000
418,-200.000000,-3080.000000
419,-200.000000,-3120.000000
420,-200.000000,-3080.000000
421,-200.000000,-3080.000000
422,-200.000000,-3080.000000
423,-196.000000,-3080.000000
424,-200.000000,-3120.000000
425,-200.000000,-3080.000000
426,-200.000000,-3120.000000
427,-200.000000,-3080.000000
428,-204.000000,-3080.000000
429,-200.000000,-3080.000000
430,-200.000000,-3080.000000
431,-196.000000,-3080.000000
432,-196.000000,-3080.000000
433,-204.000000,-3080.000000
434,-200.000000,-3080.000000
435,-200.000000,-3080.000000
436,-200.000000,-3080.000000
437,-200.000000,-3080.000000
438,-200.000000,-3080.000000
439,-200.000000,-3120.000000
440,-200.000000,-3080.000000
441,-196.000000,-3080.000000
442,-200.000000,-3080.000000
443,-204.000000,-3080.000000
444,-200.000000,-3120.000000
445,-196.000000,-3080.000000
446,-200.000000,-3080.000000
447,-200.000000,-3080.000000
448,-200.000000,-3080.000000
449,-200.000000,-3080.000000
450,-200.000000,-3080.000000
451,-196.000000,-3080.000000
452,-200.000000,-3080.000000
453,-200.000000,-3080.000000
454,-204.000000,-3080.000000
455,-200.000000,-3080.000000
456,-200.000000,-3080.000000
457,-160.000000,-3080.000000
458,-24.000000,-3080.000000
459,92.000000,-3080.000000
460,168.000000,-3080.000000
461,188.000000,-3080.000000
462,212.000000,-3080.000000
463,116.000000,-3080.000000
464,4.000000,-3080.000000
465,-68.000000,-3080.000000
466,-116.000000,-3080.000000
467,-144.000000,-3080.000000
468,-164.000000,-3080.000000
469,-176.000000,-3080.000000
470,-188.000000,-3120.000000
471,-188.000000,-3080.000000
472,-192.000000,-3080.000000
473,-196.000000,-3080.000000
474,-196.000000,-3080.000000
475,-196.000000,-3080.000000
476,-200.000000,-3080.000000
477,-200.000000,-3040.000000
478,-200.000000,-3080.000000
479,-200.000000,-3080.000000
480,-200.000000,-3080.000000
481,-200.000000,-3080.000000
482,-196.000000,-3080.000000
483,-200.000000,-3080.000000
484,-200.000000,-3080.000000
485,-200.000000,-3080.000000
486,-200.000000,-3080.000000
487,-200.000000,-3080.000000
488,-200.000000,-3120.000000
489,-200.000000,-3080.000000
490,-200.000000,-3080.000000
491,-200.000000,-3080.000000
492,-200.000000,-3080.000000
493,-196.000000,-3080.000000
494,-200.000000,-3080.000000
495,-196.000000,-3080.000000
496,-200.000000,-3080.000000
497,-196.000000,-3080.000000
498,-200.000000,-3080.000000
499,-200.000000,-3080.000000
500,-200.000000,-3080.000000
501,-200.000000,-3080.000000
502,-196.000000,-3080.000000
503,-200.000000,-3080.000000
504,-200.000000,-3080.000000
505,-200.000000,-3080.000000
506,-200.000000,-3080.000000
507,-200.000000,-3080.000000
508,-200.000000,-3080.000000
509,-200.000000,-3080.000000
510,-200.000000,-3080.000000
511,-204.000000,-3080.000000
512,-200.000000,-3080.000000
513,-200.000000,-3080.000000
514,-200.000000,-3080.000000
515,-200.000000,-3080.000000
516,-200.000000,-3080.000000
517,-200.000000,-3080.000000
518,-200.000000,-3080.000000
519,-200.000000,-3080.000000
520,-204.000000,-3080.000000
521,-200.000000,-3080.000000
522,-200.000000,-3080.000000
523,-200.000000,-3080.000000
524,-200.000000,-3080.000000
525,-200.000000,-3080.000000
526,-200.000000,-3080.000000
527,-196.000000,-3080.000000
528,-196.000000,-3080.000000
529,-200.000000,-3080.000000
530,-200.000000,-3080.000000
531,-200.000000,-3080.000000
532,-200.000000,-3080.000000
533,-200.000000,-3080.000000
534,-200.000000,-3080.000000
535,-200.000000,-3080.000000
536,-196.000000,-3080.000000
537,-200.000000,-3080.000000
538,-200.000000,-3080.000000
539,-200.000000,-3080.000000
540,-200.000000,-3080.000000
541,-200.000000,-3080.000000
542,-196.000000,-3080.000000
543,-196.000000,-3080.000000
544,-200.000000,-3080.000000
545,-200.000000,-3080.000000
546,-200.000000,-3120.000000
547,-200.000000,-3080.000000
548,-196.000000,-3080.000000
549,-200.000000,-3080.000000
550,-200.000000,-3080.000000
551,-200.000000,-3080.000000
552,-200.000000,-3080.000000
553,-200.000000,-3080.000000
554,-200.000000,-3080.000000
555,-200.000000,-3080.000000
556,-200.000000,-3080.000000
557,-200.000000,-3080.000000
558,-200.000000,-3040.000000
559,-200.000000,-3080.000000
560,-200.000000,-3080.000000
561,-200.000000,-3080.000000
562,-200.000000,-3080.000000
563,-200.000000,-3080.000000
564,-200.000000,-3080.000000
565,-200.000000,-3080.000000
566,-200.000000,-3080.000000
567,-196.000000,-3080.000000
568,-200.000000,-3080.000000
569,-200.000000,-3080.000000
570,-200.000000,-3080.000000
571,-200.000000,-3080.000000
572,-200.000000,-3080.000000
573,-200.000000,-3080.000000
574,-200.000000,-3080.000000
575,-200.000000,-3080.000000
576,-200.000000,-3080.000000
577,-200.000000,-3080.000000
578,-204.000000,-3120.000000
579,-200.000000,-3080.000000
580,-200.000000,-3080.000000
581,-200.000000,-3080.000000
582,-200.000000,-3080.000000
583,-72.000000,-3080.000000
584,52.000000,-3080.000000
585,148.000000,-3080.000000
586,184.000000,-3080.000000
587,204.000000,-3080.000000
588,172.000000,-3080.000000
589,40.000000,-3080.000000
590,-44.000000,-3080.000000
591,-96.000000,-3080.000000
592,-136.000000,-3080.000000
593,-156.000000,-3080.000000
594,-168.000000,-3080.000000
595,-180.000000,-3080.000000
596,-188.000000,-3080.000000
597,-188.000000,-3080.000000
598,-192.000000,-3080.000000
599,-196.000000,-3080.000000
600,-196.000000,-3080.000000
601,-200.000000,-3080.000000
602,-200.000000,-3120.000000
603,-200.000000,-3080.000000
604,-200.000000,-3080.000000
605,-200.000000,-3080.000000
606,-200.000000,-3080.000000
607,-200.000000,-3120.000000
608,-200.000000,-3080.000000
609,-200.000000,-3080.000000
610,-200.000000,-3080.000000
611,-200.000000,-3080.000000
612,-200.000000,-3080.000000
613,-200.000000,-3080.000000
614,-196.000000,-3120.000000
615,-200.000000,-3080.000000
616,-200.000000,-3080.000000
617,-200.000000,-3080.000000
618,-200.000000,-3080.000000
619,-200.000000,-3120.000000
620,-200.000000,-3080.000000
621,-200.000000,-3080.000000
622,-196.000000,-3080.000000
623,-200.000000,-3080.000000
624,-200.000000,-3040.000000
625,-200.000000,-3080.000000
626,-200.000000,-3080.000000
627,-196.000000,-3080.000000
628,-200.000000,-3080.000000
629,-204.000000,-3080.000000
630,-196.000000,-3080.000000
631,-200.000000,-3080.000000
632,-200.000000,-3080.000000
633,-200.000000,-3080.000000
634,-200.000000,-3080.000000
635,-200.000000,-3080.000000
636,-200.000000,-3120.000000
637,-200.000000,-3080.000000
638,-200.000000,-3080.000000
639,-196.000000,-3080.000000
640,-200.000000,-3080.000000
641,-204.000000,-3080.000000
642,-200.000000,-3080.000000
643,-200.000000,-3080.000000
644,-200.000000,-3080.000000
645,-200.000000,-3080.000000
646,-200.000000,-3080.000000
647,-200.000000,-3080.000000
648,-196.000000,-3080.000000
649,-200.000000,-3080.000000
650,-200.000000,-3080.000000
651,-200.000000,-3080.000000
652,-200.000000,-3080.000000
653,-200.000000,-3080.000000
654,-200.000000,-3080.000000
655,-200.000000,-3080.000000
656,-200.000000,-3080.000000
657,-200.000000,-3080.000000
658,-200.000000,-3080.000000
659,-196.000000,-3080.000000
660,-200.000000,-3080.000000
661,-200.000000,-3080.000000
662,-200.000000,-3080.000000
663,-200.000000,-3080.000000
664,-200.000000,-3080.000000
665,-196.000000,-3080.000000
666,-200.000000,-3080.000000
667,-200.000000,-3080.000000
668,-200.000000,-3080.000000
669,-204.000000,-3080.000000
670,-200.000000,-3080.000000
671,-200.000000,-3120.000000
672,-204.000000,-3080.000000
673,-196.000000,-3080.000000
674,-200.000000,-3080.000000
675,-200.000000,-3120.000000
676,-200.000000,-3080.000000
677,-204.000000,-3080.000000
678,-200.000000,-3080.000000
679,-200.000000,-3080.000000
680,-200.000000,-3080.000000
681,-200.000000,-3080.000000
682,-200.000000,-3080.000000
683,-200.000000,-3080.000000
684,-200.000000,-3080.000000
685,-200.000000,-3080.000000
