repport_data/power_measurements_V3/data_power_30/data_30_008.csv

Channel              :,CH1,CH2
Frequency            :,  ?,  ?
Period               :,  ?,  ?
PK-PK                :,476.0mV,80.00mV
Probe attenuation    :,1X,1X
Voltage per ADC value:,0.250000mV,2.500000mV
Time interval        :,400.00000uS,400.00000uS

index,CH1_Voltage(mV),CH2_Voltage(mV)
1,-200.000000,-3080.000000
2,-200.000000,-3080.000000
3,-200.000000,-3120.000000
4,-200.000000,-3080.000000
5,-200.000000,-3120.000000
6,-200.000000,-3080.000000
7,-200.000000,-3120.000000
8,-200.000000,-3120.000000
9,-200.000000,-3080.000000
10,-200.000000,-3080.000000
11,-200.000000,-3120.000000
12,-200.000000,-3120.000000
13,-200.000000,-3080.000000
14,-200.000000,-3080.000000
15,-200.000000,-3120.000000
16,-200.000000,-3120.000000
17,-196.000000,-3120.000000
18,-200.000000,-3080.000000
19,-200.000000,-3120.000000
20,-196.000000,-3080.000000
21,-200.000000,-3080.000000
22,-200.000000,-3120.000000
23,-200.000000,-3080.000000
24,-200.000000,-3080.000000
25,-196.000000,-3120.000000
26,-200.000000,-3120.000000
27,-200.000000,-3080.000000
28,-200.000000,-3120.000000
29,-204.000000,-3080.000000
30,-200.000000,-3120.000000
31,-200.000000,-3080.000000
32,-200.000000,-3080.000000
33,-204.000000,-3120.000000
34,-200.000000,-3080.000000
35,-200.000000,-3080.000000
36,-200.000000,-3080.000000
37,-200.000000,-3080.000000
38,-204.000000,-3080.000000
39,-204.000000,-3080.000000
40,-56.000000,-3080.000000
41,60.000000,-3080.000000
42,152.000000,-3080.000000
43,180.000000,-3080.000000
44,192.000000,-3080.000000
45,184.000000,-3120.000000
46,188.000000,-3120.000000
47,216.000000,-3080.000000
48,232.000000,-3120.000000
49,240.000000,-3120.000000
50,248.000000,-3080.000000
51,252.000000,-3080.000000
52,252.000000,-3080.000000
53,256.000000,-3080.000000
54,256.000000,-3080.000000
55,256.000000,-3120.000000
56,256.000000,-3080.000000
57,260.000000,-3120.000000
58,252.000000,-3080.000000
59,256.000000,-3080.000000
60,256.000000,-3080.000000
61,260.000000,-3080.000000
62,256.000000,-3080.000000
63,260.000000,-3080.000000
64,260.000000,-3080.000000
65,260.000000,-3120.000000
66,260.000000,-3080.000000
67,256.000000,-3120.000000
68,256.000000,-3120.000000
69,256.000000,-3120.000000
70,260.000000,-3120.000000
71,256.000000,-3080.000000
72,256.000000,-3080.000000
73,256.000000,-3120.000000
74,260.000000,-3080.000000
75,256.000000,-3080.000000
76,260.000000,-3080.000000
77,256.000000,-3080.000000
78,260.000000,-3080.000000
79,256.000000,-3080.000000
80,256.000000,-3120.000000
81,256.000000,-3120.000000
82,256.000000,-3120.000000
83,256.000000,-3120.000000
84,256.000000,-3120.000000
85,256.000000,-3120.000000
86,256.000000,-3080.000000
87,256.000000,-3120.000000
88,256.000000,-3080.000000
89,252.000000,-3120.000000
90,256.000000,-3120.000000
91,256.000000,-3080.000000
92,256.000000,-3080.000000
93,252.000000,-3120.000000
94,252.000000,-3080.000000
95,256.000000,-3080.000000
96,256.000000,-3080.000000
97,252.000000,-3120.000000
98,256.000000,-3080.000000
99,256.000000,-3120.000000
100,260.000000,-3080.000000
101,256.000000,-3120.000000
102,256.000000,-3080.000000
103,256.000000,-3120.000000
104,256.000000,-3080.000000
105,256.000000,-3080.000000
106,256.000000,-3120.000000
107,252.000000,-3080.000000
108,252.000000,-3080.000000
109,256.000000,-3080.000000
110,256.000000,-3120.000000
111,256.000000,-3120.000000
112,256.000000,-3080.000000
113,256.000000,-3080.000000
114,256.000000,-3120.000000
115,252.000000,-3080.000000
116,256.000000,-3080.000000
117,256.000000,-3120.000000
118,252.000000,-3080.000000
119,256.000000,-3120.000000
120,252.000000,-3080.000000
121,252.000000,-3080.000000
122,256.000000,-3080.000000
123,256.000000,-3120.000000
124,256.000000,-3120.000000
125,256.000000,-3080.000000
126,256.000000,-3080.000000
127,256.000000,-3120.000000
128,256.000000,-3080.000000
129,252.000000,-3120.000000
130,256.000000,-3080.000000
131,252.000000,-3120.000000
132,252.000000,-3120.000000
133,256.000000,-3120.000000
134,252.000000,-3080.000000
135,256.000000,-3080.000000
136,256.000000,-3120.000000
137,256.000000,-3080.000000
138,256.000000,-3080.000000
139,256.000000,-3080.000000
140,256.000000,-3080.000000
141,252.000000,-3080.000000
142,252.000000,-3080.000000
143,252.000000,-3080.000000
144,204.000000,-3080.000000
145,216.000000,-3080.000000
146,240.000000,-3080.000000
147,256.000000,-3080.000000
148,96.000000,-3120.000000
149,-12.000000,-3080.000000
150,-80.000000,-3120.000000
151,-124.000000,-3120.000000
152,-156.000000,-3080.000000
153,-176.000000,-3120.000000
154,-188.000000,-3080.000000
155,-196.000000,-3080.000000
156,-200.000000,-3120.000000
157,-204.000000,-3120.000000
158,-204.000000,-3080.000000
159,-208.000000,-3080.000000
160,-208.000000,-3120.000000
161,-208.000000,-3080.000000
162,-212.000000,-3120.000000
163,-212.000000,-3080.000000
164,-212.000000,-3080.000000
165,-212.000000,-3080.000000
166,-208.000000,-3120.000000
167,-212.000000,-3080.000000
168,-212.000000,-3120.000000
169,-212.000000,-3120.000000
170,-212.000000,-3080.000000
171,-208.000000,-3080.000000
172,-212.000000,-3080.000000
173,-212.000000,-3120.000000
174,-212.000000,-3120.000000
175,-212.000000,-3080.000000
176,-212.000000,-3080.000000
177,-212.000000,-3080.000000
178,-212.000000,-3080.000000
179,-212.000000,-3080.000000
180,-208.000000,-3080.000000
181,-212.000000,-3080.000000
182,-212.000000,-3120.000000
183,-212.000000,-3120.000000
184,-212.000000,-3120.000000
185,-212.000000,-3120.000000
186,-212.000000,-3080.000000
187,-212.000000,-3120.000000
188,-112.000000,-3080.000000
189,36.000000,-3120.000000
190,-28.000000,-3080.000000
191,-92.000000,-3080.000000
192,-136.000000,-3080.000000
193,-164.000000,-3080.000000
194,-180.000000,-3120.000000
195,-192.000000,-3120.000000
196,-200.000000,-3120.000000
197,-204.000000,-3120.000000
198,-204.000000,-3120.000000
199,-204.000000,-3120.000000
200,-208.000000,-3120.000000
201,-208.000000,-3120.000000
202,-212.000000,-3120.000000
203,-208.000000,-3080.000000
204,-208.000000,-3120.000000
205,-212.000000,-3080.000000
206,-212.000000,-3120.000000
207,-208.000000,-3120.000000
208,-212.000000,-3120.000000
209,-212.000000,-3120.000000
210,-212.000000,-3080.000000
211,-212.000000,-3080.000000
212,-208.000000,-3080.000000
213,-208.000000,-3080.000000
214,-208.000000,-3080.000000
215,-208.000000,-3120.000000
216,-208.000000,-3080.000000
217,-212.000000,-3080.000000
218,-208.000000,-3080.000000
219,-208.000000,-3080.000000
220,-208.000000,-3120.000000
221,-208.000000,-3080.000000
222,-208.000000,-3080.000000
223,-208.000000,-3120.000000
224,-208.000000,-3120.000000
225,-212.000000,-3120.000000
226,-196.000000,-3080.000000
227,-12.000000,-3080.000000
228,8.000000,-3120.000000
229,-72.000000,-3080.000000
230,-120.000000,-3120.000000
231,-156.000000,-3120.000000
232,-176.000000,-3080.000000
233,-188.000000,-3080.000000
234,-196.000000,-3080.000000
235,-200.000000,-3080.000000
236,-204.000000,-3080.000000
237,-208.000000,-3080.000000
238,-204.000000,-3120.000000
239,-208.000000,-3080.000000
240,-208.000000,-3080.000000
241,-208.000000,-3120.000000
242,-208.000000,-3120.000000
243,-208.000000,-3120.000000
244,-212.000000,-3120.000000
245,-208.000000,-3120.000000
246,-208.000000,-3120.000000
247,-208.000000,-3120.000000
248,-208.000000,-3120.000000
249,-208.000000,-3080.000000
250,-208.000000,-3120.000000
251,-212.000000,-3080.000000
252,-208.000000,-3120.000000
253,-212.000000,-3120.000000
254,-208.000000,-3080.000000
255,-208.000000,-3120.000000
256,-208.000000,-3120.000000
257,-208.000000,-3080.000000
258,-208.000000,-3120.000000
259,-208.000000,-3080.000000
260,-208.000000,-3120.000000
261,-208.000000,-3120.000000
262,-208.000000,-3120.000000
263,-212.000000,-3120.000000
264,-208.000000,-3120.000000
265,-76.000000,-3080.000000
266,56.000000,-3080.000000
267,-40.000000,-3120.000000
268,-100.000000,-3120.000000
269,-140.000000,-3120.000000
270,-168.000000,-3120.000000
271,-180.000000,-3120.000000
272,-192.000000,-3120.000000
273,-196.000000,-3120.000000
274,-200.000000,-3120.000000
275,-204.000000,-3120.000000
276,-208.000000,-3080.000000
277,-208.000000,-3120.000000
278,-208.000000,-3120.000000
279,-208.000000,-3120.000000
280,-208.000000,-3080.000000
281,-208.000000,-3080.000000
282,-212.000000,-3120.000000
283,-208.000000,-3080.000000
284,-208.000000,-3080.000000
285,-208.000000,-3080.000000
286,-208.000000,-3120.000000
287,-212.000000,-3120.000000
288,-212.000000,-3120.000000
289,-208.000000,-3080.000000
290,-208.000000,-3120.000000
291,-208.000000,-3080.000000
292,-212.000000,-3120.000000
293,-208.000000,-3080.000000
294,-208.000000,-3080.000000
295,-208.000000,-3080.000000
296,-208.000000,-3080.000000
297,-208.000000,-3120.000000
298,-208.000000,-3080.000000
299,-208.000000,-3120.000000
300,-212.000000,-3120.000000
301,-212.000000,-3120.000000
302,-212.000000,-3120.000000
303,-148.000000,-3080.000000
304,12.000000,-3080.000000
305,-8.000000,-3080.000000
306,-80.000000,-3120.000000
307,-128.000000,-3120.000000
308,-156.000000,-3080.000000
309,-176.000000,-3080.000000
310,-188.000000,-3080.000000
311,-196.000000,-3080.000000
312,-200.000000,-3080.000000
313,-204.000000,-3080.000000
314,-204.000000,-3120.000000
315,-204.000000,-3120.000000
316,-208.000000,-3120.000000
317,-208.000000,-3120.000000
318,-208.000000,-3080.000000
319,-208.000000,-3080.000000
320,-208.000000,-3120.000000
321,-208.000000,-3120.000000
322,-208.000000,-3120.000000
323,-208.000000,-3080.000000
324,-208.000000,-3080.000000
325,-208.000000,-3080.000000
326,-208.000000,-3120.000000
327,-208.000000,-3080.000000
328,-208.000000,-3080.000000
329,-208.000000,-3120.000000
330,-208.000000,-3120.000000
331,-208.000000,-3080.000000
332,-208.000000,-3120.000000
333,-208.000000,-3120.000000
334,-208.000000,-3120.000000
335,-208.000000,-3080.000000
336,-208.000000,-3120.000000
337,-208.000000,-3120.000000
338,-212.000000,-3080.000000
339,-208.000000,-3120.000000
340,-212.000000,-3080.000000
341,-208.000000,-3120.000000
342,-40.000000,-3120.000000
343,32.000000,-3080.000000
344,-56.000000,-3120.000000
345,-112.000000,-3080.000000
346,-144.000000,-3120.000000
347,-168.000000,-3080.000000
348,-184.000000,-3080.000000
349,-196.000000,-3120.000000
350,-200.000000,-3120.000000
351,-200.000000,-3120.000000
352,-204.000000,-3080.000000
353,-204.000000,-3120.000000
354,-208.000000,-3120.000000
355,-208.000000,-3080.000000
356,-204.000000,-3120.000000
357,-208.000000,-3120.000000
358,-208.000000,-3080.000000
359,-208.000000,-3080.000000
360,-208.000000,-3080.000000
361,-208.000000,-3120.000000
362,-208.000000,-3120.000000
363,-208.000000,-3120.000000
364,-208.000000,-3080.000000
365,-212.000000,-3080.000000
366,-208.000000,-3120.000000
367,-208.000000,-3120.000000
368,-208.000000,-3120.000000
369,-208.000000,-3120.000000
370,-208.000000,-3120.000000
371,-208.000000,-3080.000000
372,-208.000000,-3120.000000
373,-208.000000,-3080.000000
374,-208.000000,-3080.000000
375,-208.000000,-3080.000000
376,-208.000000,-3120.000000
377,-208.000000,-3080.000000
378,-208.000000,-3080.000000
379,-208.000000,-3080.000000
380,-112.000000,-3080.000000
381,40.000000,-3120.000000
382,-28.000000,-3120.000000
383,-92.000000,-3120.000000
384,-136.000000,-3080.000000
385,-160.000000,-3120.000000
386,-180.000000,-3080.000000
387,-188.000000,-3080.000000
388,-196.000000,-3080.000000
389,-200.000000,-3080.000000
390,-204.000000,-3080.000000
391,-208.000000,-3080.000000
392,-208.000000,-3120.000000
393,-208.000000,-3120.000000
394,-208.000000,-3080.000000
395,-208.000000,-3080.000000
396,-204.000000,-3120.000000
397,-208.000000,-3080.000000
398,-208.000000,-3120.000000
399,-212.000000,-3120.000000
400,-208.000000,-3120.000000
401,-208.000000,-3080.000000
402,-208.000000,-3080.000000
403,-208.000000,-3080.000000
404,-208.000000,-3120.000000
405,-208.000000,-3120.000000
406,-208.000000,-3080.000000
407,-208.000000,-3080.000000
408,-208.000000,-3120.000000
409,-208.000000,-3080.000000
410,-208.000000,-3080.000000
411,-208.000000,-3080.000000
412,-208.000000,-3080.000000
413,-208.000000,-3080.000000
414,-208.000000,-3080.000000
415,-208.000000,-3120.000000
416,-208.000000,-3080.000000
417,-208.000000,-3120.000000
418,-196.000000,-3120.000000
419,-12.000000,-3120.000000
420,8.000000,-3080.000000
421,-72.000000,-3080.000000
422,-120.000000,-3080.000000
423,-148.000000,-3080.000000
424,-172.000000,-3080.000000
425,-184.000000,-3080.000000
426,-192.000000,-3080.000000
427,-200.000000,-3080.000000
428,-204.000000,-3080.000000
429,-204.000000,-3080.000000
430,-208.000000,-3080.000000
431,-208.000000,-3080.000000
432,-208.000000,-3120.000000
433,-204.000000,-3080.000000
434,-208.000000,-3120.000000
435,-208.000000,-3120.000000
436,-208.000000,-3080.000000
437,-208.000000,-3080.000000
438,-208.000000,-3120.000000
439,-208.000000,-3120.000000
440,-208.000000,-3120.000000
441,-208.000000,-3080.000000
442,-208.000000,-3120.000000
443,-208.000000,-3120.000000
444,-212.000000,-3080.000000
445,-208.000000,-3080.000000
446,-208.000000,-3080.000000
447,-208.000000,-3080.000000
448,-208.000000,-3120.000000
449,-208.000000,-3080.000000
450,-208.000000,-3080.000000
451,-208.000000,-3120.000000
452,-208.000000,-3080.000000
453,-208.000000,-3120.000000
454,-208.000000,-3080.000000
455,-208.000000,-3080.000000
456,-208.000000,-3120.000000
457,-112.000000,-3120.000000
458,-152.000000,-3080.000000
459,-172.000000,-3080.000000
460,-184.000000,-3080.000000
461,-192.000000,-3120.000000
462,-200.000000,-3080.000000
463,-200.000000,-3120.000000
464,-204.000000,-3120.000000
465,-204.000000,-3080.000000
466,-192.000000,-3080.000000
467,-184.000000,-3080.000000
468,-192.000000,-3080.000000
469,-200.000000,-3080.000000
470,-200.000000,-3120.000000
471,-208.000000,-3080.000000
472,-204.000000,-3120.000000
473,-208.000000,-3080.000000
474,-208.000000,-3120.000000
475,-208.000000,-3080.000000
476,-212.000000,-3080.000000
477,-208.000000,-3120.000000
478,-208.000000,-3120.000000
479,-208.000000,-3080.000000
480,-208.000000,-3120.000000
481,-100.000000,-3120.000000
482,4.000000,-3080.000000
483,72.000000,-3080.000000
484,116.000000,-3080.000000
485,140.000000,-3080.000000
486,152.000000,-3080.000000
487,164.000000,-3080.000000
488,172.000000,-3080.000000
489,176.000000,-3120.000000
490,180.000000,-3120.000000
491,176.000000,-3080.000000
492,180.000000,-3120.000000
493,180.000000,-3080.000000
494,180.000000,-3120.000000
495,180.000000,-3080.000000
496,180.000000,-3120.000000
497,184.000000,-3120.000000
498,184.000000,-3080.000000
499,184.000000,-3080.000000
500,184.000000,-3120.000000
501,180.000000,-3080.000000
502,180.000000,-3120.000000
503,184.000000,-3120.000000
504,184.000000,-3080.000000
505,184.000000,-3120.000000
506,184.000000,-3120.000000
507,184.000000,-3080.000000
508,184.000000,-3080.000000
509,180.000000,-3080.000000
510,180.000000,-3120.000000
511,184.000000,-3120.000000
512,180.000000,-3120.000000
513,184.000000,-3120.000000
514,180.000000,-3080.000000
515,180.000000,-3120.000000
516,128.000000,-3120.000000
517,12.000000,-3120.000000
518,-64.000000,-3080.000000
519,-108.000000,-3080.000000
520,-140.000000,-3080.000000
521,-160.000000,-3080.000000
522,-176.000000,-3120.000000
523,-184.000000,-3080.000000
524,-188.000000,-3120.000000
525,-192.000000,-3120.000000
526,-196.000000,-3120.000000
527,-196.000000,-3080.000000
528,-200.000000,-3120.000000
529,-200.000000,-3120.000000
530,-200.000000,-3080.000000
531,-200.000000,-3080.000000
532,-200.000000,-3120.000000
533,-200.000000,-3120.000000
534,-200.000000,-3120.000000
535,-200.000000,-3080.000000
536,-200.000000,-3120.000000
537,-200.000000,-3120.000000
538,-204.000000,-3080.000000
539,-200.000000,-3080.000000
540,-200.000000,-3120.000000
541,-200.000000,-3120.000000
542,-200.000000,-3120.000000
543,-200.000000,-3120.000000
544,-200.000000,-3120.000000
545,-200.000000,-3080.000000
546,-200.000000,-3080.000000
547,-204.000000,-3120.000000
548,-200.000000,-3120.000000
549,-200.000000,-3120.000000
550,-200.000000,-3080.000000
551,-200.000000,-3120.000000
552,-200.000000,-3080.000000
553,-204.000000,-3120.000000
554,-200.000000,-3080.000000
555,-200.000000,-3120.000000
556,-200.000000,-3080.000000
557,-200.000000,-3080.000000
558,-200.000000,-3120.000000
559,-200.000000,-3120.000000
560,-200.000000,-3120.000000
561,-200.000000,-3080.000000
562,-200.000000,-3080.000000
563,-200.000000,-3120.000000
564,-200.000000,-3120.000000
565,-204.000000,-3120.000000
566,-200.000000,-3080.000000
567,-204.000000,-3080.000000
568,-200.000000,-3120.000000
569,-200.000000,-3080.000000
570,-200.000000,-3120.000000
571,-200.000000,-3080.000000
572,-200.000000,-3080.000000
573,-200.000000,-3080.000000
574,-200.000000,-3080.000000
575,-200.000000,-3080.000000
576,-200.000000,-3120.000000
577,-200.000000,-3080.000000
578,-204.000000,-3080.000000
579,-200.000000,-3120.000000
580,-200.000000,-3120.000000
581,-200.000000,-3120.000000
582,-200.000000,-3080.000000
583,-200.000000,-3080.000000
584,-200.000000,-3120.000000
585,-200.000000,-3120.000000
586,-196.000000,-3120.000000
587,-200.000000,-3080.000000
588,-196.000000,-3120.000000
589,-200.000000,-3120.000000
590,-200.000000,-3120.000000
591,-200.000000,-3080.000000
592,-200.000000,-3080.000000
593,-200.000000,-3120.000000
594,-200.000000,-3120.000000
595,-204.000000,-3120.000000
596,-200.000000,-3080.000000
597,-200.000000,-3080.000000
598,-200.000000,-3080.000000
599,-200.000000,-3080.000000
600,-200.000000,-3120.000000
601,-200.000000,-3080.000000
602,-200.000000,-3080.000000
603,-200.000000,-3120.000000
604,-200.000000,-3080.000000
605,-200.000000,-3080.000000
606,-200.000000,-3120.000000
607,-200.000000,-3080.000000
608,-200.000000,-3120.000000
609,-200.000000,-3120.000000
610,-196.000000,-3080.000000
611,-200.000000,-3120.000000
612,-200.000000,-3120.000000
613,-200.000000,-3080.000000
614,-200.000000,-3120.000000
615,-200.000000,-3120.000000
616,-200.000000,-3120.000000
617,-200.000000,-3120.000000
618,-200.000000,-3120.000000
619,-200.000000,-3120.000000
620,-200.000000,-3120.000000
621,-200.000000,-3080.000000
622,-200.000000,-3120.000000
623,-200.000000,-3080.000000
624,-200.000000,-3120.000000
625,-200.000000,-3080.000000
626,-204.000000,-3120.000000
627,-200.000000,-3080.000000
628,-200.000000,-3080.000000
629,-196.000000,-3080.000000
630,-200.000000,-3080.000000
631,-200.000000,-3120.000000
632,-200.000000,-3080.000000
633,-200.000000,-3080.000000
634,-200.000000,-3120.000000
635,-200.000000,-3080.000000
636,-200.000000,-3120.000000
637,-200.000000,-3080.000000
638,-200.000000,-3120.000000
639,-200.000000,-3080.000000
640,-200.000000,-3120.000000
641,-156.000000,-3080.000000
642,-20.000000,-3120.000000
643,88.000000,-3120.000000
644,172.000000,-3080.000000
645,192.000000,-3080.000000
646,196.000000,-3120.000000
647,128.000000,-3120.000000
648,12.000000,-3120.000000
649,-64.000000,-3080.000000
650,-108.000000,-3120.000000
651,-140.000000,-3120.000000
652,-160.000000,-3120.000000
653,-172.000000,-3120.000000
654,-184.000000,-3120.000000
655,-188.000000,-3120.000000
656,-192.000000,-3120.000000
657,-196.000000,-3120.000000
658,-196.000000,-3120.000000
659,-200.000000,-3120.000000
660,-200.000000,-3080.000000
661,-196.000000,-3080.000000
662,-200.000000,-3080.000000
663,-200.000000,-3080.000000
664,-200.000000,-3120.000000
665,-200.000000,-3080.000000
666,-200.000000,-3080.000000
667,-200.000000,-3120.000000
668,-200.000000,-3120.000000
669,-200.000000,-3120.000000
670,-200.000000,-3080.000000
671,-200.000000,-3120.000000
672,-200.000000,-3080.000000
673,-200.000000,-3120.000000
674,-200.000000,-3120.000000
675,-200.000000,-3080.000000
676,-200.000000,-3080.000000
677,-200.000000,-3080.000000
678,-200.000000,-3080.000000
679,-200.000000,-3120.000000
680,-200.000000,-3080.000000
681,-200.000000,-3080.000000
682,-200.000000,-3120.000000
683,-200.000000,-3120.000000
684,-200.000000,-3120.000000
685,-200.000000,-3120.000000
686,-200.000000,-3120.000000
687,-200.000000,-3120.000000
688,-200.000000,-3120.000000
689,-200.000000,-3120.000000
690,-196.000000,-3120.000000
