repport_data/power_measurements_V3/data_power_30/data_30_002.csv

Channel              :,CH1,CH2
Frequency            :,  ?,  ?
Period               :,  ?,  ?
PK-PK                :,468.0mV,80.00mV
Probe attenuation    :,1X,1X
Voltage per ADC value:,0.250000mV,2.500000mV
Time interval        :,400.00000uS,400.00000uS

index,CH1_Voltage(mV),CH2_Voltage(mV)
1,-204.000000,-3120.000000
2,-204.000000,-3120.000000
3,-204.000000,-3120.000000
4,-204.000000,-3120.000000
5,-200.000000,-3120.000000
6,-204.000000,-3120.000000
7,-208.000000,-3120.000000
8,-204.000000,-3120.000000
9,-208.000000,-3120.000000
10,-208.000000,-3120.000000
11,-204.000000,-3120.000000
12,-204.000000,-3120.000000
13,-80.000000,-3120.000000
14,44.000000,-3120.000000
15,132.000000,-3120.000000
16,168.000000,-3120.000000
17,184.000000,-3120.000000
18,164.000000,-3120.000000
19,40.000000,-3120.000000
20,-52.000000,-3160.000000
21,-108.000000,-3120.000000
22,-144.000000,-3120.000000
23,-164.000000,-3120.000000
24,-180.000000,-3120.000000
25,-188.000000,-3120.000000
26,-192.000000,-3120.000000
27,-200.000000,-3120.000000
28,-204.000000,-3120.000000
29,-200.000000,-3120.000000
30,-204.000000,-3120.000000
31,-208.000000,-3120.000000
32,-208.000000,-3120.000000
33,-208.000000,-3120.000000
34,-204.000000,-3120.000000
35,-204.000000,-3120.000000
36,-208.000000,-3120.000000
37,-200.000000,-3120.000000
38,-208.000000,-3120.000000
39,-204.000000,-3120.000000
40,-204.000000,-3120.000000
41,-204.000000,-3120.000000
42,-208.000000,-3120.000000
43,-204.000000,-3120.000000
44,-204.000000,-3120.000000
45,-204.000000,-3120.000000
46,-208.000000,-3120.000000
47,-204.000000,-3120.000000
48,-204.000000,-3120.000000
49,-208.000000,-3120.000000
50,-204.000000,-3120.000000
51,-204.000000,-3120.000000
52,-204.000000,-3120.000000
53,-208.000000,-3120.000000
54,-204.000000,-3120.000000
55,-204.000000,-3120.000000
56,-208.000000,-3120.000000
57,-204.000000,-3120.000000
58,-204.000000,-3120.000000
59,-204.000000,-3120.000000
60,-204.000000,-3120.000000
61,-200.000000,-3120.000000
62,-208.000000,-3120.000000
63,-208.000000,-3120.000000
64,-212.000000,-3120.000000
65,-208.000000,-3120.000000
66,-204.000000,-3120.000000
67,-204.000000,-3120.000000
68,-204.000000,-3120.000000
69,-204.000000,-3120.000000
70,-208.000000,-3120.000000
71,-204.000000,-3120.000000
72,-204.000000,-3120.000000
73,-204.000000,-3120.000000
74,-204.000000,-3120.000000
75,-208.000000,-3120.000000
76,-208.000000,-3120.000000
77,-204.000000,-3120.000000
78,-208.000000,-3120.000000
79,-208.000000,-3120.000000
80,-204.000000,-3120.000000
81,-208.000000,-3120.000000
82,-208.000000,-3120.000000
83,-204.000000,-3120.000000
84,-204.000000,-3120.000000
85,-204.000000,-3120.000000
86,-208.000000,-3080.000000
87,-208.000000,-3120.000000
88,-208.000000,-3120.000000
89,-204.000000,-3120.000000
90,-204.000000,-3120.000000
91,-204.000000,-3120.000000
92,-208.000000,-3120.000000
93,-208.000000,-3120.000000
94,-204.000000,-3120.000000
95,-208.000000,-3120.000000
96,-208.000000,-3120.000000
97,-208.000000,-3120.000000
98,-208.000000,-3120.000000
99,-204.000000,-3120.000000
100,-204.000000,-3120.000000
101,-208.000000,-3120.000000
102,-204.000000,-3120.000000
103,-208.000000,-3120.000000
104,-208.000000,-3120.000000
105,-204.000000,-3120.000000
106,-212.000000,-3120.000000
107,-204.000000,-3120.000000
108,-208.000000,-3120.000000
109,-204.000000,-3160.000000
110,-204.000000,-3120.000000
111,-204.000000,-3120.000000
112,-204.000000,-3120.000000
113,-208.000000,-3120.000000
114,-208.000000,-3120.000000
115,-204.000000,-3120.000000
116,-204.000000,-3120.000000
117,-204.000000,-3120.000000
118,-208.000000,-3120.000000
119,-200.000000,-3160.000000
120,-200.000000,-3120.000000
121,-208.000000,-3120.000000
122,-200.000000,-3120.000000
123,-212.000000,-3120.000000
124,-208.000000,-3120.000000
125,-204.000000,-3120.000000
126,-208.000000,-3120.000000
127,-208.000000,-3120.000000
128,-208.000000,-3120.000000
129,-208.000000,-3120.000000
130,-204.000000,-3160.000000
131,-204.000000,-3120.000000
132,-208.000000,-3120.000000
133,-204.000000,-3120.000000
134,-208.000000,-3120.000000
135,-208.000000,-3120.000000
136,-200.000000,-3120.000000
137,-208.000000,-3120.000000
138,-116.000000,-3120.000000
139,4.000000,-3120.000000
140,112.000000,-3120.000000
141,160.000000,-3120.000000
142,176.000000,-3120.000000
143,172.000000,-3160.000000
144,64.000000,-3120.000000
145,-32.000000,-3120.000000
146,-100.000000,-3120.000000
147,-132.000000,-3120.000000
148,-160.000000,-3120.000000
149,-184.000000,-3120.000000
150,-184.000000,-3120.000000
151,-192.000000,-3120.000000
152,-196.000000,-3120.000000
153,-200.000000,-3120.000000
154,-200.000000,-3120.000000
155,-204.000000,-3120.000000
156,-204.000000,-3120.000000
157,-204.000000,-3120.000000
158,-208.000000,-3120.000000
159,-204.000000,-3120.000000
160,-204.000000,-3120.000000
161,-208.000000,-3160.000000
162,-204.000000,-3120.000000
163,-200.000000,-3120.000000
164,-208.000000,-3120.000000
165,-204.000000,-3120.000000
166,-208.000000,-3120.000000
167,-204.000000,-3120.000000
168,-204.000000,-3120.000000
169,-208.000000,-3120.000000
170,-204.000000,-3120.000000
171,-208.000000,-3120.000000
172,-208.000000,-3120.000000
173,-204.000000,-3160.000000
174,-204.000000,-3120.000000
175,-204.000000,-3120.000000
176,-204.000000,-3120.000000
177,-204.000000,-3120.000000
178,-208.000000,-3120.000000
179,-204.000000,-3120.000000
180,-208.000000,-3120.000000
181,-204.000000,-3120.000000
182,-208.000000,-3120.000000
183,-204.000000,-3120.000000
184,-200.000000,-3120.000000
185,-204.000000,-3120.000000
186,-208.000000,-3120.000000
187,-208.000000,-3120.000000
188,-208.000000,-3120.000000
189,-208.000000,-3120.000000
190,-204.000000,-3120.000000
191,-204.000000,-3120.000000
192,-208.000000,-3120.000000
193,-208.000000,-3120.000000
194,-212.000000,-3120.000000
195,-208.000000,-3120.000000
196,-204.000000,-3120.000000
197,-208.000000,-3120.000000
198,-204.000000,-3120.000000
199,-204.000000,-3120.000000
200,-208.000000,-3120.000000
201,-208.000000,-3120.000000
202,-204.000000,-3120.000000
203,-200.000000,-3120.000000
204,-204.000000,-3120.000000
205,-204.000000,-3120.000000
206,-204.000000,-3120.000000
207,-208.000000,-3120.000000
208,-208.000000,-3120.000000
209,-204.000000,-3120.000000
210,-200.000000,-3120.000000
211,-204.000000,-3120.000000
212,-204.000000,-3120.000000
213,-208.000000,-3120.000000
214,-204.000000,-3120.000000
215,-204.000000,-3120.000000
216,-200.000000,-3120.000000
217,-204.000000,-3120.000000
218,-204.000000,-3120.000000
219,-204.000000,-3120.000000
220,-204.000000,-3120.000000
221,-208.000000,-3120.000000
222,-204.000000,-3120.000000
223,-208.000000,-3120.000000
224,-204.000000,-3120.000000
225,-204.000000,-3080.000000
226,-204.000000,-3120.000000
227,-208.000000,-3120.000000
228,-204.000000,-3120.000000
229,-208.000000,-3120.000000
230,-204.000000,-3120.000000
231,-208.000000,-3120.000000
232,-208.000000,-3120.000000
233,-204.000000,-3080.000000
234,-208.000000,-3120.000000
235,-204.000000,-3120.000000
236,-204.000000,-3120.000000
237,-204.000000,-3120.000000
238,-208.000000,-3120.000000
239,-204.000000,-3120.000000
240,-208.000000,-3120.000000
241,-208.000000,-3120.000000
242,-204.000000,-3120.000000
243,-208.000000,-3120.000000
244,-208.000000,-3120.000000
245,-200.000000,-3120.000000
246,-204.000000,-3120.000000
247,-200.000000,-3120.000000
248,-204.000000,-3120.000000
249,-204.000000,-3120.000000
250,-208.000000,-3120.000000
251,-204.000000,-3120.000000
252,-208.000000,-3120.000000
253,-204.000000,-3120.000000
254,-204.000000,-3120.000000
255,-208.000000,-3120.000000
256,-204.000000,-3120.000000
257,-204.000000,-3160.000000
258,-204.000000,-3120.000000
259,-204.000000,-3120.000000
260,-212.000000,-3120.000000
261,-204.000000,-3120.000000
262,-208.000000,-3120.000000
263,-152.000000,-3160.000000
264,-20.000000,-3120.000000
265,84.000000,-3120.000000
266,148.000000,-3120.000000
267,172.000000,-3120.000000
268,172.000000,-3120.000000
269,96.000000,-3120.000000
270,0.000000,-3120.000000
271,-80.000000,-3120.000000
272,-120.000000,-3120.000000
273,-152.000000,-3120.000000
274,-168.000000,-3120.000000
275,-184.000000,-3120.000000
276,-188.000000,-3080.000000
277,-192.000000,-3120.000000
278,-200.000000,-3120.000000
279,-200.000000,-3120.000000
280,-204.000000,-3120.000000
281,-204.000000,-3120.000000
282,-204.000000,-3120.000000
283,-212.000000,-3120.000000
284,-204.000000,-3120.000000
285,-208.000000,-3120.000000
286,-208.000000,-3120.000000
287,-208.000000,-3120.000000
288,-204.000000,-3120.000000
289,-204.000000,-3120.000000
290,-204.000000,-3120.000000
291,-208.000000,-3120.000000
292,-208.000000,-3120.000000
293,-208.000000,-3120.000000
294,-200.000000,-3120.000000
295,-204.000000,-3120.000000
296,-208.000000,-3120.000000
297,-208.000000,-3120.000000
298,-204.000000,-3120.000000
299,-212.000000,-3120.000000
300,-208.000000,-3120.000000
301,-208.000000,-3120.000000
302,-208.000000,-3120.000000
303,-204.000000,-3080.000000
304,-208.000000,-3120.000000
305,-208.000000,-3120.000000
306,-208.000000,-3120.000000
307,-208.000000,-3120.000000
308,-208.000000,-3120.000000
309,-204.000000,-3120.000000
310,-208.000000,-3120.000000
311,-204.000000,-3120.000000
312,-204.000000,-3120.000000
313,-208.000000,-3120.000000
314,-208.000000,-3120.000000
315,-204.000000,-3120.000000
316,-208.000000,-3120.000000
317,-212.000000,-3120.000000
318,-204.000000,-3120.000000
319,-200.000000,-3120.000000
320,-204.000000,-3120.000000
321,-204.000000,-3120.000000
322,-204.000000,-3120.000000
323,-204.000000,-3120.000000
324,-204.000000,-3120.000000
325,-208.000000,-3120.000000
326,-204.000000,-3120.000000
327,-204.000000,-3120.000000
328,-208.000000,-3120.000000
329,-204.000000,-3120.000000
330,-208.000000,-3120.000000
331,-208.000000,-3120.000000
332,-208.000000,-3120.000000
333,-204.000000,-3080.000000
334,-208.000000,-3120.000000
335,-208.000000,-3120.000000
336,-204.000000,-3120.000000
337,-204.000000,-3120.000000
338,-204.000000,-3120.000000
339,-204.000000,-3120.000000
340,-208.000000,-3120.000000
341,-204.000000,-3120.000000
342,-204.000000,-3160.000000
343,-204.000000,-3120.000000
344,-200.000000,-3120.000000
345,-212.000000,-3120.000000
346,-204.000000,-3120.000000
347,-204.000000,-3160.000000
348,-208.000000,-3120.000000
349,-208.000000,-3120.000000
350,-204.000000,-3120.000000
351,-208.000000,-3120.000000
352,-204.000000,-3120.000000
353,-200.000000,-3120.000000
354,-204.000000,-3120.000000
355,-208.000000,-3120.000000
356,-204.000000,-3120.000000
357,-208.000000,-3120.000000
358,-204.000000,-3120.000000
359,-204.000000,-3120.000000
360,-208.000000,-3120.000000
361,-204.000000,-3120.000000
362,-204.000000,-3120.000000
363,-204.000000,-3120.000000
364,-208.000000,-3120.000000
365,-204.000000,-3120.000000
366,-212.000000,-3120.000000
367,-200.000000,-3120.000000
368,-208.000000,-3120.000000
369,-204.000000,-3120.000000
370,-204.000000,-3120.000000
371,-208.000000,-3120.000000
372,-204.000000,-3120.000000
373,-212.000000,-3120.000000
374,-208.000000,-3120.000000
375,-204.000000,-3120.000000
376,-208.000000,-3120.000000
377,-204.000000,-3120.000000
378,-208.000000,-3120.000000
379,-208.000000,-3120.000000
380,-204.000000,-3120.000000
381,-204.000000,-3120.000000
382,-204.000000,-3120.000000
383,-204.000000,-3120.000000
384,-200.000000,-3120.000000
385,-208.000000,-3120.000000
386,-208.000000,-3120.000000
387,-204.000000,-3120.000000
388,-200.000000,-3120.000000
389,-60.000000,-3120.000000
390,52.000000,-3120.000000
391,132.000000,-3120.000000
392,168.000000,-3120.000000
393,180.000000,-3120.000000
394,140.000000,-3120.000000
395,20.000000,-3120.000000
396,-68.000000,-3120.000000
397,-112.000000,-3120.000000
398,-144.000000,-3120.000000
399,-168.000000,-3120.000000
400,-180.000000,-3120.000000
401,-188.000000,-3120.000000
402,-196.000000,-3120.000000
403,-196.000000,-3120.000000
404,-200.000000,-3120.000000
405,-204.000000,-3120.000000
406,-204.000000,-3120.000000
407,-204.000000,-3120.000000
408,-204.000000,-3120.000000
409,-204.000000,-3120.000000
410,-204.000000,-3120.000000
411,-208.000000,-3120.000000
412,-204.000000,-3120.000000
413,-212.000000,-3120.000000
414,-208.000000,-3120.000000
415,-208.000000,-3120.000000
416,-208.000000,-3120.000000
417,-208.000000,-3120.000000
418,-204.000000,-3120.000000
419,-208.000000,-3120.000000
420,-204.000000,-3120.000000
421,-208.000000,-3160.000000
422,-208.000000,-3120.000000
423,-204.000000,-3120.000000
424,-208.000000,-3120.000000
425,-208.000000,-3120.000000
426,-208.000000,-3120.000000
427,-208.000000,-3120.000000
428,-204.000000,-3120.000000
429,-208.000000,-3120.000000
430,-208.000000,-3120.000000
431,-204.000000,-3120.000000
432,-208.000000,-3120.000000
433,-208.000000,-3120.000000
434,-200.000000,-3120.000000
435,-204.000000,-3080.000000
436,-208.000000,-3120.000000
437,-204.000000,-3120.000000
438,-208.000000,-3120.000000
439,-204.000000,-3120.000000
440,-208.000000,-3120.000000
441,-208.000000,-3120.000000
442,-208.000000,-3120.000000
443,-208.000000,-3120.000000
444,-204.000000,-3120.000000
445,-212.000000,-3120.000000
446,-208.000000,-3120.000000
447,-212.000000,-3120.000000
448,-208.000000,-3120.000000
449,-204.000000,-3120.000000
450,-212.000000,-3120.000000
451,-208.000000,-3120.000000
452,-208.000000,-3120.000000
453,-204.000000,-3120.000000
454,-204.000000,-3120.000000
455,-204.000000,-3120.000000
456,-204.000000,-3120.000000
457,-200.000000,-3120.000000
458,-204.000000,-3120.000000
459,-208.000000,-3120.000000
460,-212.000000,-3120.000000
461,-208.000000,-3120.000000
462,-208.000000,-3120.000000
463,-204.000000,-3120.000000
464,-204.000000,-3120.000000
465,-204.000000,-3120.000000
466,-208.000000,-3120.000000
467,-204.000000,-3120.000000
468,-208.000000,-3120.000000
469,-200.000000,-3120.000000
470,-208.000000,-3120.000000
471,-204.000000,-3120.000000
472,-204.000000,-3120.000000
473,-204.000000,-3120.000000
474,-204.000000,-3120.000000
475,-204.000000,-3120.000000
476,-208.000000,-3120.000000
477,-204.000000,-3120.000000
478,-208.000000,-3160.000000
479,-204.000000,-3160.000000
480,-204.000000,-3120.000000
481,-204.000000,-3120.000000
482,-204.000000,-3120.000000
483,-200.000000,-3120.000000
484,-204.000000,-3120.000000
485,-208.000000,-3120.000000
486,-204.000000,-3120.000000
487,-208.000000,-3120.000000
488,-204.000000,-3120.000000
489,-204.000000,-3120.000000
490,-208.000000,-3120.000000
491,-204.000000,-3120.000000
492,-208.000000,-3120.000000
493,-212.000000,-3120.000000
494,-204.000000,-3120.000000
495,-212.000000,-3160.000000
496,-208.000000,-3120.000000
497,-204.000000,-3120.000000
498,-208.000000,-3120.000000
499,-204.000000,-3120.000000
500,-200.000000,-3120.000000
501,-204.000000,-3120.000000
502,-208.000000,-3120.000000
503,-208.000000,-3120.000000
504,-204.000000,-3120.000000
505,-204.000000,-3120.000000
506,-212.000000,-3120.000000
507,-208.000000,-3120.000000
508,-204.000000,-3120.000000
509,-208.000000,-3120.000000
510,-208.000000,-3120.000000
511,-204.000000,-3120.000000
512,-204.000000,-3120.000000
513,-204.000000,-3120.000000
514,-96.000000,-3120.000000
515,28.000000,-3120.000000
516,120.000000,-3120.000000
517,160.000000,-3120.000000
518,176.000000,-3120.000000
519,168.000000,-3120.000000
520,48.000000,-3120.000000
521,-48.000000,-3160.000000
522,-96.000000,-3120.000000
523,-136.000000,-3120.000000
524,-164.000000,-3120.000000
525,-172.000000,-3120.000000
526,-188.000000,-3120.000000
527,-192.000000,-3120.000000
528,-200.000000,-3120.000000
529,-200.000000,-3120.000000
530,-208.000000,-3120.000000
531,-200.000000,-3120.000000
532,-208.000000,-3120.000000
533,-208.000000,-3120.000000
534,-204.000000,-3120.000000
535,-208.000000,-3120.000000
536,-204.000000,-3120.000000
537,-204.000000,-3120.000000
538,-204.000000,-3120.000000
539,-204.000000,-3120.000000
540,-208.000000,-3120.000000
541,-208.000000,-3120.000000
542,-204.000000,-3120.000000
543,-204.000000,-3120.000000
544,-204.000000,-3120.000000
545,-204.000000,-3120.000000
546,-208.000000,-3120.000000
547,-208.000000,-3120.000000
548,-204.000000,-3120.000000
549,-208.000000,-3120.000000
550,-204.000000,-3120.000000
551,-208.000000,-3120.000000
552,-208.000000,-3120.000000
553,-208.000000,-3120.000000
554,-208.000000,-3120.000000
555,-208.000000,-3120.000000
556,-204.000000,-3120.000000
557,-204.000000,-3120.000000
558,-200.000000,-3120.000000
559,-200.000000,-3120.000000
560,-208.000000,-3120.000000
561,-208.000000,-3120.000000
562,-204.000000,-3120.000000
563,-204.000000,-3120.000000
564,-204.000000,-3120.000000
565,-208.000000,-3120.000000
566,-208.000000,-3120.000000
567,-204.000000,-3120.000000
568,-208.000000,-3120.000000
569,-200.000000,-3120.000000
570,-204.000000,-3120.000000
571,-204.000000,-3120.000000
572,-208.000000,-3120.000000
573,-204.000000,-3120.000000
574,-208.000000,-3120.000000
575,-208.000000,-3120.000000
576,-204.000000,-3120.000000
577,-208.000000,-3120.000000
578,-208.000000,-3120.000000
579,-208.000000,-3160.000000
580,-208.000000,-3120.000000
581,-204.000000,-3120.000000
582,-204.000000,-3120.000000
583,-208.000000,-3120.000000
584,-208.000000,-3120.000000
585,-208.000000,-3120.000000
586,-204.000000,-3120.000000
587,-208.000000,-3120.000000
588,-200.000000,-3120.000000
589,-208.000000,-3120.000000
590,-208.000000,-3120.000000
591,-204.000000,-3120.000000
592,-208.000000,-3120.000000
593,-208.000000,-3120.000000
594,-204.000000,-3120.000000
595,-204.000000,-3120.000000
596,-208.000000,-3120.000000
597,-208.000000,-3120.000000
598,-208.000000,-3120.000000
599,-200.000000,-3120.000000
600,-204.000000,-3160.000000
601,-204.000000,-3120.000000
602,-204.000000,-3120.000000
603,-208.000000,-3120.000000
604,-208.000000,-3120.000000
605,-204.000000,-3160.000000
606,-204.000000,-3120.000000
607,-204.000000,-3120.000000
608,-208.000000,-3120.000000
609,-204.000000,-3120.000000
610,-204.000000,-3120.000000
611,-208.000000,-3120.000000
612,-204.000000,-3120.000000
613,-208.000000,-3120.000000
614,-208.000000,-3120.000000
615,-208.000000,-3120.000000
616,-208.000000,-3120.000000
617,-208.000000,-3120.000000
618,-204.000000,-3120.000000
619,-200.000000,-3120.000000
620,-208.000000,-3120.000000
621,-200.000000,-3120.000000
622,-208.000000,-3120.000000
623,-204.000000,-3120.000000
624,-204.000000,-3120.000000
625,-208.000000,-3120.000000
626,-208.000000,-3120.000000
627,-204.000000,-3120.000000
628,-204.000000,-3120.000000
629,-204.000000,-3120.000000
630,-204.000000,-3120.000000
631,-204.000000,-3120.000000
632,-208.000000,-3120.000000
633,-204.000000,-3120.000000
634,-208.000000,-3120.000000
635,-204.000000,-3120.000000
636,-204.000000,-3120.000000
637,-204.000000,-3120.000000
638,-208.000000,-3120.000000
639,-128.000000,-3120.000000
640,-4.000000,-3120.000000
641,100.000000,-3120.000000
642,156.000000,-3120.000000
643,172.000000,-3120.000000
644,176.000000,-3120.000000
645,72.000000,-3120.000000
646,-24.000000,-3120.000000
647,-88.000000,-3120.000000
648,-136.000000,-3120.000000
649,-156.000000,-3120.000000
650,-176.000000,-3120.000000
651,-184.000000,-3120.000000
652,-192.000000,-3120.000000
653,-204.000000,-3120.000000
654,-200.000000,-3120.000000
655,-204.000000,-3080.000000
656,-200.000000,-3120.000000
657,-204.000000,-3120.000000
658,-204.000000,-3120.000000
659,-204.000000,-3120.000000
660,-204.000000,-3120.000000
661,-204.000000,-3120.000000
662,-204.000000,-3120.000000
663,-204.000000,-3120.000000
664,-204.000000,-3120.000000
665,-208.000000,-3120.000000
666,-208.000000,-3120.000000
667,-208.000000,-3120.000000
668,-208.000000,-3120.000000
669,-204.000000,-3120.000000
670,-204.000000,-3120.000000
671,-212.000000,-3120.000000
672,-204.000000,-3080.000000
673,-204.000000,-3120.000000
674,-208.000000,-3120.000000
675,-200.000000,-3120.000000
676,-204.000000,-3120.000000
677,-208.000000,-3080.000000
678,-208.000000,-3120.000000
679,-208.000000,-3120.000000
680,-208.000000,-3120.000000
681,-208.000000,-3120.000000
682,-208.000000,-3120.000000
683,-208.000000,-3120.000000
684,-204.000000,-3120.000000
685,-200.000000,-3120.000000
