repport_data/power_measurements_V3/data_power_30/data_30_006.csv

Channel              :,CH1,CH2
Frequency            :,  ?,  ?
Period               :,  ?,  ?
PK-PK                :,456.0mV,120.0mV
Probe attenuation    :,1X,1X
Voltage per ADC value:,0.250000mV,2.500000mV
Time interval        :,400.00000uS,400.00000uS

index,CH1_Voltage(mV),CH2_Voltage(mV)
1,272.000000,-3080.000000
2,272.000000,-3080.000000
3,272.000000,-3080.000000
4,272.000000,-3080.000000
5,272.000000,-3080.000000
6,272.000000,-3080.000000
7,272.000000,-3080.000000
8,272.000000,-3080.000000
9,272.000000,-3080.000000
10,272.000000,-3080.000000
11,272.000000,-3080.000000
12,272.000000,-3080.000000
13,256.000000,-3080.000000
14,208.000000,-3080.000000
15,188.000000,-3080.000000
16,188.000000,-3080.000000
17,192.000000,-3120.000000
18,188.000000,-3080.000000
19,192.000000,-3080.000000
20,180.000000,-3080.000000
21,184.000000,-3080.000000
22,188.000000,-3080.000000
23,188.000000,-3080.000000
24,180.000000,-3080.000000
25,184.000000,-3080.000000
26,184.000000,-3080.000000
27,188.000000,-3080.000000
28,188.000000,-3080.000000
29,180.000000,-3080.000000
30,184.000000,-3080.000000
31,188.000000,-3080.000000
32,188.000000,-3080.000000
33,180.000000,-3080.000000
34,180.000000,-3080.000000
35,184.000000,-3080.000000
36,188.000000,-3080.000000
37,188.000000,-3080.000000
38,180.000000,-3080.000000
39,184.000000,-3080.000000
40,184.000000,-3080.000000
41,188.000000,-3080.000000
42,180.000000,-3080.000000
43,184.000000,-3080.000000
44,184.000000,-3080.000000
45,188.000000,-3080.000000
46,188.000000,-3080.000000
47,180.000000,-3080.000000
48,184.000000,-3080.000000
49,188.000000,-3080.000000
50,188.000000,-3080.000000
51,180.000000,-3080.000000
52,184.000000,-3080.000000
53,188.000000,-3040.000000
54,188.000000,-3080.000000
55,188.000000,-3080.000000
56,176.000000,-3080.000000
57,184.000000,-3080.000000
58,188.000000,-3080.000000
59,192.000000,-3080.000000
60,180.000000,-3080.000000
61,184.000000,-3080.000000
62,184.000000,-3080.000000
63,184.000000,-3080.000000
64,184.000000,-3080.000000
65,180.000000,-3080.000000
66,184.000000,-3080.000000
67,188.000000,-3080.000000
68,188.000000,-3080.000000
69,176.000000,-3080.000000
70,184.000000,-3080.000000
71,188.000000,-3080.000000
72,188.000000,-3080.000000
73,188.000000,-3080.000000
74,176.000000,-3080.000000
75,184.000000,-3080.000000
76,184.000000,-3080.000000
77,192.000000,-3080.000000
78,176.000000,-3080.000000
79,180.000000,-3080.000000
80,184.000000,-3080.000000
81,188.000000,-3080.000000
82,184.000000,-3080.000000
83,180.000000,-3080.000000
84,184.000000,-3080.000000
85,188.000000,-3080.000000
86,188.000000,-3080.000000
87,180.000000,-3080.000000
88,184.000000,-3080.000000
89,184.000000,-3080.000000
90,188.000000,-3080.000000
91,188.000000,-3080.000000
92,180.000000,-3080.000000
93,184.000000,-3080.000000
94,184.000000,-3080.000000
95,188.000000,-3080.000000
96,176.000000,-3080.000000
97,184.000000,-3080.000000
98,184.000000,-3120.000000
99,188.000000,-3080.000000
100,184.000000,-3080.000000
101,180.000000,-3080.000000
102,184.000000,-3080.000000
103,188.000000,-3080.000000
104,188.000000,-3080.000000
105,176.000000,-3080.000000
106,180.000000,-3080.000000
107,184.000000,-3080.000000
108,188.000000,-3080.000000
109,184.000000,-3080.000000
110,180.000000,-3080.000000
111,184.000000,-3080.000000
112,184.000000,-3080.000000
113,192.000000,-3080.000000
114,176.000000,-3080.000000
115,184.000000,-3080.000000
116,184.000000,-3080.000000
117,188.000000,-3080.000000
118,184.000000,-3080.000000
119,180.000000,-3080.000000
120,184.000000,-3080.000000
121,188.000000,-3080.000000
122,188.000000,-3080.000000
123,176.000000,-3080.000000
124,184.000000,-3080.000000
125,188.000000,-3080.000000
126,188.000000,-3080.000000
127,180.000000,-3080.000000
128,180.000000,-3080.000000
129,184.000000,-3080.000000
130,188.000000,-3080.000000
131,192.000000,-3080.000000
132,176.000000,-3080.000000
133,184.000000,-3080.000000
134,184.000000,-3080.000000
135,184.000000,-3080.000000
136,180.000000,-3080.000000
137,180.000000,-3080.000000
138,184.000000,-3080.000000
139,188.000000,-3080.000000
140,192.000000,-3080.000000
141,176.000000,-3080.000000
142,184.000000,-3080.000000
143,184.000000,-3080.000000
144,188.000000,-3080.000000
145,184.000000,-3080.000000
146,180.000000,-3080.000000
147,184.000000,-3080.000000
148,188.000000,-3080.000000
149,188.000000,-3080.000000
150,176.000000,-3080.000000
151,184.000000,-3080.000000
152,188.000000,-3080.000000
153,184.000000,-3080.000000
154,176.000000,-3080.000000
155,180.000000,-3080.000000
156,188.000000,-3080.000000
157,184.000000,-3080.000000
158,188.000000,-3080.000000
159,176.000000,-3120.000000
160,184.000000,-3080.000000
161,184.000000,-3080.000000
162,188.000000,-3080.000000
163,180.000000,-3080.000000
164,180.000000,-3080.000000
165,184.000000,-3080.000000
166,184.000000,-3080.000000
167,188.000000,-3080.000000
168,180.000000,-3080.000000
169,184.000000,-3120.000000
170,184.000000,-3080.000000
171,184.000000,-3080.000000
172,180.000000,-3080.000000
173,180.000000,-3080.000000
174,184.000000,-3120.000000
175,184.000000,-3080.000000
176,192.000000,-3080.000000
177,176.000000,-3080.000000
178,184.000000,-3080.000000
179,184.000000,-3080.000000
180,188.000000,-3080.000000
181,180.000000,-3080.000000
182,184.000000,-3080.000000
183,184.000000,-3080.000000
184,188.000000,-3080.000000
185,184.000000,-3080.000000
186,180.000000,-3080.000000
187,184.000000,-3080.000000
188,188.000000,-3080.000000
189,192.000000,-3080.000000
190,180.000000,-3080.000000
191,184.000000,-3080.000000
192,188.000000,-3040.000000
193,188.000000,-3120.000000
194,184.000000,-3080.000000
195,176.000000,-3120.000000
196,184.000000,-3080.000000
197,188.000000,-3080.000000
198,188.000000,-3080.000000
199,180.000000,-3080.000000
200,180.000000,-3080.000000
201,184.000000,-3080.000000
202,184.000000,-3080.000000
203,184.000000,-3080.000000
204,180.000000,-3080.000000
205,180.000000,-3120.000000
206,188.000000,-3080.000000
207,188.000000,-3080.000000
208,176.000000,-3080.000000
209,184.000000,-3080.000000
210,184.000000,-3080.000000
211,184.000000,-3120.000000
212,184.000000,-3080.000000
213,180.000000,-3080.000000
214,180.000000,-3080.000000
215,188.000000,-3080.000000
216,188.000000,-3080.000000
217,176.000000,-3080.000000
218,180.000000,-3080.000000
219,188.000000,-3080.000000
220,188.000000,-3080.000000
221,184.000000,-3080.000000
222,176.000000,-3080.000000
223,184.000000,-3080.000000
224,188.000000,-3080.000000
225,188.000000,-3080.000000
226,180.000000,-3080.000000
227,180.000000,-3080.000000
228,184.000000,-3080.000000
229,188.000000,-3120.000000
230,184.000000,-3080.000000
231,180.000000,-3080.000000
232,184.000000,-3080.000000
233,184.000000,-3080.000000
234,192.000000,-3080.000000
235,176.000000,-3080.000000
236,184.000000,-3080.000000
237,184.000000,-3080.000000
238,188.000000,-3080.000000
239,184.000000,-3080.000000
240,180.000000,-3080.000000
241,184.000000,-3080.000000
242,188.000000,-3080.000000
243,192.000000,-3080.000000
244,196.000000,-3080.000000
245,196.000000,-3080.000000
246,200.000000,-3040.000000
247,204.000000,-3080.000000
248,200.000000,-3080.000000
249,200.000000,-3080.000000
250,200.000000,-3080.000000
251,196.000000,-3080.000000
252,200.000000,-3080.000000
253,200.000000,-3080.000000
254,196.000000,-3080.000000
255,196.000000,-3080.000000
256,196.000000,-3080.000000
257,196.000000,-3080.000000
258,200.000000,-3080.000000
259,192.000000,-3080.000000
260,196.000000,-3080.000000
261,196.000000,-3080.000000
262,200.000000,-3080.000000
263,196.000000,-3080.000000
264,196.000000,-3080.000000
265,196.000000,-3080.000000
266,196.000000,-3080.000000
267,196.000000,-3080.000000
268,196.000000,-3120.000000
269,196.000000,-3080.000000
270,200.000000,-3080.000000
271,196.000000,-3080.000000
272,196.000000,-3080.000000
273,192.000000,-3080.000000
274,200.000000,-3080.000000
275,200.000000,-3080.000000
276,196.000000,-3080.000000
277,196.000000,-3080.000000
278,196.000000,-3080.000000
279,88.000000,-3080.000000
280,-8.000000,-3080.000000
281,-64.000000,-3080.000000
282,-104.000000,-3080.000000
283,-128.000000,-3080.000000
284,-144.000000,-3080.000000
285,-156.000000,-3080.000000
286,-160.000000,-3080.000000
287,-164.000000,-3080.000000
288,-168.000000,-3080.000000
289,-168.000000,-3080.000000
290,-172.000000,-3120.000000
291,-172.000000,-3080.000000
292,-176.000000,-3120.000000
293,-176.000000,-3080.000000
294,-176.000000,-3080.000000
295,-172.000000,-3080.000000
296,-176.000000,-3080.000000
297,-176.000000,-3080.000000
298,-176.000000,-3080.000000
299,-176.000000,-3080.000000
300,-176.000000,-3080.000000
301,-176.000000,-3080.000000
302,-176.000000,-3080.000000
303,-176.000000,-3080.000000
304,-176.000000,-3120.000000
305,-172.000000,-3120.000000
306,-176.000000,-3080.000000
307,-176.000000,-3080.000000
308,-176.000000,-3080.000000
309,-176.000000,-3080.000000
310,-176.000000,-3080.000000
311,-172.000000,-3120.000000
312,-176.000000,-3120.000000
313,-176.000000,-3080.000000
314,-176.000000,-3080.000000
315,-176.000000,-3080.000000
316,-172.000000,-3080.000000
317,-172.000000,-3080.000000
318,-176.000000,-3080.000000
319,-176.000000,-3080.000000
320,-172.000000,-3080.000000
321,-176.000000,-3080.000000
322,-172.000000,-3080.000000
323,-172.000000,-3080.000000
324,-176.000000,-3080.000000
325,-172.000000,-3080.000000
326,-176.000000,-3080.000000
327,-172.000000,-3080.000000
328,-176.000000,-3120.000000
329,-172.000000,-3080.000000
330,-172.000000,-3080.000000
331,-172.000000,-3080.000000
332,-176.000000,-3080.000000
333,-176.000000,-3080.000000
334,-172.000000,-3120.000000
335,-176.000000,-3080.000000
336,-176.000000,-3080.000000
337,-172.000000,-3080.000000
338,-172.000000,-3080.000000
339,-172.000000,-3080.000000
340,-172.000000,-3120.000000
341,-176.000000,-3080.000000
342,-176.000000,-3080.000000
343,-176.000000,-3080.000000
344,-176.000000,-3080.000000
345,-176.000000,-3080.000000
346,-172.000000,-3080.000000
347,-172.000000,-3080.000000
348,-176.000000,-3080.000000
349,-172.000000,-3080.000000
350,-172.000000,-3080.000000
351,-172.000000,-3080.000000
352,-172.000000,-3080.000000
353,-176.000000,-3080.000000
354,-172.000000,-3080.000000
355,-172.000000,-3080.000000
356,-172.000000,-3080.000000
357,-172.000000,-3080.000000
358,-172.000000,-3120.000000
359,-176.000000,-3080.000000
360,-172.000000,-3080.000000
361,-172.000000,-3080.000000
362,-172.000000,-3080.000000
363,-176.000000,-3080.000000
364,-172.000000,-3080.000000
365,-176.000000,-3080.000000
366,-176.000000,-3080.000000
367,-172.000000,-3080.000000
368,-172.000000,-3080.000000
369,-172.000000,-3080.000000
370,-172.000000,-3080.000000
371,-176.000000,-3120.000000
372,-172.000000,-3080.000000
373,-176.000000,-3080.000000
374,-172.000000,-3080.000000
375,-172.000000,-3080.000000
376,-172.000000,-3120.000000
377,-172.000000,-3080.000000
378,-172.000000,-3080.000000
379,-172.000000,-3080.000000
380,-172.000000,-3080.000000
381,-172.000000,-3080.000000
382,-176.000000,-3080.000000
383,-176.000000,-3080.000000
384,-172.000000,-3080.000000
385,-172.000000,-3080.000000
386,-172.000000,-3080.000000
387,-176.000000,-3080.000000
388,-172.000000,-3080.000000
389,-172.000000,-3120.000000
390,-172.000000,-3080.000000
391,-172.000000,-3080.000000
392,-172.000000,-3120.000000
393,-172.000000,-3080.000000
394,-172.000000,-3080.000000
395,-172.000000,-3080.000000
396,-172.000000,-3080.000000
397,-172.000000,-3080.000000
398,-172.000000,-3080.000000
399,-172.000000,-3080.000000
400,-172.000000,-3080.000000
401,-172.000000,-3080.000000
402,-176.000000,-3120.000000
403,-172.000000,-3080.000000
404,-72.000000,-3080.000000
405,52.000000,-3080.000000
406,148.000000,-3080.000000
407,192.000000,-3080.000000
408,208.000000,-3080.000000
409,204.000000,-3080.000000
410,92.000000,-3080.000000
411,-4.000000,-3080.000000
412,-64.000000,-3080.000000
413,-100.000000,-3080.000000
414,-128.000000,-3080.000000
415,-140.000000,-3120.000000
416,-152.000000,-3080.000000
417,-160.000000,-3080.000000
418,-164.000000,-3080.000000
419,-168.000000,-3080.000000
420,-168.000000,-3080.000000
421,-168.000000,-3120.000000
422,-168.000000,-3080.000000
423,-172.000000,-3080.000000
424,-172.000000,-3080.000000
425,-172.000000,-3120.000000
426,-172.000000,-3080.000000
427,-172.000000,-3080.000000
428,-172.000000,-3080.000000
429,-172.000000,-3080.000000
430,-172.000000,-3120.000000
431,-172.000000,-3080.000000
432,-172.000000,-3080.000000
433,-172.000000,-3080.000000
434,-172.000000,-3120.000000
435,-172.000000,-3080.000000
436,-168.000000,-3120.000000
437,-172.000000,-3080.000000
438,-172.000000,-3080.000000
439,-172.000000,-3080.000000
440,-172.000000,-3080.000000
441,-168.000000,-3080.000000
442,-172.000000,-3080.000000
443,-168.000000,-3080.000000
444,-172.000000,-3080.000000
445,-172.000000,-3080.000000
446,-172.000000,-3080.000000
447,-176.000000,-3080.000000
448,-176.000000,-3080.000000
449,-172.000000,-3080.000000
450,-172.000000,-3120.000000
451,-172.000000,-3080.000000
452,-172.000000,-3080.000000
453,-172.000000,-3080.000000
454,-172.000000,-3080.000000
455,-172.000000,-3080.000000
456,-172.000000,-3080.000000
457,-172.000000,-3080.000000
458,-172.000000,-3080.000000
459,-172.000000,-3080.000000
460,-172.000000,-3080.000000
461,-172.000000,-3120.000000
462,-172.000000,-3080.000000
463,-172.000000,-3080.000000
464,-172.000000,-3080.000000
465,-172.000000,-3080.000000
466,-172.000000,-3120.000000
467,-172.000000,-3080.000000
468,-172.000000,-3080.000000
469,-172.000000,-3080.000000
470,-172.000000,-3080.000000
471,-172.000000,-3080.000000
472,-172.000000,-3080.000000
473,-172.000000,-3080.000000
474,-172.000000,-3080.000000
475,-172.000000,-3120.000000
476,-172.000000,-3080.000000
477,-172.000000,-3080.000000
478,-172.000000,-3080.000000
479,-172.000000,-3080.000000
480,-172.000000,-3080.000000
481,-176.000000,-3080.000000
482,-172.000000,-3080.000000
483,-172.000000,-3080.000000
484,-172.000000,-3080.000000
485,-168.000000,-3080.000000
486,-172.000000,-3080.000000
487,-172.000000,-3080.000000
488,-172.000000,-3080.000000
489,-172.000000,-3120.000000
490,-172.000000,-3080.000000
491,-172.000000,-3080.000000
492,-172.000000,-3080.000000
493,-176.000000,-3080.000000
494,-168.000000,-3080.000000
495,-172.000000,-3080.000000
496,-172.000000,-3080.000000
497,-172.000000,-3080.000000
498,-172.000000,-3080.000000
499,-172.000000,-3080.000000
500,-172.000000,-3080.000000
501,-172.000000,-3120.000000
502,-172.000000,-3080.000000
503,-172.000000,-3080.000000
504,-172.000000,-3080.000000
505,-172.000000,-3080.000000
506,-172.000000,-3080.000000
507,-176.000000,-3080.000000
508,-168.000000,-3080.000000
509,-172.000000,-3080.000000
510,-168.000000,-3080.000000
511,-168.000000,-3080.000000
512,-172.000000,-3080.000000
513,-172.000000,-3080.000000
514,-172.000000,-3080.000000
515,-172.000000,-3080.000000
516,-172.000000,-3080.000000
517,-168.000000,-3080.000000
518,-172.000000,-3080.000000
519,-172.000000,-3080.000000
520,-172.000000,-3080.000000
521,-172.000000,-3080.000000
522,-172.000000,-3080.000000
523,-172.000000,-3080.000000
524,-172.000000,-3080.000000
525,-172.000000,-3080.000000
526,-168.000000,-3080.000000
527,-172.000000,-3080.000000
528,-172.000000,-3080.000000
529,-136.000000,-3080.000000
530,4.000000,-3080.000000
531,112.000000,-3080.000000
532,184.000000,-3080.000000
533,204.000000,-3080.000000
534,212.000000,-3080.000000
535,152.000000,-3080.000000
536,32.000000,-3080.000000
537,-36.000000,-3080.000000
538,-84.000000,-3080.000000
539,-116.000000,-3080.000000
540,-136.000000,-3080.000000
541,-148.000000,-3080.000000
542,-156.000000,-3080.000000
543,-164.000000,-3080.000000
544,-164.000000,-3080.000000
545,-164.000000,-3080.000000
546,-172.000000,-3080.000000
547,-168.000000,-3080.000000
548,-172.000000,-3080.000000
549,-172.000000,-3080.000000
550,-168.000000,-3080.000000
551,-172.000000,-3040.000000
552,-172.000000,-3080.000000
553,-168.000000,-3080.000000
554,-172.000000,-3080.000000
555,-172.000000,-3080.000000
556,-172.000000,-3080.000000
557,-172.000000,-3080.000000
558,-172.000000,-3080.000000
559,-168.000000,-3080.000000
560,-168.000000,-3080.000000
561,-172.000000,-3080.000000
562,-168.000000,-3080.000000
563,-172.000000,-3080.000000
564,-172.000000,-3080.000000
565,-172.000000,-3080.000000
566,-172.000000,-3080.000000
567,-176.000000,-3080.000000
568,-176.000000,-3080.000000
569,-172.000000,-3120.000000
570,-172.000000,-3080.000000
571,-172.000000,-3120.000000
572,-172.000000,-3120.000000
573,-172.000000,-3080.000000
574,-172.000000,-3080.000000
575,-172.000000,-3080.000000
576,-172.000000,-3080.000000
577,-172.000000,-3080.000000
578,-172.000000,-3080.000000
579,-172.000000,-3120.000000
580,-172.000000,-3120.000000
581,-172.000000,-3080.000000
582,-172.000000,-3080.000000
583,-172.000000,-3080.000000
584,-172.000000,-3080.000000
585,-172.000000,-3080.000000
586,-172.000000,-3080.000000
587,-172.000000,-3080.000000
588,-172.000000,-3080.000000
589,-172.000000,-3080.000000
590,-172.000000,-3120.000000
591,-172.000000,-3080.000000
592,-172.000000,-3080.000000
593,-172.000000,-3080.000000
594,-168.000000,-3080.000000
595,-172.000000,-3080.000000
596,-172.000000,-3080.000000
597,-172.000000,-3080.000000
598,-172.000000,-3080.000000
599,-172.000000,-3080.000000
600,-172.000000,-3080.000000
601,-168.000000,-3120.000000
602,-168.000000,-3080.000000
603,-172.000000,-3080.000000
604,-172.000000,-3080.000000
605,-172.000000,-3040.000000
606,-176.000000,-3080.000000
607,-172.000000,-3080.000000
608,-172.000000,-3080.000000
609,-172.000000,-3080.000000
610,-172.000000,-3080.000000
611,-172.000000,-3080.000000
612,-172.000000,-3080.000000
613,-172.000000,-3120.000000
614,-172.000000,-3080.000000
615,-172.000000,-3080.000000
616,-172.000000,-3080.000000
617,-172.000000,-3080.000000
618,-172.000000,-3080.000000
619,-172.000000,-3080.000000
620,-172.000000,-3080.000000
621,-168.000000,-3080.000000
622,-172.000000,-3080.000000
623,-172.000000,-3080.000000
624,-172.000000,-3080.000000
625,-172.000000,-3080.000000
626,-168.000000,-3080.000000
627,-172.000000,-3080.000000
628,-172.000000,-3080.000000
629,-172.000000,-3080.000000
630,-176.000000,-3080.000000
631,-172.000000,-3080.000000
632,-168.000000,-3080.000000
633,-172.000000,-3080.000000
634,-172.000000,-3080.000000
635,-172.000000,-3080.000000
636,-172.000000,-3080.000000
637,-172.000000,-3080.000000
638,-172.000000,-3080.000000
639,-172.000000,-3080.000000
640,-172.000000,-3080.000000
641,-176.000000,-3080.000000
642,-172.000000,-3080.000000
643,-172.000000,-3080.000000
644,-172.000000,-3080.000000
645,-172.000000,-3080.000000
646,-172.000000,-3080.000000
647,-168.000000,-3080.000000
648,-172.000000,-3080.000000
649,-172.000000,-3080.000000
650,-168.000000,-3080.000000
651,-172.000000,-3080.000000
652,-172.000000,-3080.000000
653,-172.000000,-3080.000000
654,-172.000000,-3080.000000
655,-52.000000,-3080.000000
656,68.000000,-3080.000000
657,160.000000,-3080.000000
658,196.000000,-3080.000000
659,212.000000,-3080.000000
660,204.000000,-3080.000000
661,76.000000,-3080.000000
662,-12.000000,-3080.000000
663,-68.000000,-3080.000000
664,-104.000000,-3080.000000
665,-128.000000,-3080.000000
666,-144.000000,-3080.000000
667,-152.000000,-3080.000000
668,-160.000000,-3120.000000
669,-164.000000,-3080.000000
670,-168.000000,-3080.000000
671,-168.000000,-3080.000000
672,-168.000000,-3080.000000
673,-172.000000,-3080.000000
674,-172.000000,-3080.000000
675,-168.000000,-3080.000000
676,-172.000000,-3080.000000
677,-172.000000,-3080.000000
678,-172.000000,-3080.000000
679,-172.000000,-3080.000000
680,-172.000000,-3120.000000
681,-172.000000,-3080.000000
682,-172.000000,-3080.000000
683,-172.000000,-3080.000000
684,-168.000000,-3080.000000
685,-172.000000,-3080.000000
686,-172.000000,-3080.000000
687,-172.000000,-3080.000000
688,-168.000000,-3080.000000
689,-172.000000,-3080.000000
690,-172.000000,-3080.000000
691,-172.000000,-3080.000000
692,-168.000000,-3080.000000
693,-172.000000,-3080.000000
694,-172.000000,-3080.000000
