repport_data/power_measurements/data_26_005.csv

Channel              :,CH1,CH2
Frequency            :,  ?,  ?
Period               :,  ?,  ?
PK-PK                :,40.00mV,200.0mV
Probe attenuation    :,1X,1X
Voltage per ADC value:,1.250000mV,1.250000mV
Time interval        :,400.00000uS,400.00000uS

index,CH1_Voltage(mV),CH2_Voltage(mV)
1,520.000000,380.000000
2,520.000000,380.000000
3,540.000000,380.000000
4,540.000000,380.000000
5,540.000000,380.000000
6,520.000000,380.000000
7,520.000000,380.000000
8,540.000000,380.000000
9,520.000000,380.000000
10,540.000000,380.000000
11,520.000000,380.000000
12,520.000000,380.000000
13,540.000000,380.000000
14,520.000000,380.000000
15,520.000000,380.000000
16,540.000000,380.000000
17,520.000000,380.000000
18,520.000000,380.000000
19,540.000000,380.000000
20,520.000000,380.000000
21,520.000000,380.000000
22,520.000000,360.000000
23,520.000000,380.000000
24,520.000000,380.000000
25,520.000000,360.000000
26,520.000000,360.000000
27,520.000000,360.000000
28,520.000000,380.000000
29,520.000000,380.000000
30,540.000000,380.000000
31,520.000000,380.000000
32,520.000000,380.000000
33,520.000000,380.000000
34,540.000000,380.000000
35,540.000000,380.000000
36,540.000000,380.000000
37,520.000000,380.000000
38,520.000000,380.000000
39,520.000000,380.000000
40,520.000000,380.000000
41,520.000000,380.000000
42,540.000000,380.000000
43,520.000000,380.000000
44,540.000000,380.000000
45,540.000000,380.000000
46,520.000000,380.000000
47,540.000000,380.000000
48,520.000000,380.000000
49,520.000000,380.000000
50,540.000000,380.000000
51,520.000000,380.000000
52,520.000000,380.000000
53,520.000000,380.000000
54,520.000000,380.000000
55,520.000000,380.000000
56,520.000000,380.000000
57,520.000000,380.000000
58,540.000000,380.000000
59,520.000000,400.000000
60,540.000000,360.000000
61,540.000000,400.000000
62,520.000000,400.000000
63,520.000000,360.000000
64,520.000000,380.000000
65,520.000000,380.000000
66,520.000000,380.000000
67,540.000000,380.000000
68,520.000000,380.000000
69,540.000000,380.000000
70,520.000000,380.000000
71,520.000000,380.000000
72,520.000000,380.000000
73,520.000000,380.000000
74,520.000000,380.000000
75,520.000000,380.000000
76,520.000000,360.000000
77,520.000000,380.000000
78,520.000000,380.000000
79,520.000000,380.000000
80,520.000000,380.000000
81,520.000000,360.000000
82,520.000000,380.000000
83,520.000000,380.000000
84,520.000000,380.000000
85,520.000000,380.000000
86,540.000000,380.000000
87,540.000000,380.000000
88,540.000000,380.000000
89,520.000000,380.000000
90,520.000000,380.000000
91,520.000000,380.000000
92,540.000000,380.000000
93,540.000000,380.000000
94,520.000000,380.000000
95,520.000000,380.000000
96,540.000000,380.000000
97,520.000000,380.000000
98,520.000000,380.000000
99,520.000000,380.000000
100,520.000000,380.000000
101,540.000000,380.000000
102,520.000000,360.000000
103,520.000000,360.000000
104,520.000000,380.000000
105,540.000000,380.000000
106,520.000000,380.000000
107,520.000000,380.000000
108,540.000000,380.000000
109,520.000000,380.000000
110,540.000000,380.000000
111,520.000000,380.000000
112,540.000000,380.000000
113,520.000000,380.000000
114,540.000000,380.000000
115,520.000000,380.000000
116,520.000000,380.000000
117,520.000000,380.000000
118,520.000000,380.000000
119,520.000000,380.000000
120,520.000000,380.000000
121,540.000000,380.000000
122,520.000000,380.000000
123,540.000000,380.000000
124,540.000000,380.000000
125,520.000000,380.000000
126,520.000000,380.000000
127,540.000000,380.000000
128,540.000000,380.000000
129,520.000000,380.000000
130,540.000000,380.000000
131,540.000000,380.000000
132,540.000000,380.000000
133,540.000000,380.000000
134,540.000000,380.000000
135,520.000000,380.000000
136,520.000000,380.000000
137,520.000000,380.000000
138,520.000000,380.000000
139,520.000000,380.000000
140,540.000000,380.000000
141,520.000000,380.000000
142,520.000000,380.000000
143,540.000000,380.000000
144,520.000000,380.000000
145,520.000000,380.000000
146,520.000000,380.000000
147,520.000000,380.000000
148,520.000000,380.000000
149,520.000000,380.000000
150,520.000000,380.000000
151,520.000000,380.000000
152,520.000000,380.000000
153,520.000000,380.000000
154,520.000000,380.000000
155,540.000000,380.000000
156,500.000000,380.000000
157,520.000000,380.000000
158,520.000000,380.000000
159,520.000000,380.000000
160,520.000000,380.000000
161,520.000000,380.000000
162,520.000000,380.000000
163,520.000000,380.000000
164,520.000000,380.000000
165,520.000000,380.000000
166,520.000000,380.000000
167,520.000000,360.000000
168,520.000000,380.000000
169,520.000000,380.000000
170,540.000000,380.000000
171,520.000000,380.000000
172,540.000000,380.000000
173,520.000000,380.000000
174,520.000000,380.000000
175,520.000000,380.000000
176,520.000000,380.000000
177,520.000000,380.000000
178,520.000000,380.000000
179,540.000000,400.000000
180,540.000000,380.000000
181,520.000000,400.000000
182,520.000000,380.000000
183,540.000000,380.000000
184,520.000000,380.000000
185,520.000000,380.000000
186,540.000000,380.000000
187,520.000000,380.000000
188,540.000000,380.000000
189,520.000000,380.000000
190,520.000000,380.000000
191,520.000000,380.000000
192,520.000000,380.000000
193,540.000000,380.000000
194,520.000000,380.000000
195,520.000000,380.000000
196,520.000000,380.000000
197,520.000000,380.000000
198,520.000000,380.000000
199,520.000000,380.000000
200,520.000000,380.000000
201,540.000000,380.000000
202,520.000000,380.000000
203,540.000000,380.000000
204,520.000000,380.000000
205,520.000000,380.000000
206,520.000000,380.000000
207,540.000000,360.000000
208,540.000000,380.000000
209,540.000000,380.000000
210,540.000000,380.000000
211,520.000000,380.000000
212,520.000000,380.000000
213,540.000000,380.000000
214,520.000000,360.000000
215,520.000000,380.000000
216,520.000000,380.000000
217,540.000000,380.000000
218,540.000000,380.000000
219,520.000000,380.000000
220,540.000000,380.000000
221,520.000000,380.000000
222,520.000000,380.000000
223,520.000000,380.000000
224,540.000000,380.000000
225,540.000000,380.000000
226,520.000000,380.000000
227,520.000000,380.000000
228,520.000000,380.000000
229,540.000000,380.000000
230,540.000000,380.000000
231,520.000000,380.000000
232,520.000000,380.000000
233,520.000000,360.000000
234,520.000000,380.000000
235,520.000000,380.000000
236,540.000000,360.000000
237,540.000000,320.000000
238,520.000000,300.000000
239,520.000000,280.000000
240,520.000000,260.000000
241,520.000000,240.000000
242,520.000000,220.000000
243,540.000000,200.000000
244,520.000000,220.000000
245,520.000000,200.000000
246,540.000000,220.000000
247,520.000000,220.000000
248,540.000000,240.000000
249,540.000000,240.000000
250,520.000000,220.000000
251,520.000000,240.000000
252,520.000000,240.000000
253,540.000000,260.000000
254,520.000000,300.000000
255,520.000000,320.000000
256,540.000000,340.000000
257,520.000000,360.000000
258,540.000000,380.000000
259,520.000000,360.000000
260,520.000000,380.000000
261,520.000000,380.000000
262,540.000000,380.000000
263,520.000000,380.000000
264,540.000000,380.000000
265,520.000000,380.000000
266,520.000000,380.000000
267,520.000000,380.000000
268,520.000000,380.000000
269,540.000000,380.000000
270,520.000000,380.000000
271,520.000000,380.000000
272,540.000000,360.000000
273,520.000000,380.000000
274,520.000000,380.000000
275,520.000000,380.000000
276,520.000000,380.000000
277,520.000000,380.000000
278,520.000000,380.000000
279,540.000000,380.000000
280,540.000000,380.000000
281,540.000000,380.000000
282,520.000000,380.000000
283,540.000000,380.000000
284,520.000000,360.000000
285,520.000000,380.000000
286,540.000000,380.000000
287,520.000000,380.000000
288,520.000000,380.000000
289,540.000000,380.000000
290,540.000000,380.000000
291,520.000000,380.000000
292,520.000000,380.000000
293,520.000000,380.000000
294,520.000000,380.000000
295,520.000000,380.000000
296,540.000000,380.000000
297,520.000000,380.000000
298,520.000000,380.000000
299,520.000000,380.000000
300,520.000000,380.000000
301,520.000000,360.000000
302,540.000000,380.000000
303,520.000000,380.000000
304,540.000000,380.000000
305,520.000000,380.000000
306,520.000000,380.000000
307,520.000000,380.000000
308,540.000000,380.000000
309,540.000000,380.000000
310,540.000000,380.000000
311,520.000000,380.000000
312,540.000000,380.000000
313,520.000000,380.000000
314,540.000000,380.000000
315,520.000000,380.000000
316,520.000000,380.000000
317,540.000000,380.000000
318,540.000000,380.000000
319,540.000000,380.000000
320,520.000000,360.000000
321,540.000000,380.000000
322,520.000000,380.000000
323,540.000000,380.000000
324,520.000000,380.000000
325,520.000000,380.000000
326,540.000000,380.000000
327,540.000000,380.000000
328,540.000000,380.000000
329,520.000000,380.000000
330,540.000000,380.000000
331,540.000000,380.000000
332,520.000000,380.000000
333,520.000000,380.000000
334,540.000000,380.000000
335,520.000000,380.000000
336,540.000000,380.000000
337,520.000000,380.000000
338,520.000000,360.000000
339,520.000000,380.000000
340,540.000000,380.000000
341,540.000000,380.000000
342,520.000000,380.000000
343,520.000000,380.000000
344,520.000000,380.000000
345,520.000000,380.000000
346,540.000000,380.000000
347,520.000000,380.000000
348,540.000000,380.000000
349,540.000000,380.000000
350,520.000000,380.000000
351,520.000000,380.000000
352,520.000000,380.000000
353,520.000000,380.000000
354,520.000000,360.000000
355,520.000000,380.000000
356,520.000000,400.000000
357,520.000000,380.000000
358,520.000000,380.000000
359,520.000000,380.000000
360,540.000000,380.000000
361,540.000000,380.000000
362,520.000000,380.000000
363,540.000000,380.000000
364,520.000000,380.000000
365,520.000000,380.000000
366,540.000000,380.000000
367,540.000000,380.000000
368,520.000000,400.000000
369,520.000000,380.000000
370,520.000000,380.000000
371,540.000000,380.000000
372,540.000000,380.000000
373,520.000000,380.000000
374,540.000000,380.000000
375,520.000000,380.000000
376,520.000000,380.000000
377,520.000000,380.000000
378,520.000000,380.000000
379,520.000000,380.000000
380,520.000000,380.000000
381,520.000000,380.000000
382,520.000000,380.000000
383,540.000000,380.000000
384,520.000000,380.000000
385,520.000000,380.000000
386,520.000000,380.000000
387,520.000000,380.000000
388,520.000000,380.000000
389,520.000000,380.000000
390,520.000000,380.000000
391,520.000000,380.000000
392,540.000000,380.000000
393,520.000000,360.000000
394,520.000000,380.000000
395,540.000000,380.000000
396,520.000000,380.000000
397,520.000000,380.000000
398,520.000000,380.000000
399,520.000000,380.000000
400,540.000000,380.000000
401,520.000000,360.000000
402,520.000000,380.000000
403,520.000000,380.000000
404,540.000000,380.000000
405,520.000000,380.000000
406,520.000000,380.000000
407,520.000000,380.000000
408,520.000000,380.000000
409,520.000000,380.000000
410,520.000000,380.000000
411,520.000000,380.000000
412,520.000000,380.000000
413,540.000000,380.000000
414,520.000000,380.000000
415,540.000000,380.000000
416,520.000000,380.000000
417,520.000000,380.000000
418,520.000000,380.000000
419,520.000000,380.000000
420,540.000000,380.000000
421,520.000000,380.000000
422,520.000000,380.000000
423,520.000000,360.000000
424,520.000000,380.000000
425,520.000000,380.000000
426,520.000000,360.000000
427,520.000000,380.000000
428,540.000000,380.000000
429,520.000000,380.000000
430,520.000000,380.000000
431,540.000000,380.000000
432,540.000000,380.000000
433,520.000000,380.000000
434,520.000000,360.000000
435,520.000000,380.000000
436,540.000000,380.000000
437,540.000000,380.000000
438,520.000000,380.000000
439,520.000000,360.000000
440,520.000000,380.000000
441,520.000000,380.000000
442,540.000000,380.000000
443,520.000000,380.000000
444,520.000000,380.000000
445,540.000000,380.000000
446,520.000000,380.000000
447,520.000000,380.000000
448,540.000000,380.000000
449,540.000000,360.000000
450,520.000000,360.000000
451,540.000000,380.000000
452,540.000000,380.000000
453,520.000000,380.000000
454,520.000000,380.000000
455,520.000000,380.000000
456,540.000000,380.000000
457,520.000000,380.000000
458,540.000000,380.000000
459,540.000000,380.000000
460,520.000000,380.000000
461,520.000000,380.000000
462,540.000000,380.000000
463,520.000000,380.000000
464,520.000000,380.000000
465,540.000000,380.000000
466,540.000000,380.000000
467,520.000000,380.000000
468,520.000000,380.000000
469,540.000000,380.000000
470,520.000000,380.000000
471,520.000000,380.000000
472,520.000000,380.000000
473,520.000000,380.000000
474,520.000000,380.000000
475,520.000000,380.000000
476,520.000000,380.000000
477,520.000000,380.000000
478,540.000000,380.000000
479,540.000000,400.000000
480,520.000000,380.000000
481,520.000000,380.000000
482,520.000000,380.000000
483,520.000000,380.000000
484,540.000000,380.000000
485,520.000000,380.000000
486,520.000000,380.000000
487,520.000000,380.000000
488,540.000000,380.000000
489,520.000000,380.000000
490,520.000000,380.000000
491,540.000000,380.000000
492,520.000000,380.000000
493,540.000000,380.000000
494,520.000000,380.000000
495,540.000000,380.000000
496,540.000000,380.000000
497,520.000000,380.000000
498,520.000000,380.000000
499,520.000000,380.000000
500,540.000000,380.000000
501,520.000000,380.000000
502,520.000000,380.000000
503,540.000000,380.000000
504,540.000000,380.000000
505,540.000000,380.000000
506,520.000000,380.000000
507,520.000000,380.000000
508,520.000000,380.000000
509,520.000000,380.000000
510,520.000000,380.000000
511,520.000000,380.000000
512,520.000000,380.000000
513,540.000000,380.000000
514,540.000000,380.000000
515,520.000000,380.000000
516,520.000000,360.000000
517,520.000000,380.000000
518,520.000000,380.000000
519,520.000000,380.000000
520,540.000000,380.000000
521,520.000000,380.000000
522,520.000000,380.000000
523,540.000000,380.000000
524,520.000000,380.000000
525,540.000000,380.000000
526,540.000000,380.000000
527,520.000000,380.000000
528,520.000000,360.000000
529,540.000000,380.000000
530,520.000000,380.000000
531,540.000000,380.000000
532,520.000000,380.000000
533,540.000000,360.000000
534,520.000000,380.000000
535,520.000000,380.000000
536,540.000000,380.000000
537,540.000000,380.000000
538,520.000000,380.000000
539,520.000000,380.000000
540,520.000000,380.000000
541,520.000000,380.000000
542,540.000000,380.000000
543,520.000000,380.000000
544,520.000000,380.000000
545,520.000000,380.000000
546,520.000000,380.000000
547,520.000000,380.000000
548,520.000000,380.000000
549,520.000000,380.000000
550,520.000000,380.000000
551,540.000000,380.000000
552,540.000000,380.000000
553,540.000000,380.000000
554,540.000000,380.000000
555,540.000000,380.000000
556,520.000000,380.000000
557,520.000000,380.000000
558,520.000000,360.000000
559,540.000000,380.000000
560,540.000000,380.000000
561,540.000000,380.000000
562,540.000000,380.000000
563,520.000000,380.000000
564,540.000000,380.000000
565,520.000000,360.000000
566,520.000000,360.000000
567,520.000000,360.000000
568,540.000000,380.000000
569,540.000000,380.000000
570,520.000000,380.000000
571,520.000000,360.000000
572,540.000000,380.000000
573,540.000000,380.000000
574,540.000000,380.000000
575,520.000000,380.000000
576,520.000000,360.000000
577,540.000000,380.000000
578,520.000000,380.000000
579,520.000000,380.000000
580,520.000000,380.000000
581,540.000000,380.000000
582,520.000000,380.000000
583,540.000000,360.000000
584,520.000000,380.000000
585,520.000000,380.000000
586,520.000000,380.000000
587,520.000000,380.000000
588,520.000000,380.000000
589,520.000000,380.000000
590,520.000000,380.000000
591,540.000000,380.000000
592,520.000000,380.000000
593,540.000000,380.000000
594,540.000000,380.000000
595,540.000000,380.000000
596,540.000000,380.000000
597,520.000000,380.000000
598,540.000000,380.000000
599,520.000000,400.000000
600,520.000000,380.000000
601,540.000000,360.000000
602,520.000000,380.000000
603,520.000000,380.000000
604,540.000000,380.000000
605,520.000000,380.000000
606,520.000000,380.000000
607,520.000000,380.000000
608,520.000000,380.000000
609,520.000000,380.000000
610,520.000000,380.000000
611,540.000000,380.000000
612,520.000000,320.000000
613,520.000000,300.000000
614,540.000000,280.000000
615,540.000000,260.000000
616,540.000000,240.000000
617,520.000000,240.000000
618,520.000000,220.000000
619,520.000000,220.000000
620,520.000000,220.000000
621,520.000000,220.000000
622,520.000000,220.000000
623,520.000000,220.000000
624,540.000000,240.000000
625,520.000000,240.000000
626,520.000000,220.000000
627,540.000000,240.000000
628,540.000000,260.000000
629,520.000000,240.000000
630,520.000000,260.000000
631,540.000000,240.000000
632,540.000000,240.000000
633,540.000000,240.000000
634,520.000000,240.000000
635,520.000000,240.000000
636,520.000000,240.000000
637,520.000000,220.000000
638,540.000000,240.000000
639,520.000000,240.000000
640,540.000000,240.000000
641,520.000000,240.000000
642,520.000000,240.000000
643,520.000000,240.000000
644,540.000000,220.000000
645,540.000000,240.000000
646,520.000000,220.000000
647,520.000000,220.000000
648,540.000000,220.000000
649,520.000000,220.000000
650,520.000000,220.000000
651,540.000000,240.000000
652,520.000000,220.000000
653,520.000000,220.000000
654,520.000000,220.000000
655,520.000000,240.000000
656,520.000000,240.000000
657,520.000000,240.000000
658,520.000000,240.000000
659,520.000000,220.000000
660,520.000000,240.000000
661,520.000000,240.000000
662,520.000000,220.000000
663,520.000000,240.000000
664,520.000000,240.000000
665,540.000000,220.000000
666,520.000000,220.000000
667,520.000000,220.000000
668,540.000000,220.000000
669,540.000000,220.000000
670,520.000000,240.000000
671,540.000000,220.000000
672,540.000000,240.000000
673,540.000000,240.000000
674,540.000000,220.000000
675,520.000000,220.000000
676,520.000000,220.000000
677,520.000000,240.000000
678,520.000000,220.000000
679,520.000000,220.000000
680,520.000000,220.000000
681,540.000000,240.000000
682,520.000000,220.000000
683,520.000000,220.000000
684,520.000000,220.000000
685,520.000000,240.000000
686,520.000000,240.000000
687,520.000000,220.000000
688,520.000000,240.000000
689,540.000000,240.000000
690,520.000000,240.000000
691,520.000000,220.000000
692,540.000000,220.000000
693,520.000000,220.000000
694,540.000000,240.000000
695,520.000000,220.000000
696,520.000000,220.000000
697,540.000000,220.000000
698,520.000000,240.000000
699,520.000000,220.000000
700,520.000000,240.000000
701,520.000000,240.000000
702,520.000000,240.000000
703,540.000000,240.000000
704,520.000000,240.000000
705,520.000000,220.000000
706,540.000000,240.000000
707,520.000000,220.000000
708,540.000000,220.000000
709,520.000000,240.000000
710,520.000000,240.000000
711,520.000000,220.000000
712,540.000000,220.000000
713,520.000000,240.000000
714,520.000000,240.000000
715,520.000000,240.000000
716,520.000000,220.000000
717,520.000000,240.000000
718,520.000000,220.000000
719,520.000000,220.000000
720,520.000000,220.000000
721,540.000000,220.000000
722,520.000000,220.000000
723,520.000000,240.000000
724,540.000000,220.000000
725,520.000000,220.000000
726,520.000000,220.000000
727,520.000000,240.000000
728,540.000000,220.000000
729,520.000000,240.000000
730,540.000000,240.000000
731,540.000000,220.000000
732,540.000000,220.000000
733,520.000000,220.000000
734,520.000000,240.000000
735,540.000000,220.000000
736,520.000000,220.000000
737,540.000000,220.000000
738,520.000000,220.000000
739,520.000000,220.000000
740,520.000000,220.000000
741,540.000000,240.000000
742,540.000000,220.000000
743,540.000000,220.000000
744,520.000000,240.000000
745,520.000000,240.000000
746,520.000000,240.000000
747,520.000000,220.000000
748,520.000000,220.000000
749,520.000000,220.000000
750,520.000000,220.000000
751,520.000000,220.000000
752,520.000000,220.000000
753,520.000000,240.000000
754,520.000000,220.000000
755,540.000000,240.000000
756,540.000000,220.000000
757,520.000000,240.000000
758,520.000000,220.000000
759,520.000000,240.000000
760,520.000000,220.000000
761,520.000000,240.000000
762,520.000000,240.000000
