repport_data/power_measurements/data_26_010.csv

Channel              :,CH1,CH2
Frequency            :,  ?,  ?
Period               :,  ?,  ?
PK-PK                :,40.00mV,200.0mV
Probe attenuation    :,1X,1X
Voltage per ADC value:,1.250000mV,1.250000mV
Time interval        :,1000.00000uS,1000.00000uS

index,CH1_Voltage(mV),CH2_Voltage(mV)
1,520.000000,400.000000
2,520.000000,400.000000
3,520.000000,400.000000
4,540.000000,380.000000
5,540.000000,380.000000
6,520.000000,380.000000
7,540.000000,380.000000
8,540.000000,380.000000
9,520.000000,400.000000
10,540.000000,380.000000
11,520.000000,400.000000
12,520.000000,380.000000
13,540.000000,380.000000
14,520.000000,380.000000
15,520.000000,380.000000
16,540.000000,380.000000
17,540.000000,380.000000
18,540.000000,380.000000
19,540.000000,380.000000
20,520.000000,380.000000
21,520.000000,400.000000
22,540.000000,380.000000
23,540.000000,380.000000
24,520.000000,380.000000
25,540.000000,380.000000
26,540.000000,400.000000
27,540.000000,380.000000
28,520.000000,400.000000
29,540.000000,380.000000
30,540.000000,380.000000
31,520.000000,400.000000
32,520.000000,380.000000
33,520.000000,380.000000
34,520.000000,380.000000
35,540.000000,380.000000
36,520.000000,380.000000
37,520.000000,380.000000
38,540.000000,380.000000
39,520.000000,380.000000
40,520.000000,400.000000
41,540.000000,380.000000
42,520.000000,380.000000
43,520.000000,380.000000
44,540.000000,380.000000
45,540.000000,380.000000
46,540.000000,400.000000
47,540.000000,380.000000
48,540.000000,380.000000
49,540.000000,380.000000
50,540.000000,380.000000
51,540.000000,380.000000
52,520.000000,400.000000
53,560.000000,380.000000
54,540.000000,380.000000
55,520.000000,380.000000
56,520.000000,380.000000
57,540.000000,380.000000
58,520.000000,380.000000
59,540.000000,380.000000
60,540.000000,380.000000
61,520.000000,380.000000
62,520.000000,380.000000
63,520.000000,380.000000
64,540.000000,380.000000
65,520.000000,380.000000
66,540.000000,380.000000
67,540.000000,380.000000
68,520.000000,380.000000
69,520.000000,400.000000
70,540.000000,380.000000
71,540.000000,380.000000
72,520.000000,380.000000
73,520.000000,380.000000
74,540.000000,380.000000
75,520.000000,380.000000
76,540.000000,380.000000
77,520.000000,380.000000
78,540.000000,380.000000
79,540.000000,380.000000
80,540.000000,400.000000
81,540.000000,380.000000
82,540.000000,380.000000
83,520.000000,380.000000
84,520.000000,380.000000
85,540.000000,380.000000
86,540.000000,380.000000
87,540.000000,380.000000
88,540.000000,380.000000
89,540.000000,380.000000
90,540.000000,380.000000
91,520.000000,380.000000
92,520.000000,380.000000
93,520.000000,380.000000
94,540.000000,380.000000
95,540.000000,380.000000
96,520.000000,400.000000
97,540.000000,380.000000
98,540.000000,380.000000
99,520.000000,400.000000
100,540.000000,380.000000
101,540.000000,380.000000
102,540.000000,400.000000
103,540.000000,380.000000
104,540.000000,380.000000
105,540.000000,380.000000
106,540.000000,380.000000
107,520.000000,380.000000
108,540.000000,380.000000
109,540.000000,380.000000
110,540.000000,400.000000
111,520.000000,380.000000
112,520.000000,380.000000
113,540.000000,380.000000
114,520.000000,380.000000
115,540.000000,380.000000
116,540.000000,380.000000
117,520.000000,380.000000
118,520.000000,380.000000
119,540.000000,380.000000
120,520.000000,380.000000
121,520.000000,380.000000
122,540.000000,380.000000
123,520.000000,380.000000
124,540.000000,380.000000
125,520.000000,380.000000
126,540.000000,400.000000
127,520.000000,400.000000
128,540.000000,380.000000
129,540.000000,380.000000
130,540.000000,380.000000
131,540.000000,380.000000
132,540.000000,380.000000
133,520.000000,380.000000
134,540.000000,380.000000
135,540.000000,380.000000
136,540.000000,380.000000
137,540.000000,380.000000
138,520.000000,380.000000
139,540.000000,300.000000
140,540.000000,260.000000
141,540.000000,220.000000
142,540.000000,220.000000
143,520.000000,240.000000
144,520.000000,260.000000
145,540.000000,280.000000
146,540.000000,360.000000
147,540.000000,380.000000
148,520.000000,380.000000
149,540.000000,380.000000
150,540.000000,380.000000
151,540.000000,380.000000
152,520.000000,380.000000
153,520.000000,380.000000
154,520.000000,400.000000
155,540.000000,380.000000
156,520.000000,380.000000
157,520.000000,380.000000
158,540.000000,380.000000
159,540.000000,380.000000
160,520.000000,380.000000
161,540.000000,400.000000
162,540.000000,380.000000
163,540.000000,380.000000
164,520.000000,380.000000
165,540.000000,380.000000
166,540.000000,400.000000
167,520.000000,380.000000
168,540.000000,380.000000
169,540.000000,380.000000
170,540.000000,380.000000
171,540.000000,400.000000
172,540.000000,400.000000
173,540.000000,380.000000
174,520.000000,380.000000
175,540.000000,380.000000
176,520.000000,380.000000
177,540.000000,380.000000
178,540.000000,380.000000
179,520.000000,380.000000
180,540.000000,380.000000
181,540.000000,400.000000
182,520.000000,380.000000
183,540.000000,380.000000
184,540.000000,380.000000
185,540.000000,380.000000
186,540.000000,380.000000
187,540.000000,380.000000
188,520.000000,380.000000
189,540.000000,380.000000
190,540.000000,380.000000
191,520.000000,380.000000
192,520.000000,400.000000
193,540.000000,380.000000
194,540.000000,380.000000
195,540.000000,400.000000
196,520.000000,380.000000
197,540.000000,380.000000
198,540.000000,380.000000
199,540.000000,380.000000
200,540.000000,380.000000
201,540.000000,400.000000
202,540.000000,400.000000
203,540.000000,380.000000
204,540.000000,400.000000
205,540.000000,380.000000
206,520.000000,380.000000
207,520.000000,380.000000
208,540.000000,380.000000
209,520.000000,380.000000
210,540.000000,380.000000
211,540.000000,380.000000
212,520.000000,380.000000
213,540.000000,400.000000
214,540.000000,380.000000
215,540.000000,380.000000
216,520.000000,380.000000
217,520.000000,380.000000
218,520.000000,380.000000
219,540.000000,380.000000
220,540.000000,380.000000
221,540.000000,400.000000
222,540.000000,380.000000
223,540.000000,380.000000
224,540.000000,380.000000
225,540.000000,380.000000
226,540.000000,400.000000
227,540.000000,380.000000
228,540.000000,380.000000
229,540.000000,380.000000
230,540.000000,380.000000
231,540.000000,380.000000
232,520.000000,380.000000
233,540.000000,380.000000
234,520.000000,400.000000
235,540.000000,380.000000
236,540.000000,380.000000
237,520.000000,400.000000
238,540.000000,400.000000
239,540.000000,380.000000
240,540.000000,400.000000
241,540.000000,380.000000
242,520.000000,380.000000
243,520.000000,380.000000
244,540.000000,380.000000
245,540.000000,400.000000
246,540.000000,380.000000
247,540.000000,380.000000
248,540.000000,380.000000
249,540.000000,380.000000
250,520.000000,380.000000
251,540.000000,380.000000
252,520.000000,380.000000
253,520.000000,380.000000
254,540.000000,380.000000
255,540.000000,380.000000
256,540.000000,380.000000
257,540.000000,380.000000
258,540.000000,380.000000
259,540.000000,400.000000
260,520.000000,380.000000
261,540.000000,380.000000
262,540.000000,380.000000
263,520.000000,400.000000
264,540.000000,380.000000
265,520.000000,380.000000
266,520.000000,380.000000
267,540.000000,380.000000
268,540.000000,380.000000
269,540.000000,380.000000
270,540.000000,380.000000
271,540.000000,380.000000
272,520.000000,380.000000
273,540.000000,380.000000
274,540.000000,380.000000
275,540.000000,400.000000
276,520.000000,380.000000
277,540.000000,380.000000
278,520.000000,380.000000
279,540.000000,380.000000
280,540.000000,380.000000
281,540.000000,380.000000
282,540.000000,380.000000
283,520.000000,380.000000
284,520.000000,380.000000
285,520.000000,380.000000
286,540.000000,380.000000
287,540.000000,380.000000
288,520.000000,380.000000
289,540.000000,300.000000
290,520.000000,240.000000
291,520.000000,200.000000
292,520.000000,220.000000
293,540.000000,240.000000
294,520.000000,260.000000
295,540.000000,280.000000
296,540.000000,360.000000
297,540.000000,380.000000
298,540.000000,380.000000
299,520.000000,400.000000
300,540.000000,400.000000
301,540.000000,380.000000
302,540.000000,380.000000
303,540.000000,380.000000
304,540.000000,380.000000
305,540.000000,400.000000
306,540.000000,400.000000
307,520.000000,380.000000
308,520.000000,380.000000
309,540.000000,380.000000
310,540.000000,400.000000
311,540.000000,380.000000
312,520.000000,380.000000
313,540.000000,380.000000
314,540.000000,380.000000
315,520.000000,380.000000
316,540.000000,380.000000
317,520.000000,380.000000
318,520.000000,380.000000
319,520.000000,380.000000
320,540.000000,380.000000
321,540.000000,380.000000
322,520.000000,380.000000
323,540.000000,380.000000
324,520.000000,400.000000
325,540.000000,380.000000
326,540.000000,380.000000
327,520.000000,380.000000
328,540.000000,400.000000
329,520.000000,400.000000
330,520.000000,380.000000
331,540.000000,380.000000
332,520.000000,400.000000
333,540.000000,400.000000
334,520.000000,380.000000
335,520.000000,380.000000
336,520.000000,400.000000
337,540.000000,400.000000
338,540.000000,400.000000
339,520.000000,380.000000
340,520.000000,400.000000
341,540.000000,380.000000
342,540.000000,380.000000
343,540.000000,380.000000
344,540.000000,380.000000
345,540.000000,380.000000
346,540.000000,380.000000
347,520.000000,380.000000
348,540.000000,380.000000
349,540.000000,400.000000
350,540.000000,380.000000
351,540.000000,380.000000
352,540.000000,380.000000
353,540.000000,380.000000
354,540.000000,380.000000
355,540.000000,400.000000
356,540.000000,380.000000
357,540.000000,400.000000
358,540.000000,400.000000
359,540.000000,380.000000
360,540.000000,380.000000
361,520.000000,400.000000
362,540.000000,400.000000
363,540.000000,380.000000
364,520.000000,380.000000
365,540.000000,380.000000
366,520.000000,380.000000
367,520.000000,380.000000
368,520.000000,400.000000
369,520.000000,380.000000
370,520.000000,380.000000
371,540.000000,400.000000
372,540.000000,400.000000
373,520.000000,380.000000
374,540.000000,380.000000
375,520.000000,380.000000
376,520.000000,380.000000
377,540.000000,380.000000
378,540.000000,380.000000
379,540.000000,380.000000
380,540.000000,400.000000
381,540.000000,400.000000
382,540.000000,380.000000
383,520.000000,380.000000
384,540.000000,400.000000
385,540.000000,380.000000
386,540.000000,400.000000
387,540.000000,400.000000
388,540.000000,380.000000
389,540.000000,400.000000
390,540.000000,380.000000
391,520.000000,380.000000
392,540.000000,380.000000
393,520.000000,400.000000
394,540.000000,380.000000
395,540.000000,400.000000
396,540.000000,380.000000
397,520.000000,380.000000
398,540.000000,380.000000
399,520.000000,380.000000
400,540.000000,380.000000
401,540.000000,380.000000
402,520.000000,400.000000
403,540.000000,380.000000
404,540.000000,400.000000
405,520.000000,400.000000
406,540.000000,380.000000
407,520.000000,380.000000
408,520.000000,380.000000
409,540.000000,380.000000
410,540.000000,400.000000
411,520.000000,380.000000
412,520.000000,380.000000
413,540.000000,380.000000
414,520.000000,400.000000
415,540.000000,380.000000
416,520.000000,400.000000
417,540.000000,380.000000
418,540.000000,400.000000
419,540.000000,380.000000
420,540.000000,380.000000
421,520.000000,380.000000
422,520.000000,380.000000
423,540.000000,380.000000
424,520.000000,380.000000
425,540.000000,380.000000
426,540.000000,380.000000
427,540.000000,380.000000
428,540.000000,380.000000
429,540.000000,380.000000
430,520.000000,380.000000
431,540.000000,380.000000
432,540.000000,380.000000
433,520.000000,380.000000
434,540.000000,380.000000
435,540.000000,380.000000
436,540.000000,400.000000
437,520.000000,380.000000
438,540.000000,380.000000
439,540.000000,300.000000
440,520.000000,240.000000
441,540.000000,220.000000
442,520.000000,220.000000
443,540.000000,220.000000
444,540.000000,240.000000
445,540.000000,280.000000
446,520.000000,340.000000
447,540.000000,380.000000
448,540.000000,380.000000
449,540.000000,380.000000
450,520.000000,380.000000
451,540.000000,380.000000
452,520.000000,380.000000
453,540.000000,380.000000
454,540.000000,380.000000
455,540.000000,400.000000
456,540.000000,380.000000
457,540.000000,400.000000
458,520.000000,400.000000
459,540.000000,400.000000
460,520.000000,380.000000
461,540.000000,400.000000
462,520.000000,380.000000
463,540.000000,380.000000
464,540.000000,400.000000
465,540.000000,380.000000
466,540.000000,380.000000
467,520.000000,380.000000
468,540.000000,380.000000
469,540.000000,380.000000
470,520.000000,380.000000
471,540.000000,380.000000
472,540.000000,380.000000
473,540.000000,380.000000
474,540.000000,380.000000
475,520.000000,380.000000
476,520.000000,380.000000
477,540.000000,380.000000
478,520.000000,380.000000
479,540.000000,380.000000
480,540.000000,380.000000
481,520.000000,380.000000
482,520.000000,400.000000
483,520.000000,400.000000
484,520.000000,380.000000
485,540.000000,380.000000
486,540.000000,380.000000
487,520.000000,380.000000
488,520.000000,380.000000
489,540.000000,380.000000
490,520.000000,380.000000
491,540.000000,380.000000
492,540.000000,380.000000
493,520.000000,380.000000
494,540.000000,400.000000
495,540.000000,380.000000
496,540.000000,400.000000
497,520.000000,380.000000
498,540.000000,400.000000
499,540.000000,380.000000
500,540.000000,400.000000
501,540.000000,380.000000
502,540.000000,400.000000
503,540.000000,380.000000
504,540.000000,380.000000
505,520.000000,380.000000
506,520.000000,380.000000
507,520.000000,380.000000
508,540.000000,380.000000
509,540.000000,380.000000
510,540.000000,380.000000
511,520.000000,380.000000
512,520.000000,380.000000
513,540.000000,380.000000
514,540.000000,400.000000
515,540.000000,380.000000
516,540.000000,380.000000
517,520.000000,380.000000
518,520.000000,380.000000
519,540.000000,380.000000
520,540.000000,400.000000
521,520.000000,380.000000
522,540.000000,380.000000
523,540.000000,380.000000
524,520.000000,380.000000
525,520.000000,380.000000
526,540.000000,380.000000
527,540.000000,400.000000
528,540.000000,380.000000
529,540.000000,380.000000
530,540.000000,400.000000
531,540.000000,380.000000
532,560.000000,380.000000
533,520.000000,380.000000
534,520.000000,380.000000
535,540.000000,380.000000
536,540.000000,380.000000
537,520.000000,400.000000
538,520.000000,400.000000
539,540.000000,400.000000
540,520.000000,380.000000
541,520.000000,400.000000
542,540.000000,400.000000
543,540.000000,400.000000
544,540.000000,380.000000
545,540.000000,380.000000
546,540.000000,380.000000
547,540.000000,380.000000
548,540.000000,380.000000
549,540.000000,380.000000
550,520.000000,400.000000
551,540.000000,380.000000
552,540.000000,380.000000
553,540.000000,380.000000
554,520.000000,380.000000
555,540.000000,400.000000
556,540.000000,380.000000
557,540.000000,380.000000
558,520.000000,380.000000
559,540.000000,400.000000
560,540.000000,380.000000
561,540.000000,380.000000
562,540.000000,380.000000
563,520.000000,380.000000
564,540.000000,380.000000
565,540.000000,380.000000
566,520.000000,380.000000
567,540.000000,400.000000
568,540.000000,380.000000
569,540.000000,380.000000
570,540.000000,380.000000
571,560.000000,380.000000
572,540.000000,400.000000
573,520.000000,380.000000
574,520.000000,380.000000
575,540.000000,380.000000
576,520.000000,380.000000
577,520.000000,380.000000
578,520.000000,380.000000
579,520.000000,360.000000
580,520.000000,380.000000
581,520.000000,380.000000
582,540.000000,400.000000
583,520.000000,380.000000
584,540.000000,400.000000
585,520.000000,380.000000
586,520.000000,380.000000
587,540.000000,380.000000
588,520.000000,380.000000
589,540.000000,320.000000
590,540.000000,260.000000
591,540.000000,220.000000
592,520.000000,220.000000
593,540.000000,240.000000
594,520.000000,260.000000
595,520.000000,280.000000
596,540.000000,340.000000
597,540.000000,360.000000
598,540.000000,380.000000
599,540.000000,380.000000
600,540.000000,380.000000
601,540.000000,380.000000
602,540.000000,380.000000
603,520.000000,400.000000
604,540.000000,380.000000
605,540.000000,380.000000
606,520.000000,380.000000
607,520.000000,380.000000
608,540.000000,380.000000
609,540.000000,380.000000
610,520.000000,380.000000
611,540.000000,380.000000
612,540.000000,380.000000
613,520.000000,380.000000
614,540.000000,380.000000
615,540.000000,400.000000
616,520.000000,400.000000
617,540.000000,380.000000
618,540.000000,380.000000
619,520.000000,380.000000
620,540.000000,380.000000
621,540.000000,380.000000
622,540.000000,380.000000
623,520.000000,380.000000
624,540.000000,380.000000
625,540.000000,380.000000
626,540.000000,380.000000
627,540.000000,380.000000
628,520.000000,400.000000
629,540.000000,380.000000
630,540.000000,400.000000
631,520.000000,380.000000
632,540.000000,380.000000
633,520.000000,380.000000
634,540.000000,380.000000
635,520.000000,400.000000
636,540.000000,380.000000
637,520.000000,380.000000
638,540.000000,380.000000
639,540.000000,380.000000
640,540.000000,400.000000
641,520.000000,380.000000
642,520.000000,400.000000
643,540.000000,380.000000
644,520.000000,380.000000
645,520.000000,380.000000
646,520.000000,380.000000
647,540.000000,380.000000
648,540.000000,380.000000
649,540.000000,380.000000
650,520.000000,380.000000
651,540.000000,360.000000
652,520.000000,380.000000
653,540.000000,380.000000
654,540.000000,380.000000
655,500.000000,380.000000
656,520.000000,380.000000
657,540.000000,380.000000
658,540.000000,400.000000
659,520.000000,400.000000
660,520.000000,380.000000
661,540.000000,380.000000
662,540.000000,400.000000
663,520.000000,400.000000
664,540.000000,380.000000
665,540.000000,380.000000
666,540.000000,380.000000
667,540.000000,380.000000
668,520.000000,380.000000
669,540.000000,380.000000
670,520.000000,380.000000
671,540.000000,380.000000
672,540.000000,380.000000
673,540.000000,380.000000
674,540.000000,380.000000
675,540.000000,380.000000
676,520.000000,380.000000
677,540.000000,400.000000
678,540.000000,380.000000
679,540.000000,400.000000
680,540.000000,400.000000
681,540.000000,380.000000
682,540.000000,380.000000
683,540.000000,380.000000
684,540.000000,400.000000
685,520.000000,380.000000
686,520.000000,380.000000
687,540.000000,380.000000
688,540.000000,380.000000
689,520.000000,380.000000
690,540.000000,380.000000
691,520.000000,380.000000
692,540.000000,380.000000
693,540.000000,380.000000
694,520.000000,400.000000
695,540.000000,380.000000
696,540.000000,380.000000
697,540.000000,400.000000
698,540.000000,380.000000
699,540.000000,380.000000
700,540.000000,400.000000
701,540.000000,380.000000
702,520.000000,380.000000
703,520.000000,380.000000
704,540.000000,380.000000
705,540.000000,380.000000
706,540.000000,380.000000
707,540.000000,380.000000
708,520.000000,380.000000
709,540.000000,400.000000
710,520.000000,380.000000
711,520.000000,380.000000
712,540.000000,380.000000
713,540.000000,380.000000
714,540.000000,380.000000
715,540.000000,380.000000
716,540.000000,400.000000
717,540.000000,380.000000
718,520.000000,380.000000
719,520.000000,380.000000
720,520.000000,380.000000
721,540.000000,380.000000
722,520.000000,380.000000
723,540.000000,380.000000
724,540.000000,380.000000
725,540.000000,380.000000
726,540.000000,380.000000
727,520.000000,380.000000
728,540.000000,380.000000
729,540.000000,380.000000
730,540.000000,380.000000
731,520.000000,380.000000
732,520.000000,380.000000
733,520.000000,380.000000
734,540.000000,380.000000
735,540.000000,380.000000
736,520.000000,400.000000
737,540.000000,380.000000
738,540.000000,380.000000
739,540.000000,320.000000
740,520.000000,260.000000
741,520.000000,220.000000
742,540.000000,220.000000
743,520.000000,240.000000
744,540.000000,240.000000
745,540.000000,260.000000
746,540.000000,340.000000
747,540.000000,380.000000
748,520.000000,380.000000
749,520.000000,380.000000
750,540.000000,400.000000
751,540.000000,380.000000
752,540.000000,380.000000
753,540.000000,380.000000
754,540.000000,380.000000
755,540.000000,400.000000
756,540.000000,380.000000
757,540.000000,400.000000
758,520.000000,380.000000
759,540.000000,380.000000
760,540.000000,400.000000
761,540.000000,380.000000
762,540.000000,380.000000
