repport_data/power_measurements/data_26_007.csv

Channel              :,CH1,CH2
Frequency            :,  ?,  ?
Period               :,  ?,  ?
PK-PK                :,60.00mV,240.0mV
Probe attenuation    :,1X,1X
Voltage per ADC value:,1.250000mV,1.250000mV
Time interval        :,400.00000uS,400.00000uS

index,CH1_Voltage(mV),CH2_Voltage(mV)
1,560.000000,400.000000
2,560.000000,400.000000
3,540.000000,420.000000
4,540.000000,420.000000
5,540.000000,420.000000
6,540.000000,440.000000
7,540.000000,420.000000
8,560.000000,420.000000
9,540.000000,420.000000
10,540.000000,440.000000
11,540.000000,440.000000
12,540.000000,420.000000
13,540.000000,440.000000
14,540.000000,440.000000
15,540.000000,420.000000
16,540.000000,420.000000
17,540.000000,440.000000
18,540.000000,440.000000
19,540.000000,440.000000
20,540.000000,440.000000
21,540.000000,440.000000
22,540.000000,440.000000
23,540.000000,440.000000
24,540.000000,440.000000
25,540.000000,420.000000
26,540.000000,440.000000
27,560.000000,420.000000
28,540.000000,420.000000
29,540.000000,440.000000
30,560.000000,440.000000
31,540.000000,440.000000
32,540.000000,440.000000
33,540.000000,360.000000
34,540.000000,320.000000
35,540.000000,300.000000
36,560.000000,280.000000
37,540.000000,300.000000
38,540.000000,360.000000
39,540.000000,380.000000
40,540.000000,400.000000
41,540.000000,420.000000
42,540.000000,420.000000
43,540.000000,420.000000
44,540.000000,440.000000
45,560.000000,440.000000
46,540.000000,440.000000
47,540.000000,440.000000
48,540.000000,440.000000
49,540.000000,440.000000
50,540.000000,440.000000
51,540.000000,420.000000
52,540.000000,420.000000
53,540.000000,420.000000
54,560.000000,440.000000
55,540.000000,440.000000
56,540.000000,440.000000
57,540.000000,440.000000
58,540.000000,440.000000
59,540.000000,440.000000
60,540.000000,440.000000
61,540.000000,420.000000
62,540.000000,440.000000
63,540.000000,440.000000
64,540.000000,420.000000
65,540.000000,440.000000
66,540.000000,420.000000
67,540.000000,420.000000
68,540.000000,440.000000
69,540.000000,440.000000
70,540.000000,440.000000
71,540.000000,400.000000
72,540.000000,340.000000
73,560.000000,380.000000
74,540.000000,400.000000
75,540.000000,400.000000
76,540.000000,420.000000
77,540.000000,420.000000
78,540.000000,420.000000
79,540.000000,440.000000
80,540.000000,420.000000
81,540.000000,400.000000
82,540.000000,420.000000
83,540.000000,420.000000
84,540.000000,420.000000
85,540.000000,420.000000
86,540.000000,440.000000
87,540.000000,420.000000
88,540.000000,440.000000
89,540.000000,440.000000
90,540.000000,440.000000
91,540.000000,420.000000
92,540.000000,420.000000
93,560.000000,440.000000
94,540.000000,440.000000
95,540.000000,400.000000
96,540.000000,380.000000
97,540.000000,340.000000
98,560.000000,320.000000
99,540.000000,320.000000
100,540.000000,300.000000
101,540.000000,300.000000
102,560.000000,300.000000
103,540.000000,300.000000
104,540.000000,300.000000
105,540.000000,300.000000
106,540.000000,300.000000
107,540.000000,300.000000
108,540.000000,300.000000
109,540.000000,300.000000
110,540.000000,300.000000
111,540.000000,300.000000
112,560.000000,300.000000
113,540.000000,300.000000
114,540.000000,300.000000
115,540.000000,320.000000
116,540.000000,300.000000
117,540.000000,300.000000
118,540.000000,300.000000
119,540.000000,300.000000
120,540.000000,300.000000
121,540.000000,300.000000
122,560.000000,300.000000
123,540.000000,300.000000
124,540.000000,300.000000
125,540.000000,300.000000
126,540.000000,300.000000
127,540.000000,300.000000
128,540.000000,320.000000
129,540.000000,300.000000
130,560.000000,300.000000
131,540.000000,300.000000
132,540.000000,300.000000
133,560.000000,300.000000
134,540.000000,300.000000
135,540.000000,320.000000
136,540.000000,300.000000
137,540.000000,320.000000
138,540.000000,300.000000
139,540.000000,300.000000
140,540.000000,300.000000
141,540.000000,300.000000
142,540.000000,320.000000
143,540.000000,320.000000
144,540.000000,300.000000
145,540.000000,300.000000
146,540.000000,300.000000
147,540.000000,300.000000
148,560.000000,300.000000
149,540.000000,300.000000
150,560.000000,300.000000
151,540.000000,300.000000
152,540.000000,300.000000
153,560.000000,300.000000
154,540.000000,300.000000
155,560.000000,300.000000
156,540.000000,300.000000
157,560.000000,300.000000
158,540.000000,300.000000
159,540.000000,300.000000
160,540.000000,320.000000
161,540.000000,300.000000
162,540.000000,320.000000
163,540.000000,300.000000
164,540.000000,320.000000
165,540.000000,300.000000
166,540.000000,320.000000
167,560.000000,300.000000
168,540.000000,300.000000
169,540.000000,300.000000
170,560.000000,300.000000
171,540.000000,320.000000
172,540.000000,300.000000
173,540.000000,320.000000
174,540.000000,300.000000
175,540.000000,300.000000
176,540.000000,300.000000
177,540.000000,300.000000
178,540.000000,320.000000
179,540.000000,300.000000
180,560.000000,320.000000
181,540.000000,300.000000
182,540.000000,300.000000
183,540.000000,300.000000
184,540.000000,300.000000
185,540.000000,300.000000
186,540.000000,300.000000
187,540.000000,300.000000
188,540.000000,300.000000
189,540.000000,300.000000
190,540.000000,300.000000
191,540.000000,300.000000
192,540.000000,280.000000
193,540.000000,320.000000
194,540.000000,300.000000
195,540.000000,300.000000
196,540.000000,300.000000
197,540.000000,300.000000
198,540.000000,300.000000
199,540.000000,300.000000
200,540.000000,300.000000
201,540.000000,300.000000
202,540.000000,320.000000
203,540.000000,360.000000
204,540.000000,400.000000
205,540.000000,400.000000
206,540.000000,420.000000
207,540.000000,420.000000
208,540.000000,420.000000
209,540.000000,420.000000
210,540.000000,420.000000
211,540.000000,440.000000
212,540.000000,440.000000
213,540.000000,440.000000
214,560.000000,440.000000
215,540.000000,440.000000
216,540.000000,440.000000
217,560.000000,440.000000
218,560.000000,440.000000
219,540.000000,420.000000
220,560.000000,440.000000
221,560.000000,420.000000
222,560.000000,440.000000
223,540.000000,420.000000
224,560.000000,440.000000
225,540.000000,420.000000
226,540.000000,420.000000
227,540.000000,440.000000
228,540.000000,440.000000
229,540.000000,440.000000
230,540.000000,420.000000
231,540.000000,440.000000
232,540.000000,440.000000
233,540.000000,440.000000
234,540.000000,440.000000
235,540.000000,420.000000
236,540.000000,420.000000
237,540.000000,440.000000
238,540.000000,420.000000
239,540.000000,420.000000
240,540.000000,420.000000
241,540.000000,440.000000
242,540.000000,420.000000
243,540.000000,440.000000
244,540.000000,420.000000
245,560.000000,440.000000
246,540.000000,420.000000
247,540.000000,440.000000
248,540.000000,420.000000
249,540.000000,440.000000
250,540.000000,440.000000
251,540.000000,420.000000
252,540.000000,440.000000
253,560.000000,440.000000
254,540.000000,440.000000
255,540.000000,440.000000
256,540.000000,440.000000
257,560.000000,440.000000
258,540.000000,420.000000
259,540.000000,440.000000
260,540.000000,420.000000
261,540.000000,440.000000
262,540.000000,440.000000
263,540.000000,440.000000
264,540.000000,420.000000
265,540.000000,440.000000
266,540.000000,420.000000
267,540.000000,440.000000
268,540.000000,420.000000
269,540.000000,440.000000
270,540.000000,440.000000
271,540.000000,440.000000
272,540.000000,440.000000
273,540.000000,420.000000
274,540.000000,420.000000
275,540.000000,420.000000
276,540.000000,420.000000
277,540.000000,440.000000
278,540.000000,440.000000
279,540.000000,440.000000
280,540.000000,440.000000
281,540.000000,440.000000
282,540.000000,420.000000
283,540.000000,420.000000
284,540.000000,440.000000
285,560.000000,440.000000
286,540.000000,440.000000
287,540.000000,440.000000
288,540.000000,420.000000
289,540.000000,420.000000
290,540.000000,420.000000
291,540.000000,440.000000
292,540.000000,440.000000
293,540.000000,420.000000
294,540.000000,440.000000
295,540.000000,440.000000
296,540.000000,420.000000
297,540.000000,440.000000
298,560.000000,420.000000
299,540.000000,440.000000
300,560.000000,420.000000
301,540.000000,440.000000
302,540.000000,440.000000
303,540.000000,420.000000
304,540.000000,420.000000
305,540.000000,420.000000
306,540.000000,420.000000
307,560.000000,420.000000
308,540.000000,440.000000
309,540.000000,440.000000
310,540.000000,420.000000
311,540.000000,420.000000
312,540.000000,420.000000
313,540.000000,420.000000
314,540.000000,420.000000
315,540.000000,440.000000
316,540.000000,440.000000
317,540.000000,420.000000
318,540.000000,420.000000
319,540.000000,420.000000
320,560.000000,420.000000
321,540.000000,440.000000
322,540.000000,440.000000
323,540.000000,420.000000
324,540.000000,440.000000
325,540.000000,420.000000
326,540.000000,440.000000
327,560.000000,440.000000
328,560.000000,440.000000
329,540.000000,420.000000
330,540.000000,440.000000
331,540.000000,440.000000
332,540.000000,440.000000
333,540.000000,440.000000
334,540.000000,420.000000
335,540.000000,440.000000
336,560.000000,440.000000
337,540.000000,420.000000
338,540.000000,420.000000
339,540.000000,440.000000
340,540.000000,440.000000
341,560.000000,440.000000
342,540.000000,440.000000
343,540.000000,440.000000
344,540.000000,440.000000
345,540.000000,420.000000
346,540.000000,420.000000
347,540.000000,440.000000
348,540.000000,440.000000
349,540.000000,440.000000
350,540.000000,420.000000
351,540.000000,420.000000
352,540.000000,420.000000
353,560.000000,440.000000
354,540.000000,440.000000
355,540.000000,440.000000
356,540.000000,420.000000
357,540.000000,440.000000
358,540.000000,420.000000
359,540.000000,420.000000
360,540.000000,440.000000
361,540.000000,420.000000
362,540.000000,440.000000
363,540.000000,420.000000
364,540.000000,420.000000
365,540.000000,420.000000
366,540.000000,420.000000
367,540.000000,440.000000
368,540.000000,420.000000
369,540.000000,440.000000
370,520.000000,440.000000
371,540.000000,440.000000
372,540.000000,440.000000
373,540.000000,420.000000
374,540.000000,440.000000
375,540.000000,420.000000
376,540.000000,420.000000
377,540.000000,440.000000
378,540.000000,420.000000
379,540.000000,420.000000
380,540.000000,440.000000
381,560.000000,440.000000
382,540.000000,440.000000
383,540.000000,440.000000
384,540.000000,440.000000
385,540.000000,420.000000
386,540.000000,440.000000
387,540.000000,420.000000
388,540.000000,420.000000
389,540.000000,420.000000
390,540.000000,420.000000
391,560.000000,420.000000
392,540.000000,440.000000
393,540.000000,440.000000
394,540.000000,440.000000
395,540.000000,420.000000
396,540.000000,420.000000
397,540.000000,440.000000
398,540.000000,440.000000
399,540.000000,440.000000
400,540.000000,440.000000
401,560.000000,440.000000
402,560.000000,420.000000
403,540.000000,440.000000
404,540.000000,440.000000
405,540.000000,440.000000
406,540.000000,440.000000
407,540.000000,440.000000
408,540.000000,440.000000
409,540.000000,440.000000
410,540.000000,440.000000
411,540.000000,440.000000
412,540.000000,440.000000
413,560.000000,420.000000
414,540.000000,440.000000
415,540.000000,440.000000
416,540.000000,420.000000
417,560.000000,420.000000
418,540.000000,440.000000
419,540.000000,420.000000
420,540.000000,420.000000
421,540.000000,440.000000
422,540.000000,420.000000
423,540.000000,420.000000
424,560.000000,440.000000
425,540.000000,440.000000
426,540.000000,420.000000
427,540.000000,440.000000
428,540.000000,440.000000
429,560.000000,420.000000
430,560.000000,440.000000
431,540.000000,440.000000
432,540.000000,440.000000
433,540.000000,440.000000
434,540.000000,440.000000
435,540.000000,440.000000
436,540.000000,420.000000
437,540.000000,440.000000
438,540.000000,420.000000
439,560.000000,420.000000
440,540.000000,420.000000
441,540.000000,440.000000
442,540.000000,440.000000
443,540.000000,420.000000
444,540.000000,420.000000
445,560.000000,440.000000
446,540.000000,440.000000
447,540.000000,440.000000
448,540.000000,420.000000
449,540.000000,440.000000
450,540.000000,440.000000
451,540.000000,440.000000
452,540.000000,420.000000
453,540.000000,420.000000
454,540.000000,440.000000
455,540.000000,440.000000
456,540.000000,420.000000
457,540.000000,440.000000
458,540.000000,440.000000
459,540.000000,440.000000
460,540.000000,440.000000
461,540.000000,440.000000
462,560.000000,440.000000
463,540.000000,420.000000
464,540.000000,440.000000
465,540.000000,420.000000
466,540.000000,420.000000
467,540.000000,420.000000
468,540.000000,440.000000
469,540.000000,420.000000
470,540.000000,440.000000
471,560.000000,420.000000
472,540.000000,420.000000
473,540.000000,420.000000
474,560.000000,440.000000
475,540.000000,420.000000
476,540.000000,420.000000
477,540.000000,420.000000
478,560.000000,420.000000
479,540.000000,420.000000
480,540.000000,420.000000
481,560.000000,420.000000
482,560.000000,420.000000
483,540.000000,440.000000
484,540.000000,420.000000
485,560.000000,440.000000
486,540.000000,420.000000
487,540.000000,420.000000
488,540.000000,420.000000
489,560.000000,440.000000
490,540.000000,440.000000
491,540.000000,440.000000
492,540.000000,420.000000
493,540.000000,440.000000
494,560.000000,420.000000
495,540.000000,440.000000
496,540.000000,420.000000
497,560.000000,420.000000
498,560.000000,440.000000
499,540.000000,440.000000
500,540.000000,440.000000
501,540.000000,420.000000
502,540.000000,440.000000
503,540.000000,440.000000
504,540.000000,420.000000
505,560.000000,420.000000
506,560.000000,440.000000
507,560.000000,440.000000
508,540.000000,440.000000
509,540.000000,420.000000
510,540.000000,440.000000
511,540.000000,420.000000
512,540.000000,440.000000
513,540.000000,440.000000
514,560.000000,440.000000
515,540.000000,440.000000
516,540.000000,420.000000
517,540.000000,440.000000
518,540.000000,420.000000
519,540.000000,440.000000
520,540.000000,420.000000
521,540.000000,440.000000
522,540.000000,440.000000
523,540.000000,420.000000
524,540.000000,440.000000
525,540.000000,440.000000
526,540.000000,420.000000
527,540.000000,440.000000
528,540.000000,440.000000
529,560.000000,420.000000
530,540.000000,440.000000
531,540.000000,420.000000
532,540.000000,440.000000
533,540.000000,420.000000
534,540.000000,420.000000
535,540.000000,440.000000
536,540.000000,420.000000
537,540.000000,440.000000
538,540.000000,420.000000
539,540.000000,440.000000
540,540.000000,420.000000
541,540.000000,440.000000
542,540.000000,440.000000
543,560.000000,440.000000
544,540.000000,440.000000
545,540.000000,440.000000
546,540.000000,440.000000
547,540.000000,420.000000
548,540.000000,420.000000
549,540.000000,420.000000
550,540.000000,420.000000
551,540.000000,440.000000
552,540.000000,440.000000
553,540.000000,440.000000
554,540.000000,440.000000
555,540.000000,420.000000
556,540.000000,440.000000
557,560.000000,440.000000
558,540.000000,440.000000
559,560.000000,440.000000
560,540.000000,440.000000
561,540.000000,440.000000
562,540.000000,440.000000
563,540.000000,440.000000
564,540.000000,420.000000
565,540.000000,440.000000
566,540.000000,420.000000
567,540.000000,440.000000
568,540.000000,420.000000
569,540.000000,440.000000
570,540.000000,420.000000
571,520.000000,420.000000
572,540.000000,440.000000
573,540.000000,420.000000
574,540.000000,440.000000
575,540.000000,440.000000
576,540.000000,440.000000
577,540.000000,400.000000
578,540.000000,360.000000
579,540.000000,340.000000
580,540.000000,320.000000
581,560.000000,300.000000
582,540.000000,280.000000
583,540.000000,280.000000
584,540.000000,260.000000
585,540.000000,260.000000
586,540.000000,260.000000
587,540.000000,280.000000
588,540.000000,280.000000
589,540.000000,280.000000
590,540.000000,280.000000
591,560.000000,300.000000
592,540.000000,300.000000
593,540.000000,300.000000
594,540.000000,320.000000
595,540.000000,360.000000
596,540.000000,380.000000
597,540.000000,400.000000
598,540.000000,420.000000
599,540.000000,420.000000
600,540.000000,420.000000
601,540.000000,440.000000
602,540.000000,420.000000
603,540.000000,420.000000
604,540.000000,420.000000
605,540.000000,440.000000
606,540.000000,420.000000
607,540.000000,440.000000
608,540.000000,420.000000
609,540.000000,420.000000
610,540.000000,440.000000
611,540.000000,420.000000
612,560.000000,420.000000
613,540.000000,440.000000
614,540.000000,440.000000
615,540.000000,440.000000
616,540.000000,420.000000
617,540.000000,440.000000
618,560.000000,440.000000
619,540.000000,440.000000
620,540.000000,440.000000
621,540.000000,440.000000
622,540.000000,420.000000
623,540.000000,440.000000
624,540.000000,440.000000
625,540.000000,420.000000
626,540.000000,420.000000
627,560.000000,420.000000
628,540.000000,440.000000
629,560.000000,420.000000
630,540.000000,420.000000
631,560.000000,420.000000
632,540.000000,420.000000
633,540.000000,420.000000
634,540.000000,440.000000
635,520.000000,440.000000
636,540.000000,440.000000
637,560.000000,440.000000
638,540.000000,440.000000
639,540.000000,420.000000
640,540.000000,420.000000
641,540.000000,420.000000
642,540.000000,420.000000
643,540.000000,420.000000
644,540.000000,420.000000
645,540.000000,440.000000
646,540.000000,420.000000
647,540.000000,420.000000
648,540.000000,440.000000
649,540.000000,440.000000
650,540.000000,440.000000
651,540.000000,440.000000
652,540.000000,440.000000
653,540.000000,440.000000
654,560.000000,420.000000
655,540.000000,440.000000
656,540.000000,420.000000
657,540.000000,440.000000
658,560.000000,440.000000
659,540.000000,420.000000
660,540.000000,440.000000
661,540.000000,420.000000
662,560.000000,440.000000
663,560.000000,440.000000
664,540.000000,440.000000
665,560.000000,420.000000
666,540.000000,440.000000
667,540.000000,420.000000
668,540.000000,420.000000
669,540.000000,440.000000
670,540.000000,420.000000
671,540.000000,440.000000
672,540.000000,440.000000
673,540.000000,420.000000
674,540.000000,420.000000
675,540.000000,440.000000
676,540.000000,420.000000
677,560.000000,440.000000
678,540.000000,420.000000
679,540.000000,440.000000
680,540.000000,420.000000
681,540.000000,440.000000
682,540.000000,420.000000
683,540.000000,420.000000
684,540.000000,420.000000
685,540.000000,440.000000
686,540.000000,440.000000
687,540.000000,440.000000
688,540.000000,420.000000
689,540.000000,440.000000
690,540.000000,420.000000
691,540.000000,420.000000
692,540.000000,440.000000
693,540.000000,440.000000
694,540.000000,420.000000
695,540.000000,420.000000
696,540.000000,420.000000
697,540.000000,440.000000
698,540.000000,420.000000
699,540.000000,440.000000
700,540.000000,420.000000
701,540.000000,420.000000
702,540.000000,440.000000
703,560.000000,420.000000
704,540.000000,440.000000
705,540.000000,440.000000
706,540.000000,440.000000
707,540.000000,440.000000
708,540.000000,440.000000
709,540.000000,440.000000
710,540.000000,440.000000
711,540.000000,440.000000
712,540.000000,420.000000
713,540.000000,440.000000
714,540.000000,440.000000
715,540.000000,420.000000
716,540.000000,420.000000
717,540.000000,420.000000
718,560.000000,420.000000
719,540.000000,440.000000
720,540.000000,420.000000
721,540.000000,420.000000
722,540.000000,440.000000
723,540.000000,440.000000
724,540.000000,440.000000
725,540.000000,440.000000
726,540.000000,420.000000
727,540.000000,440.000000
728,540.000000,420.000000
729,540.000000,420.000000
730,540.000000,420.000000
731,540.000000,420.000000
732,540.000000,420.000000
733,540.000000,420.000000
734,560.000000,440.000000
735,540.000000,440.000000
736,540.000000,420.000000
737,540.000000,420.000000
738,540.000000,420.000000
739,560.000000,420.000000
740,540.000000,420.000000
741,540.000000,420.000000
742,540.000000,420.000000
743,540.000000,420.000000
744,540.000000,420.000000
745,540.000000,420.000000
746,540.000000,420.000000
747,540.000000,420.000000
748,540.000000,420.000000
749,540.000000,440.000000
750,560.000000,420.000000
751,540.000000,420.000000
752,560.000000,440.000000
753,540.000000,420.000000
754,540.000000,420.000000
755,540.000000,420.000000
756,540.000000,420.000000
757,560.000000,420.000000
758,540.000000,440.000000
759,540.000000,420.000000
760,540.000000,420.000000
761,540.000000,440.000000
762,540.000000,420.000000
